setup_vision = yes
government = tribal
add_government_reform = dwarovar_warband
government_rank = 1
primary_culture = black_orc
religion = great_dookan
technology_group = tech_orcish
capital = 2995

1442.3.17 = {
	monarch = {
		name = "Gurukk"
		dynasty = "Siegebreaker"
		birth_date = 1400.10.25
		adm = 3
		dip = 1
		mil = 6
	}
	add_ruler_personality = inspiring_leader_personality
	add_ruler_personality = bold_fighter_personality
	add_ruler_personality = fertile_personality
	heir = {
		name = "Vrog"
		monarch_name = "Vrog I"
		dynasty = "Siegebreaker"
		birth_date = 1425.11.27
		death_date = 1525.1.1
		claim = 100
		adm = 3
		dip = 2
		mil = 5
	}
	add_heir_personality = conqueror_personality
}

1444.1.1 = {
    define_ruler_to_general = {
        fire = 1
        shock = 4
        manuever = 3
        siege = 4
    }
	define_heir_to_general = {
		fire = 0
		shock = 6
		manuever = 2
		siege = 1
	}
}
