

giberd_imperial = {
	slot = 1
	generic = no
	ai = yes
	potential = {
		tag = A81
	}
	has_country_shield = yes
	
	giberd_send_aid_to_nimscodd = {
		icon = mission_invade_island
		required_missions = {
			
		}
		position = 1
		
		trigger = {
			OR = {
				AND = {
					exists = A06 #Nimscodd
					treasury = 200
				}
				NOT = { exists = A06 } #Nimscodd
			}
		}
		
		effect = {
			if = {
				limit = {
					exists = A06 #Nimscodd
				}
				add_treasury = -200
				A06 = { #Nimscodd
					country_event = { id = flavor_giberd.1 days = 60 random = 30 }
				}
				add_country_modifier = {
					name = giberd_nimscodd_aid
					duration = 7300 # 20 years
				}
			}
		}
	}
	
	giberd_grow_in_size = {
		icon = mission_conquer_50_development
		required_missions = {
			giberd_send_aid_to_nimscodd
		}
		position = 2
		
		trigger = {
			total_development = 100
		}
		
		effect = {
			add_prestige = 20
		}
	}
	
	giberd_elector_relations = {
		icon = mission_monarch_diplomacy
		required_missions = {
			giberd_grow_in_size
		}
		position = 3
		
		trigger = {
			OR = {
				calc_true_if = {
					all_elector = {
						has_opinion = {
							who = ROOT
							value = 150
						}
					}
					amount = 5
				}
				eoa_is_dismantled = yes
			}
		}
		
		effect = {
			add_country_modifier = {
				name = giberd_elector_support
				duration = 7300 # 20 years
			}
		}
	}
	
	giberd_princely_support = {
		icon = mission_diplomacy_missive
		required_missions = {
			giberd_elector_relations
		}
		position = 4
		
		trigger = {
			diplomatic_reputation = 3
			dip_power = 50
		}
		
		effect = {
			add_dip_power = -50
			define_advisor = {
				type = diplomat
				name = "Cobbob Fidgetspinner"
				skill = 2
				discount = yes
			}
		}
	}
	
	giberd_a_gnomish_elector = {
		icon = imperial_capitals
		required_missions = {
			giberd_princely_support
		}
		position = 5
		
		trigger = {
			OR = {
				eoa_is_dismantled = yes
				AND = {
					NOT = { num_of_electors = 8 }
					emperor = {
						has_opinion = {
							who = ROOT
							value = 150
						}
					}
				}
			}
		}
		
		effect = {
			emperor = {
				country_event = { id = flavor_giberd.2 days = 30 random = 30 }
			}
		}
	}
	
}

giberd_konwell_conquest = {
	slot = 2
	generic = no
	ai = yes
	potential = {
		tag = A81
	}
	has_country_shield = yes
	
	giberd_ally_with_the_dwarves = {
		icon = mission_alliances
		required_missions = {
			
		}
		position = 1
		
		trigger = {
			OR = {
				alliance_with = A73 #Silverforge
				A73 = { #Silverforge
					has_opinion = {
						who = ROOT
						value = 150
					}
				}
				NOT = { exists = A73 } #Silverforge
			}
		}
		
		effect = {
			hearthswood_area = {
				limit = {
					NOT = { is_core = ROOT }
					NOT = { is_permanent_claim = ROOT }
				}
				add_permanent_claim = ROOT
			}
		}
	}
	
	giberd_secure_timber = {
		icon = mission_tree_fishing
		required_missions = {
			giberd_ally_with_the_dwarves
		}
		position = 2
		
		provinces_to_highlight = {
			area = hearthswood_area
			NOT = {
				owned_by = ROOT
			}
		}
		
		trigger = {
			hearthswood_area = {
				type = all
				owned_by = ROOT
			}
		}
		
		effect = {
			songbarges_area = {
				limit = {
					NOT = { is_core = ROOT }
					NOT = { is_permanent_claim = ROOT }
				}
				add_permanent_claim = ROOT
			}
		}
	}
	
	giberd_discipline_the_singers = {
		icon = mission_danzig_or_war
		required_missions = {
			giberd_secure_timber
		}
		position = 3
		
		provinces_to_highlight = {
			area = songbarges_area
			NOT = {
				owned_by = ROOT
			}
		}
		
		trigger = {
			songbarges_area = {
				type = all
				owned_by = ROOT
			}
		}
		
		effect = {
			konwell_area = {
				limit = {
					NOT = { is_core = ROOT }
					NOT = { is_permanent_claim = ROOT }
				}
				add_permanent_claim = ROOT
			}
			add_country_modifier = {
				name = giberd_song_calmed
				duration = 7300 #20 years
			}
		}
	}
	
	giberd_seize_the_archive = {
		icon = Compulsory_Education
		required_missions = {
			giberd_discipline_the_singers
		}
		position = 4
		
		provinces_to_highlight = {
			area = konwell_area
			NOT = {
				owned_by = ROOT
			}
		}
		
		trigger = {
			konwell_area = {
				type = all
				owned_by = ROOT
			}
		}
		
		effect = {
			add_country_modifier = {
				name = giberd_imperial_archives
				duration = 18250 #50 years
			}
		}
	}
	
	giberd_claim_to_esmaria = {
		icon = friends_in_high_places
		required_missions = {
			giberd_seize_the_archive
			giberd_uplift_ryalanar
		}
		position = 5
		
		provinces_to_highlight = {
			OR = {
				area = konwell_area
				area = ryalanar_area
			}
			NOT = {
				owned_by = ROOT
				is_core = ROOT
			}
		}
		
		trigger = {
			prestige = 50
			konwell_area = {
				type = all
				owned_by = ROOT
				is_core = ROOT
			}
			ryalanar_area = {
				type = all
				owned_by = ROOT
				is_core = ROOT
			}
		}
		
		effect = {
			esmaria_region = {
				limit = {
					NOT = { is_core = ROOT }
					NOT = { is_permanent_claim = ROOT }
				}
				add_permanent_claim = ROOT
			}
		}
	}
	
	giberd_a_new_hierarchy = {
		icon = mission_crowning
		required_missions = {
			giberd_a_gnomish_elector
			giberd_claim_to_esmaria
		}
		position = 6
		
		trigger = {
			num_of_owned_provinces_with = {
				value = 27
				region = esmaria_region
			}
		}
		
		effect = {
			add_country_modifier = {
				name = giberd_giberdi_hierarchy
				duration = -1
			}
			override_country_name = GIBERDI_HIERARCHY
		}
	}
	
}

giberd_ryalanar_conquest = {
	slot = 3
	generic = no
	ai = yes
	potential = {
		tag = A81
	}
	has_country_shield = yes
	
	giberd_prepare_for_war = {
		icon = mission_build_up_to_force_limit
		required_missions = {
			
		}
		position = 1
		
		trigger = {
			army_size_percentage = 1
		}
		
		effect = {
			bennonhill_area = {
				limit = {
					NOT = { is_core = ROOT }
					NOT = { is_permanent_claim = ROOT }
				}
				add_permanent_claim = ROOT
			}
		}
	}
	
	giberd_protect_ducal_gnomes = {
		icon = alpine_fortifications
		required_missions = {
			giberd_prepare_for_war
		}
		position = 2
		
		provinces_to_highlight = {
			area = bennonhill_area
			NOT = {
				owned_by = ROOT
			}
		}
		
		trigger = {
			bennonhill_area = {
				type = all
				owned_by = ROOT
			}
		}
		
		effect = {
			cann_esmar_area = {
				limit = {
					NOT = { is_core = ROOT }
					NOT = { is_permanent_claim = ROOT }
				}
				add_permanent_claim = ROOT
			}
			add_country_modifier = {
				name = giberd_gnomish_duchy
				duration = 7300 #20 years
			}
		}
	}
	
	giberd_conquer_cann_esmar = {
		icon = mission_advance_to_the_dnieper
		required_missions = {
			giberd_protect_ducal_gnomes
		}
		position = 3
		
		provinces_to_highlight = {
			area = cann_esmar_area
			NOT = {
				owned_by = ROOT
			}
		}
		
		trigger = {
			cann_esmar_area = {
				type = all
				owned_by = ROOT
			}
		}
		
		effect = {
			ryalanar_area = {
				limit = {
					NOT = { is_core = ROOT }
					NOT = { is_permanent_claim = ROOT }
				}
				add_permanent_claim = ROOT
			}
		}
	}
	
	giberd_uplift_ryalanar = {
		icon = mission_develop_nevas_port
		required_missions = {
			giberd_conquer_cann_esmar
		}
		position = 4
		
		provinces_to_highlight = {
			area = ryalanar_area
			NOT = {
				owned_by = ROOT
			}
		}
		
		trigger = {
			ryalanar_area = {
				type = all
				owned_by = ROOT
			}
		}
		
		effect = {
			add_power_projection = {
                type = mission_rewards_power_projection
                amount = 20
            }
		}
	}
	
}

giberd_mercantile_shipping = {
	slot = 4
	generic = no
	ai = yes
	potential = {
		tag = A81
	}
	has_country_shield = yes
	
	giberd_center_of_commerce = {
		icon = mission_asian_trader
		required_missions = {
			giberd_improve_giberd
		}
		position = 2
		
		provinces_to_highlight = {
			province_id = 271 #Giberd
		}
		
		trigger = {
			271 = { #Giberd
				has_trade_building_trigger = yes
			}
			dip_power = 50
		}
		
		effect = {
			add_dip_power = -50
			define_advisor = {
				type = trader
				name = "Schleemo Podddoddddod"
				skill = 2
				discount = yes
			}
		}
	}
	
	giberd_integrate_bennon = {
		icon = mission_hanseatic_city
		required_missions = {
			giberd_protect_ducal_gnomes
			giberd_center_of_commerce
		}
		position = 3
		
		provinces_to_highlight = {
			province_id = 268 #Bennon
			NOT = {
				development = 25
			}
		}
		
		trigger = {
			268 = { #Bennon
				development = 25
			}
		}
		
		effect = {
			268 = { #Bennon
				add_permanent_province_modifier = {
					name = giberd_bennon_trade
					duration = -1
				}
			}
		}
	}
	
	giberd_transhavoral_trade = {
		icon = mission_high_income
		required_missions = {
			giberd_integrate_bennon
		}
		position = 4
		
		provinces_to_highlight = {
			OR = {
				province_id = 352 #Ibevar
				province_id = 912 #Anvilwright
				province_id = 266 #Esmaraine
			}
			NOT = {
				owned_by = ROOT
			}
		}
		
		trigger = {
			352 = { #Ibevar
				OR = {
					owned_by = ROOT
					owner = {
						has_opinion = {
							who = ROOT
							value = 150
						}
					}
				}
			}
			912 = { #Anvilwright
				OR = {
					owned_by = ROOT
					owner = {
						has_opinion = {
							who = ROOT
							value = 150
						}
					}
				}
			}
			266 = { #Esmaraine
				OR = {
					owned_by = ROOT
					owner = {
						has_opinion = {
							who = ROOT
							value = 150
						}
					}
				}
			}
		}
		
		effect = {
			add_country_modifier = {
				name = giberd_transhavoral_trade_mod
				duration = 7300 #20 years
			}
		}
	}
	
	giberd_north_giberd = {
		icon = mission_heart_of_the_hansa
		required_missions = {
			giberd_transhavoral_trade
		}
		position = 5
		
		provinces_to_highlight = {
			province_id = 268 #Bennon
			NOT = {
				development = 50
			}
		}
		
		trigger = {
			268 = { #Bennon
				development = 50
			}
		}
		
		effect = {
			add_country_modifier = {
				name = giberd_mercantile_shipping_mod
				duration = -1
			}
		}
	}
	
}

giberd_artificer = {
	slot = 5
	generic = no
	ai = yes
	potential = {
		tag = A81
	}
	has_country_shield = yes
	
	giberd_improve_giberd = {
		icon = mission_early_game_buildings
		required_missions = {
			
		}
		position = 1
		
		provinces_to_highlight = {
			province_id = 271 #Giberd
			NOT = {
				development = 30
			}
		}
		
		trigger = {
			271 = { #Giberd
				development = 30
			}
		}
		
		effect = {
			add_country_modifier = {
				name = giberd_growth_of_giberd
				duration = 7300 #20 years
			}
		}
	}
	
	giberd_encourage_centralization = {
		icon = mission_smith
		required_missions = {
			giberd_improve_giberd
		}
		position = 2
		
		provinces_to_highlight = {
			province_id = 271 #Giberd
			NOT = {
				has_production_building_trigger = yes
			}
		}
		
		trigger = {
			adm_power = 100
			271 = { #Giberd
				has_production_building_trigger = yes
			}
		}
		
		effect = {
			add_adm_power = -100
			271 = { #Giberd
				add_permanent_province_modifier = {
					name = giberd_craft_centralization
					duration = -1
				}
			}
		}
	}
	
	giberd_establish_a_technocracy = {
		icon = mission_writing_book
		required_missions = {
			giberd_encourage_centralization
		}
		position = 3
		
		trigger = {
			NOT = {
				has_reform = free_city
			}
		}
		
		effect = {
			if = {
				limit = {
					has_reform = technocracy_republic_reform
				}
				change_government_reform_progress = 50
			}
			else = {
				if = {
					limit = {
						NOT = { government = republic }
					}
					change_government = republic
				}
				add_government_reform = technocracy_republic_reform
			}
		}
	}
	
	giberd_institute_mass_production = {
		icon = mission_have_manufactories
		required_missions = {
			giberd_establish_a_technocracy
		}
		position = 4
		
		provinces_to_highlight = {
			province_id = 271 #Giberd
			NOT = {
				has_manufactory_trigger = yes
			}
		}
		
		trigger = {
			271 = { #Giberd
				has_manufactory_trigger = yes
			}
		}
		
		effect = {
			271 = { #Giberd
				add_permanent_province_modifier = {
					name = giberd_artificer_manufactories
					duration = -1
				}
			}
		}
	}
	
	giberd_giberd_technical = {
		icon = mission_early_modern_university
		required_missions = {
			giberd_institute_mass_production
		}
		position = 5
		
		provinces_to_highlight = {
			province_id = 271 #Giberd
			NOT = {
				has_building = university
			}
		}
		
		trigger = {
			271 = { #Giberd
				has_building = university
			}
		}
		
		effect = {
			add_country_modifier = {
				name = giberd_giberd_technical_university
				duration = -1
			}
		}
	}
	
	giberd_embrace_ravelianism = {
		icon = mission_european_church
		required_missions = {
			giberd_giberd_technical
		}
		position = 6
		
		trigger = {
			religion = ravelian
		}
		
		effect = {
			271 = { #Giberd
				if = {
					limit = {
						has_cardinal = no
					}
					add_cardinal = yes
				}
			}
			add_country_modifier = {
				name = giberd_embrace_ravelianism_mod
				duration = 7300 #20 years
			}
		}
	}
	
}