
vogre_one = {
	slot = 2
	generic = no
	ai = yes
	potential = {
		OR = {
			tag = J35
			tag = J36
			tag = J37
			tag = J38
			tag = J39
			tag = J40
		}
	}
	has_country_shield = yes
	
	vogre_restore_walls = {
		icon = mission_assert_control_over_delhi
		required_missions = { }
		position = 1
		
		trigger = {
			treasury = 100
			mil_power = 100
		}
		
		effect = {
			add_treasury = -100
			add_mil_power = -100
			capital_scope = {
				add_building_construction = {
					building = fort_15th
					speed = 1
					cost = 0
				}
			}
			country_event = {
				id = ogre.11
				days = 915
				random = 30
			}
		}
	}
	
	vogre_expand_city = {
		icon = mission_reclaim_lost_territory
		required_missions = { vogre_restore_walls }
		position = 2
		
		trigger = {
			adm_power = 75
			dip_power = 75
			mil_power = 75
			years_of_income = 1.5
		}
		
		effect = {
			add_years_of_income = -1.5
			add_adm_power = -75
			add_dip_power = -75
			add_mil_power = -75
			capital_scope = {
				add_base_tax = 1
				add_base_production = 1
				add_base_manpower = 1
				add_province_modifier = {
					name = ogre_expanding
					duration = 3650
				}
			}
		}
	}
	
	vogre_great_kelaktar = {
		icon = mission_found_the_city_of_agra
		required_missions = { vogre_expand_city }
		position = 3
		
		trigger = {
			years_of_income = 2
			capital_scope = {
				num_of_times_improved = 12
			}
			custom_trigger_tooltip = {
				tooltip = great_kelaktar_building
				NOT = { has_global_flag = great_kelaktar_exists }
			}
		}
		
		effect = {
			add_years_of_income = -2
			add_prestige = 20
			remove_country_modifier = kelaktar
			J35 = { add_liberty_desire = 10 }
			J36 = { add_liberty_desire = 10 }
			J37 = { add_liberty_desire = 10 }
			J38 = { add_liberty_desire = 10 }
			J39 = { add_liberty_desire = 10 }
			J40 = { add_liberty_desire = 10 }
			set_global_flag = great_kelaktar_exists
			I90 = {
				country_event = {
					id = ogre.12
				}
			}
		}
	}
}
	
vogre_two = {
	slot = 3
	generic = no
	ai = yes
	potential = {
		OR = {
			tag = J35
			tag = J36
			tag = J37
			tag = J38
			tag = J39
			tag = J40
		}
	}
	has_country_shield = yes
	
	vogre_improved_standing = {
		icon = mission_subdue_the_afghans
		required_missions = { }
		position = 1
		
		trigger = {
			custom_trigger_tooltip = {
				tooltip = ogre_friends
				calc_true_if = {
					overlord = {
						all_subject_country = {
							has_opinion = {
								who = ROOT
								value = 150
							}
						}
					}
					amount = 2
				}
			}
		}
		
		effect = {
			add_prestige = 10
			add_liberty_desire = 5
		}
	}
	
	vogre_staking_claim = {
		icon = defenestrate_the_heretics
		required_missions = { vogre_improved_standing }
		position = 2
		
		trigger = {
			has_spy_network_in = {
				who = I90
				value = 50
			}
			army_strength = {
				who = I90
				value = 0.5
			}
		}
		
		effect = {
			add_spy_network_in = {
				who = I90
				value = -50
			}
			add_prestige = 10
			J35 = { add_liberty_desire = 10 }
			J36 = { add_liberty_desire = 10 }
			J37 = { add_liberty_desire = 10 }
			J38 = { add_liberty_desire = 10 }
			J39 = { add_liberty_desire = 10 }
			J40 = { add_liberty_desire = 10 }
		}
	}
	
	vogre_preparing_march = {
		icon = military_self_reliance
		required_missions = { vogre_staking_claim }
		position = 3
		
		trigger = {
			num_of_generals = 1
			liberty_desire = 70
		}
		
		effect = {
			I90 = {
				every_owned_province = {
					limit = {
						NOT = { is_core = ROOT }
						NOT = { owned_by = ROOT }
					}
					add_permanent_claim = ROOT
				}
			}
			J35 = { add_liberty_desire = 10 }
			J36 = { add_liberty_desire = 10 }
			J37 = { add_liberty_desire = 10 }
			J38 = { add_liberty_desire = 10 }
			J39 = { add_liberty_desire = 10 }
			J40 = { add_liberty_desire = 10 }
		}
	}
	
	vogre_new_king = {
		icon = imperial_ascendancy
		required_missions = { vogre_preparing_march }
		position = 4
		
		provinces_to_highlight = { province_id = 5037 }
		
		trigger = {
			5037 = {
				is_core = ROOT
				owned_by = ROOT
			}
			NOT = { exists = I90 }
		}
		
		effect = {
			add_prestige = 25
			change_tag = I90
			hidden_effect = { restore_country_name = yes }
			swap_non_generic_missions = yes
			set_government_rank = 2
			change_government = monarchy
			add_government_reform = ogre_kingdom
			5037 = { move_capital_effect = yes }
			if = {
				limit = { has_custom_ideas = no }
				country_event = { id = ideagroups.1 } #Swap Ideas
			}
			vassalize = J35
			vassalize = J36
			vassalize = J37
			vassalize = J38
			vassalize = J39
			vassalize = J40
			add_country_modifier = {
				name = new_ogre_king
				duration = 5475
			}
		}
	}
}
	
vogre_three = {
	slot = 4
	generic = no
	ai = yes
	potential = {
		OR = {
			tag = J35
			tag = J36
			tag = J37
			tag = J38
			tag = J39
			tag = J40
		}
	}
	has_country_shield = yes
	
	vogre_raise_warbanners = {
		icon = protect_against_austria
		required_missions = { }
		position = 1
		
		trigger = {
			army_size_percentage = 1
		}
		
		effect = {
			add_country_modifier = {
				name = raised_warbanners
				duration = 3650
			}
		}
	}
	
	vogre_melee = {
		icon = claim_the_borderlands
		required_missions = { vogre_raise_warbanners }
		position = 2
		
		trigger = {
			OR = {
				advisor = army_organiser
				advisor = quartermaster
				advisor = recruitmaster
			}
			monthly_mil = 8
			
		}
		
		effect = {
			define_general = {
				shock = 3
				fire = 3
				manuever = 4
				siege = 3
			}
			add_country_modifier = {
				name = grand_melee
				duration = 3650
			}
		}
	}
	vogre_high_places = {
		icon = spread_the_von_wettins
		required_missions = { vogre_melee }
		position = 3
		
		trigger = {
			reverse_has_opinion = {
				who = I90
				value = 150
			}
		}
		
		effect = {
			define_advisor = {
				type = court_mage
				skill = 1
				discount = yes
				culture = fathide_ogre
				religion = feast_of_the_gods
			}
		}
	}
}