
ogre_tribe_one = {
	slot = 2
	generic = no
	ai = yes
	potential = {
		OR = {
			tag = J41
			tag = J42
			tag = J43
			tag = J44
			tag = J45
			tag = J46
		}
	}
	has_country_shield = yes
	
	skurkokli_train_berzerkers = {
		icon = mission_steppe_warriors
		required_missions = { }
		position = 1
		
		trigger = {
			manpower = 5
			mil_power = 100
			custom_trigger_tooltip = {
				tooltip =  not_skurkokli
			}
		}
		
		effect = {
			hidden_effect = { set_country_flag = warcap_mission_1 }
			add_manpower = -5
			add_mil_power = -100
			add_country_modifier = {
				name = ogre_berzerkers
				duration = 5475
			}
		}
	}
	
	skurkokli_warlords = {
		icon = mission_manchu_warrior
		required_missions = { skurkokli_train_berzerkers }
		position = 2
		
		trigger = {
			OR = {
				mil = 4
				OR = {
					employed_advisor = {
						type = grand_captain
					}
					employed_advisor = {
						type = recruitmaster
					}
				}
			}
			custom_trigger_tooltip = {
				tooltip =  not_skurkokli
			}
		}
		
		effect = {
			hidden_effect = { 
				clr_country_flag = warcap_mission_1
				set_country_flag = warcap_mission_2
			}
			if = {
				limit = {
					OR = {
						is_monarch_leader = yes 
						ruler_has_mage_personality = yes
					}
				}
				add_prestige = 10
				create_general = { tradition = 20 }
			}
			else = {
				add_prestige = 5
				define_ruler_to_general = {
					fire = 1
					shock = 3
					manuever = 4
					siege = 2
				}
			}
		}
	}

	skurkokli_warsmiths = {
		icon = mission_crusade_for_varna
		required_missions = { skurkokli_warlords }
		position = 3
		
		trigger = {
			any_owned_province = {
				OR = {
					trade_goods = iron
					trade_goods = copper
				}
			}
			custom_trigger_tooltip = {
				tooltip =  not_skurkokli
			}
		}
		
		effect = {
			hidden_effect = { 
				clr_country_flag = warcap_mission_2
				set_country_flag = warcap_mission_3
			}
			add_country_modifier = {
				name = warsmiths
				duration = 5475
			}
		}
	}
}

skurkokli_one = {
	slot = 2
	generic = no
	ai = yes
	potential = {
		tag = J47
	}
	has_country_shield = yes
}

ogre_tribe_two = {
	slot = 3
	generic = no
	ai = yes
	potential = {
		OR = {
			tag = J41
			tag = J42
			tag = J43
			tag = J44
			tag = J45
			tag = J46
			tag = J47
		}
	}
	has_country_shield = yes
	
	skurkokli_drums_of_war = {
		icon = mission_rein_in_the_velamas
		required_missions = { }
		position = 1
		
		trigger = {
			army_size_percentage = 1
		}
		
		effect = {
			J41 = {
				every_owned_province = {
					limit = {
						NOT = { is_core = ROOT }
						NOT = { owned_by = ROOT }
					}
					add_permanent_claim = ROOT
				}
			}
			J42 = {
				every_owned_province = {
					limit = {
						NOT = { is_core = ROOT }
						NOT = { owned_by = ROOT }
					}
					add_permanent_claim = ROOT
				}
			}
			J43 = {
				every_owned_province = {
					limit = {
						NOT = { is_core = ROOT }
						NOT = { owned_by = ROOT }
					}
					add_permanent_claim = ROOT
				}
			}
			J44 = {
				every_owned_province = {
					limit = {
						NOT = { is_core = ROOT }
						NOT = { owned_by = ROOT }
					}
					add_permanent_claim = ROOT
				}
			}
			J45 = {
				every_owned_province = {
					limit = {
						NOT = { is_core = ROOT }
						NOT = { owned_by = ROOT }
					}
					add_permanent_claim = ROOT
				}
			}
			J46 = {
				every_owned_province = {
					limit = {
						NOT = { is_core = ROOT }
						NOT = { owned_by = ROOT }
					}
					add_permanent_claim = ROOT
				}
			}
			add_country_modifier = {
				name = drums_of_ogre
				duration = 3650
			}
		}
	}
	
	skurkokli_expand_clan = {
		icon = mission_accomodate_the_rajputs
		required_missions = { skurkokli_drums_of_war }
		position = 2
		
		trigger = {
			num_of_owned_provinces_with = {
				value = 3
				
				is_core = ROOT
				is_city = yes
				province_group = wild_clan_lands
			}
		}
		
		effect = {
			add_prestige = 5
			if = {
				limit = {
					num_of_owned_provinces_with = {
						value = 6
						
						is_core = ROOT
						is_city = yes
						province_group = wild_clan_lands
					}
				}
				capital_scope = {
					add_base_tax = 5
					add_base_production = 5
					add_base_manpower = 5
				}
			}
			else_if = {
				limit = {
					num_of_owned_provinces_with = {
						value = 5
						
						is_core = ROOT
						is_city = yes
						province_group = wild_clan_lands
					}
				}
				capital_scope = {
					add_base_tax = 4
					add_base_production = 4
					add_base_manpower = 4
				}
			}
			else_if = {
				limit = {
					num_of_owned_provinces_with = {
						value = 4
						
						is_core = ROOT
						is_city = yes
						province_group = wild_clan_lands
					}
				}
				capital_scope = {
					add_base_tax = 3
					add_base_production = 3
					add_base_manpower = 3
				}
			}
			else = {
				capital_scope = {
					add_base_tax = 2
					add_base_production = 2
					add_base_manpower = 2
				}
			}
			every_owned_province = {
				limit = {
					NOT = { is_capital = yes }
					province_group = wild_clan_lands
				}
				add_base_tax = -1
				add_base_production = -1
				add_base_manpower = -1
			}
		}	
	}
	
	skurkokli_on_the_rise = {
		icon = mission_prepare_an_invasion_force
		required_missions = { skurkokli_expand_clan }
		position = 3
		
		trigger = {
			num_of_owned_provinces_with = {
				value = 5
				
				is_core = ROOT
				is_city = yes
				province_group = wild_clan_lands
			}
		}
		
		effect = {
			add_prestige = 10
			add_country_modifier = {
				name = rising_clan
				duration = 3650
			}
		}
	}
	
	skurkokli_eighth_clan = {
		icon = mission_fortify_mandu
		required_missions = { skurkokli_on_the_rise }
		position = 4
		
		trigger = {
			OR = {
				NOT = { exists = J47 }
				tag = J47
			}
			total_development = 50
		}
		
		effect = {
			if = {
				limit = { exists = J47 }
				add_treasury = 100
			}
			else = {
				hidden_effect = { restore_country_name = yes }
				change_tag = J47
				swap_non_generic_missions = yes
				add_prestige = 25
				set_government_rank = 2
				change_government = tribal
				add_government_reform = ogre_horde
				if = {
					limit = { has_custom_ideas = no }
					country_event = { id = ideagroups.1 } #Swap Ideas
				}
			}
		}
	}
}

skurkokli_two = {
	slot = 3
	generic = no
	ai = yes
	potential = {
		OR = {
			tag = J47
		}
	}
	has_country_shield = yes
	
	skurkokli_ogrehome = {
		icon = mission_rb_colonise_canada
		required_missions = { skurkokli_eighth_clan }
		position = 5
		
		provinces_to_highlight = { province_id = 5003 }
		
		trigger = {
			adm_power = 100
			dip_power = 100
			mil_power = 100
			years_of_income = 3
			owns_core_province = 5003
		}
		
		effect = {
			add_adm_power = -100
			add_dip_power = -100
			add_mil_power = -100
			add_years_of_income = -3
			country_event = {
				id = ogre.13
			}
		}
	}
	
	skurkokli_ogre_coast = {
		icon = mission_rb_conquer_the_isles
		required_missions = { skurkokli_ogrehome }
		position = 6
		
		trigger = {
			years_of_income = 2
			num_of_total_ports = 4
		}
		
		effect = {
			add_years_of_income = -2
			add_country_modifier = {
				name = ogrish_hulks
				duration = -1
			}
			add_prestige = 10
		}
	}
	
	skurkokli_hulkyard = {
		icon = mission_rb_grow_the_channel
		required_missions = { skurkokli_ogre_coast }
		position = 7
		
		provinces_to_highlight = { province_id = 5018 }
		
		trigger = {
			owns_core_province = 5018
			5018 = {
				has_shipyard_building_trigger = yes
			}
			dip_power = 200
			years_of_income = 4
		}
		
		effect = {
			add_dip_power = -200
			add_years_of_income = -4
			5018 = {
				change_province_name = "Dzimortif"
				rename_capital = "Dzimortif"
				add_permanent_province_modifier = {
					name = hulkyard
					duration = -1
				}
				add_base_tax = 1
				add_base_production = 1
				add_base_manpower = 1
				change_trade_goods = naval_supplies
			}
		}
	}
	
	skurkokli_settle_horde = {
		icon = mission_rb_conquer_the_highlands
		required_missions = { skurkokli_hulkyard }
		position = 8
		
		trigger = {
			has_institution = feudalism
			total_development = 200
		}
		
		effect = {
			add_prestige = 25
			set_government_rank = 3
			change_government = monarchy
			add_government_reform = great_ogre_horde
			yyl_moista_region = {
				limit = {
					NOT = { is_core = ROOT }
					NOT = { owned_by = ROOT }
				}
				add_permanent_claim = ROOT
			}
			gadhlumo_area = {
				limit = {
					NOT = { is_core = ROOT }
					NOT = { owned_by = ROOT }
				}
				add_permanent_claim = ROOT
			}
			yuurarila_area = {
				limit = {
					NOT = { is_core = ROOT }
					NOT = { owned_by = ROOT }
				}
				add_permanent_claim = ROOT
			}
			kuskemua_area = {
				limit = {
					NOT = { is_core = ROOT }
					NOT = { owned_by = ROOT }
				}
				add_permanent_claim = ROOT
			}
			peenadhi_area = {
				limit = {
					NOT = { is_core = ROOT }
					NOT = { owned_by = ROOT }
				}
				add_permanent_claim = ROOT
			}
		}
	}
	
	skurkokli_foothold_in_the_lakes = {
		icon = mission_rb_unite_the_clans
		required_missions = { skurkokli_settle_horde }
		position = 9
		
		provinces_to_highlight = { region = southern_isles_region }
		
		trigger = {
			num_of_owned_provinces_with = {
				value = 15
				region = southern_isles_region
			}
		}
		
		effect = {
			southern_isles_region = {
				limit = {
					NOT = { is_core = ROOT }
					NOT = { owned_by = ROOT }
				}
				add_permanent_claim = ROOT
			}
			northern_isles_region = {
				limit = {
					NOT = { is_core = ROOT }
					NOT = { owned_by = ROOT }
				}
				add_permanent_claim = ROOT
			}
		}
	}
	
	skurkokli_consume_the_federation = {
		icon = mission_rb_control_state_religion
		required_missions = { skurkokli_foothold_in_the_lakes }
		position = 10
		
		provinces_to_highlight = {
			OR = {
				region = southern_isles_region
				region = northern_isles_region
			}
		}
		
		trigger = {
			num_of_owned_provinces_with = {
				value = 20
				region = southern_isles_region
			}
			num_of_owned_provinces_with = {
				value = 20
				region = northern_isles_region
			}
		}
		
		effect = {
			add_prestige = 50
			hidden_effect = {
				every_owned_province = {
					limit = { 
						OR = {
							region = southern_isles_region
							region = northern_isles_region
						}
					}
					export_to_variable = {
						which = TotalDev
						value = development
					}
					ROOT = { change_variable = { which = TotalDev which = PREV } }
				}
			}
			hidden_effect = {
				every_owned_province = {
					limit = { 
						OR = {
							region = southern_isles_region
							region = northern_isles_region
						}
					}
					add_base_manpower = -20
					add_base_tax = -20
					add_base_production = -20
					remove_core = ROOT
					destroy_province = yes
				}
				while = {
					limit = { NOT = { check_variable = { TotalDev = 0 } } }
					subtract_variable = { TotalDev = 1 }
					random_owned_province = {
						random_list = {
							33 = { add_base_production = 1 }
							33 = { add_base_tax = 1 }
							33 = { add_base_manpower = 1 }
						}
					}
				}
			}
			custom_tooltip = ogre_consume
		}
	}
}

ogre_tribe_three = {
	slot = 4
	generic = no
	ai = yes
	potential = {
		OR = {
			tag = J41
			tag = J42
			tag = J43
			tag = J44
			tag = J45
			tag = J46
		}
	}
	has_country_shield = yes
	
	skurkokli_reinforce_tribe = {
		icon = mission_secure_the_malabar_coast
		required_missions = { }
		position = 1
		
		trigger = {
			years_of_income = 2
			adm_power = 100
			custom_trigger_tooltip = {
				tooltip =  not_skurkokli
			}
		}
		
		effect = {
			hidden_effect = { set_country_flag = ecocap_mission_1 }
			add_years_of_income = -2
			add_adm_power = -100
			add_country_modifier = {
				name = reinforced_tribe
				duration = 9125
			}
		}
	}
	
	skurkokli_war_hoard = {
		icon = mission_entrepot_of_india
		required_missions = { skurkokli_reinforce_tribe }
		position = 2
		
		trigger = {
			years_of_income = 3
			adm_power = 75
			custom_trigger_tooltip = {
				tooltip =  not_skurkokli
			}
		}
		
		effect = {
			hidden_effect = { 
				clr_country_flag = ecocap_mission_1
				set_country_flag = ecocap_mission_2
			}
			add_years_of_income = -3
			add_adm_power = -75
			add_country_modifier = {
				name = war_vault
				duration = 9125
			}
		}
	}

	skurkokli_warm_clothing = {
		icon = mission_gharbianss
		required_missions = { skurkokli_war_hoard }
		position = 3
		
		trigger = {
			any_owned_province = {
				OR = {
					trade_goods = fur
					trade_goods = cotton
				}
			}
			custom_trigger_tooltip = {
				tooltip =  not_skurkokli
			}
		}
		
		effect = {
			hidden_effect = { 
				clr_country_flag = ecocap_mission_2
				set_country_flag = ecocap_mission_3
			}
			add_country_modifier = {
				name = warm_clothing
				duration = 5475
			}
		}
	}
}

skurkokli_three = {
	slot = 4
	generic = no
	ai = yes
	potential = {
		tag = J47
	}
	has_country_shield = yes
}