country_decisions = {

	#-------# Bulwar Under Threat Incident #-----#
	
	nsc_proclaim_pledge_fulfilled = {
		major = yes
		potential = {
			has_country_flag = nsc_pledge
		}
		
		provinces_to_highlight = {
			OR = {
				AND = { ROOT = { tag = F21 } province_group = nsc_incident_target_birsartanses }
				AND = { ROOT = { tag = F25 } province_group = nsc_incident_target_sareyand }
				AND = { ROOT = { tag = F34 } province_group = nsc_incident_target_azka_evran }
				AND = { ROOT = { tag = F37 } province_group = nsc_incident_target_irrliam }
				AND = { ROOT = { tag = F42 } province_group = nsc_incident_target_varamhar }
			}
		}
		
		allow = {
			custom_trigger_tooltip = {
				tooltip = nsc_pledge_score_tt
				check_variable = { which = ScoreVar value = 66 }
			}
			# NOT = { has_country_flag = nsc_pledge_menu }
			# OR = {
				# ai = no
				# NOT = { has_country_flag = nsc_ai_pledge_menu }
				# had_country_flag = { flag = nsc_ai_pledge_menu days = 1095 } #prevents the ai from spamming the decision
			# }
		}
	
		effect = {
			set_country_flag = nsc_pledge_menu
			country_event = { id = new_sun_cult.77 }
		}
		
		ai_will_do = {
			factor = 1
		}
	}
	
	nsc_reform_admin = {
		potential = {
			has_country_flag = nsc_pledge
			NOT = { has_country_flag = nsc_reforming_admin }
			NOT = { has_country_flag = nsc_admin_over }
			NOT = { has_country_flag = nsc_reining_in_populace }
			NOT = { has_country_flag = nsc_appeasing_vassals }
			NOT = { has_country_flag = nsc_reforming_army }
		}
		
		allow = { }
	
		effect = {
			set_country_flag = nsc_reforming_admin
			country_event = { id = new_sun_cult.52 }
		}
		
		ai_will_do = {
			factor = 1
		}
	}
	
	nsc_rein_in_populace = {
		potential = {
			has_country_flag = nsc_pledge
			NOT = { has_country_flag = nsc_reforming_admin }
			NOT = { has_country_flag = nsc_reining_in_populace }
			NOT = { has_country_flag = nsc_populace_over }
			NOT = { has_country_flag = nsc_appeasing_vassals }
			NOT = { has_country_flag = nsc_reforming_army }
		}
		
		allow = { }
	
		effect = {
			set_country_flag = nsc_reining_in_populace
			country_event = { id = new_sun_cult.58 }
		}
		
		ai_will_do = {
			factor = 1
		}
	}
	
	nsc_appease_vassals = {
		potential = {
			has_country_flag = nsc_pledge
			religion = bulwari_sun_cult
			OR = {
				ai = no
				NOT = { has_country_flag = nsc_ai_took_vassal_decision }
				had_country_flag = { flag = nsc_ai_took_vassal_decision days = 1095 } #prevents the ai from spamming the decision
			}
		}
		
		allow = {
		}
	
		effect = {
			set_country_flag = nsc_appeasing_vassals
			country_event = { id = new_sun_cult.63 }
		}
		
		ai_will_do = {
			factor = 1
		}
	}
	
	nsc_reform_the_army = {
		potential = {
			has_country_flag = nsc_pledge
			religion = bulwari_sun_cult
			NOT = { has_country_flag = nsc_reforming_admin }
			NOT = { has_country_flag = nsc_reining_in_populace }
			NOT = { has_country_flag = nsc_appeasing_vassals }
			NOT = { has_country_flag = nsc_reforming_army }
			NOT = { has_country_flag = nsc_army_over }
		}
		
		allow = { }
	
		effect = {
			set_country_flag = nsc_reforming_army
			country_event = { id = new_sun_cult.68 }
		}
		
		ai_will_do = {
			factor = 1
		}
	}
	
	#Ask for more autonomy( vassal)
	nsc_demand_more_autonomy = {
		potential = {
			ai = no
			religion = bulwari_sun_cult
			overlord = { is_incident_active = incident_bulwar_under_threat }
			OR = {
				is_subject_of_type = vassal
				is_subject_of_type = march
			}
			OR = {
				NOT = { has_country_flag = nsc_asking_for_autonomy }
				had_country_flag = { flag = nsc_asking_for_autonomy days = 730 }
			}
		}
		
		allow = {
			custom_trigger_tooltip = { 
				tooltip = nsc_isolationism_level_is_3_tt
				isolationism = 3
			}
		}
	
		effect = {
			country_event = { id = new_sun_cult.73 }
			set_country_flag = nsc_asking_for_autonomy
		}
		
		ai_will_do = {
			factor = 0
		}
	}
	
	#-----------# Samartal Incident #------------#
	
	nsc_investigation_progress_decision = {
		potential = {
			has_country_flag = nsc_investigation_enabled
		}
		
		allow = {
			custom_trigger_tooltip = {
				tooltip = nsc_investigation_variable_tt
				always = no
			}
		}
	
		effect = {
			
		}
		
		ai_will_do = {
			factor = 0
		}
	}
	
	#--# Teachings from the Szal-Fazil Incident #--#
	nsc_teachings_szal_fazil_decision = {
		potential = {
			has_country_flag = nsc_people_want_mages
			NOT = { has_estate = estate_mages }
			NOT = { has_country_flag = nsc_teachings_szal_fazil_started }
			religion = bulwari_sun_cult
			culture_group = bulwari
		}
			
		allow = {
			is_at_war = no
			is_subject = no
			stability = 2
			is_incident_active = no
		}

		effect = {
			custom_tooltip = nsc_szal_fazil_messengers
			set_country_flag = nsc_teachings_szal_fazil_started
		}
		
		ai_will_do = {
			factor = 1
		}
	}
	
	#------------# Amussu Incident #-------------#
	#Fight Amussu decisions
	nsc_amussu_start_battle = {
		potential = {
			has_country_flag = nsc_has_amussu_incident
			REB = { NOT = { has_country_flag = nsc_amussu_battle_ongoing } }
		}
		
		provinces_to_highlight = {
			has_province_modifier = nsc_amussu_province
		}
		
		allow = {
			bulwar_superregion = {
				has_province_modifier = nsc_amussu_province
				num_of_units_in_province = { who = ROOT amount = 1 }
			}
			custom_trigger_tooltip = {
				tooltip = nsc_amussu_is_not_invulnerable_tt
				REB = { NOT = { has_country_flag = nsc_amussu_invulnerable } }
			}
		}
		
		effect = {
			custom_tooltip = nsc_amussu_current_power_tt
			event_target:amussu_province_target = {
				set_variable = { which = nscAmussuBattleTickVar value = 0 }
				add_province_triggered_modifier = nsc_amussu_battle_daily_pulse
				spawn_amussu_effect = yes
			}
			REB = { set_country_flag = nsc_amussu_battle_ongoing }
			clr_country_flag = nsc_amussu_battle_refused
		}
		
		ai_will_do = {
			factor = 1
		}
	}
	
	#Calamities
	nsc_suran_sacrifice = {
		potential = {
			has_country_flag = nsc_first_calamity
		}
		
		provinces_to_highlight = {
			has_province_modifier = nsc_bloody_suran
		}
		
		allow = {
			suran_river = {
				has_province_modifier = nsc_bloody_suran
				num_of_units_in_province = {
					who = ROOT
					amount = 1
				}
			}
		}
		
		effect = {
			random_province = {
				limit = {
					has_province_modifier = nsc_bloody_suran
					num_of_units_in_province = { who = ROOT amount = 1 }
				}
				kill_units = {
					who = ROOT
					amount = 1
				}
				remove_province_modifier = nsc_bloody_suran
				add_manpower = 1
			}
		}
		
		ai_will_do = {
			factor = 0
		}
	}
	
	nsc_gather_gems = {
		potential = {
			has_country_flag = nsc_gather_gems
		}
		
		provinces_to_highlight = {
			superregion = bulwar_superregion
			trade_goods = gems
		}
		
		allow = {
			bulwar_superregion = {
				trade_goods = gems
				num_of_units_in_province = {
					who = ROOT
					amount = 5
				}
			}
		}
		
		effect = {
			clr_country_flag = nsc_gather_gems
			country_event = { id = new_sun_cult.272 }
		}
		
		ai_will_do = {
			factor = 1
		}
	}
	
	nsc_gather_glass = {
		potential = {
			has_country_flag = nsc_gather_glass
		}
		
		provinces_to_highlight = {
			superregion = bulwar_superregion
			trade_goods = glass
		}
		
		allow = {
			bulwar_superregion = {
				trade_goods = glass
				num_of_units_in_province = {
					who = ROOT
					amount = 5
				}
			}
		}
		
		effect = {
			clr_country_flag = nsc_gather_glass
			country_event = { id = new_sun_cult.273 }
		}
		
		ai_will_do = {
			factor = 1
		}
	}
	
	nsc_gather_damestear = {
		potential = {
			has_country_flag = nsc_gather_damestear
		}
		
		provinces_to_highlight = {
			superregion = bulwar_superregion
			trade_goods = damestear
		}
		
		allow = {
			bulwar_superregion = {
				trade_goods = damestear
				num_of_units_in_province = {
					who = ROOT
					amount = 5
				}
			}
		}
		
		effect = {
			clr_country_flag = nsc_gather_damestear
			country_event = { id = new_sun_cult.274 }
		}
		
		ai_will_do = {
			factor = 1
		}
	}
	
	nsc_dispel_eclipse = {
		potential = {
			has_country_flag = nsc_dispel_the_eclipse
		}
		
		provinces_to_highlight = {
			superregion = bulwar_superregion
			country_or_non_sovereign_subject_holds = ROOT
			has_building = mage_tower
		}
		
		allow = {
			if = {
				limit = {
					bulwar_superregion = {
						country_or_non_sovereign_subject_holds = ROOT
						has_building = mage_tower
					}
				}
				bulwar_superregion = {
					has_building = mage_tower
					num_of_units_in_province = {
						who = ROOT
						amount = 15
					}
				}
			}
			else = {
				capital_scope = {
					num_of_units_in_province = {
						who = ROOT
						amount = 15
					}
				}
			}
		}
		
		effect = {
			clr_country_flag = nsc_dispel_the_eclipse
			country_event = { id = new_sun_cult.275 }
		}
		
		ai_will_do = {
			factor = 1
		}
	}
	
	nsc_excavate_artefact = {
		potential = {
			has_country_flag = nsc_digging_artifacts
		}
		
		provinces_to_highlight = {
			has_province_flag = nsc_possible_artefact
		}
		
		allow = {
			custom_trigger_tooltip = {
				tooltip = nsc_10_units_in_possible_artefact_province_tt
				bulwar_superregion = {
					has_province_flag = nsc_possible_artefact
					num_of_units_in_province = {
						who = ROOT
						amount = 10
					}
				}
			}
		}
		
		effect = {
			hidden_effect = {
				random_province = {
					limit = {
						has_province_flag = nsc_possible_artefact
						num_of_units_in_province = {
							who = ROOT
							amount = 10
						}
					}
					clr_province_flag = nsc_possible_artefact
					save_event_target_as = nsc_possible_artefact_target
				}
			}
			country_event = { id = new_sun_cult.280 }
		}
		
		ai_will_do = {
			factor = 1
		}
	}
	
	nsc_use_artefacts = {
		potential = {
			has_country_flag = nsc_using_artifacts
		}
		
		provinces_to_highlight = {
			has_province_modifier = nsc_amussu_province
		}
		
		allow = {
			bulwar_superregion = {
				has_province_modifier = nsc_amussu_province
				num_of_units_in_province = {
					who = ROOT
					amount = 30
				}
			}
		}
		
		effect = {
			clr_country_flag = nsc_using_artifacts
			country_event = { id = new_sun_cult.281 }
		}
		
		ai_will_do = {
			factor = 1
		}
	}
	
	#Relics
	nsc_equip_arzdigil_armor = {
		potential = {
			has_country_modifier = nsc_unused_arzdigil_armor
		}
		
		allow = {
			has_regency = no
		}
		
		effect = {
			remove_country_modifier = nsc_unused_arzdigil_armor
			increase_ruler_mil_effect = yes
			add_ruler_modifier = { name = nsc_arzdigil_armor duration = -1 }
		}
		
		ai_will_do = {
			factor = 1
		}
	}
	
	nsc_throw_the_knucklebones = {
		potential = {
			has_country_modifier = nsc_knucklebones_kananu
		}
		
		allow = {
			has_regency = no
			custom_trigger_tooltip = {
				tooltip = nsc_ruler_has_a_personality_tt
				OR = {
					ruler_has_personality = just_personality
					ruler_has_personality = righteous_personality
					ruler_has_personality = tolerant_personality
					ruler_has_personality = kind_hearted_personality
					ruler_has_personality = free_thinker_personality
					ruler_has_personality = well_connected_personality
					ruler_has_personality = calm_personality
					ruler_has_personality = careful_personality
					ruler_has_personality = secretive_personality
					ruler_has_personality = intricate_web_weaver_personality
					ruler_has_personality = fertile_personality
					ruler_has_personality = well_advised_personality
					ruler_has_personality = benevolent_personality
					ruler_has_personality = zealot_personality 
					ruler_has_personality = pious_personality
					ruler_has_personality = lawgiver_personality
					ruler_has_personality = midas_touched_personality
					ruler_has_personality = incorruptible_personality
					ruler_has_personality = architectural_visionary_personality
					ruler_has_personality = scholar_personality
					ruler_has_personality = entrepreneur_personality
					ruler_has_personality = industrious_personality
					ruler_has_personality = expansionist_personality
					ruler_has_personality = charismatic_negotiator_personality
					ruler_has_personality = silver_tongue_personality
					ruler_has_personality = conqueror_personality
					ruler_has_personality = tactical_genius_personality
					ruler_has_personality = bold_fighter_personality
					ruler_has_personality = strict_personality
					ruler_has_personality = inspiring_leader_personality
					ruler_has_personality = martial_educator_personality
					ruler_has_personality = navigator_personality
					ruler_has_personality = fierce_negotiator_personality
					ruler_has_personality = babbling_buffoon_personality
					ruler_has_personality = embezzler_personality
					ruler_has_personality = infertile_personality
					ruler_has_personality = drunkard_personality
					ruler_has_personality = sinner_personality
					ruler_has_personality = greedy_personality
					ruler_has_personality = cruel_personality
					ruler_has_personality = naive_personality
					ruler_has_personality = craven_personality
					ruler_has_personality = loose_lips_personality
					ruler_has_personality = obsessive_perfectionist_personality
					ruler_has_personality = malevolent_personality
				}
			}
		}
		
		effect = {
			custom_tooltip = nsc_knucklebones_tt
			hidden_effect = {
				change_variable = { which = kananuUses value = -1 }
				country_event = { id = new_sun_cult.290 }
			}
			if = { limit = { NOT = { check_variable = { which = kananuUses value = 1 } } }
				remove_country_modifier = nsc_knucklebones_kananu
			}
		}
		
		ai_will_do = {
			factor = 0
		}
	}
	
	nsc_use_drops_dariah = {
		potential = {
			has_country_modifier = nsc_drops_dariah
		}
		
		allow = {
			has_regency = no
		}
		
		effect = {
			remove_country_modifier = nsc_drops_dariah
			random_list = {
				33 = {
					define_advisor = {
						type = court_mage
						name = "Child of Dariah"
						skill = 3
						culture = ROOT
						religion = ROOT
						cost_multiplier = 0.1
					}
				}
				33 = {
					define_advisor = {
						type = diplomat
						name = "Child of Dariah"
						skill = 3
						culture = ROOT
						religion = ROOT
						cost_multiplier = 0.1
					}
				}
				33 = {
					define_advisor = {
						type = commandant 
						name = "Child of Dariah"
						skill = 3
						culture = ROOT
						religion = ROOT
						cost_multiplier = 0.1
					}
				}
			}
		}
		
		ai_will_do = {
			factor = 1
		}
	}
	
	nsc_use_sitandu_arrows = {
		potential = {
			has_country_modifier = nsc_sitandu_arrows
		}
		
		allow = {
			NOT = { has_country_modifier = nsc_sitandu_activated }
		}
		
		effect = {
			custom_tooltip = nsc_arrows_tt
			hidden_effect = { change_variable = { which = sitanduUses value = -1 } }
			add_country_modifier = { name = nsc_sitandu_activated duration = 30 }
			if = { limit = { NOT = { check_variable = { which = sitanduUses value = 1 } } }
				remove_country_modifier = nsc_sitandu_arrows
			}
		}
		
		ai_will_do = {
			factor = 1
		}
	}
	
	nsc_use_asra_enu_leaves = {
		potential = {
			has_country_modifier = nsc_asra_enu_leaves
		}
		
		allow = {
			NOT = { has_country_modifier = nsc_asra_enu_activated }
		}
		
		effect = {
			custom_tooltip = nsc_leaves_tt
			hidden_effect = { change_variable = { which = asraEnuUses value = -1 } }
			add_country_modifier = { name = nsc_asra_enu_activated duration = 365 }
			if = { limit = { NOT = { check_variable = { which = asraEnuUses value = 1 } } }
				remove_country_modifier = nsc_asra_enu_leaves
			}
		}
		
		ai_will_do = {
			factor = 1
		}
	}
	
	nsc_use_kazam_keys = {
		potential = {
			has_country_modifier = nsc_kazam_keys
			NOT = { has_country_flag = nsc_kazam_keys_menu }
		}
		
		allow = {
			any_province = {
				sieged_by = ROOT
				fort_level = 1
				num_of_units_in_province = { who = ROOT amount = 1 }
			}
		}
		
		effect = {
			set_country_flag = nsc_kazam_keys_menu
			country_event = { id = new_sun_cult.292 }
		}
		
		ai_will_do = {
			factor = 0
		}
	}
	
	nsc_use_medinavan_harp = {
		potential = {
			has_country_modifier = nsc_medinavan_harp
		}
		
		allow = {
			capital_scope = { NOT = { has_province_modifier = nsc_medinavan_effect } }
		}
		
		effect = {
			custom_tooltip = nsc_harp_tt
			hidden_effect = { change_variable = { which = medinavanUses value = -1 } }
			capital_scope = { area = { add_province_modifier = { name = nsc_medinavan_effect duration = 60 } } }
			if = { limit = { NOT = { check_variable = { which = medinavanUses value = 1 } } }
				remove_country_modifier = nsc_medinavan_harp
			}
		}
		
		ai_will_do = {
			factor = 0
		}
	}
	
	#---------------# Debuging #-----------------#
	
	# nsc_show_relics = {
		# potential = {
			# has_country_flag = nsc_has_amussu_incident
		# }
		
		# provinces_to_highlight = {
			# has_province_flag = nsc_amussu_relic_province
		# }
		
		# allow = {
		# }
		
		# effect = {
		# }
		
		# ai_will_do = {
			# factor = 0
		# }
	# }
	
	# nsc_show_target_relic = {
		# potential = {
			# has_country_flag = nsc_has_amussu_incident
		# }
		
		# provinces_to_highlight = {
			# has_province_flag = nsc_amussu_next_relic
		# }
		
		# allow = {
		# }
		
		# effect = {
		# }
		
		# ai_will_do = {
			# factor = 0
		# }
	# }
	
	# add_isolationism = {
		# potential = {
			# religion = bulwari_sun_cult
		# }
		
		# allow = {
			
		# }
	
		# effect = {
			# increase_nsc_isolation_level = yes
		# }
		# ai_will_do = {
			# factor = 0
		# }
	# }
	
	# sub_isolationism = {	
		# potential = {
			# religion = bulwari_sun_cult
		# }
		
		# allow = {
			
		# }
	
		# effect = {
			# decrease_nsc_isolation_level = yes
		# }
		# ai_will_do = {
			# factor = 0
		# }
	# }
}


