

country_decisions = {
	rahen_reform_military = {
		major = yes
	
		potential = {
			capital = 4411
			has_reform = raja_reform
			
			4411 = {
				has_province_modifier = rahen_disloyal_officers
			}
		}
		
		allow = {
			NOT = { has_country_modifier = rahen_court_reformations }
			if = {
				limit = { ai = yes }
				stability = 0
			}
			else = { stability = 2 }
			if = {
				limit = { ai = yes }
				OR = { mil = 5 army_reformer = 1 }
			}
			else = { OR = { mil = 5 army_reformer = 2 } }
			#mil_power = 200
			army_tradition = 50
		}
	
		effect = {
			if = {
				limit = { ai = no }
				add_stability = -2
			}
			#add_mil_power = -200
			add_country_modifier = {
				name = rahen_court_reformations
				duration = -1
			}
			country_event = {
				id = rahenraj.7
				days = 2
				random = 10
			}
		}
		ai_will_do = {
			factor = 1
		}
	}
	rahen_reform_ministry = {
		major = yes
	
		potential = {
			capital = 4411
			has_reform = raja_reform
			
			4411 = {
				has_province_modifier = rahen_corrupt_ministers
			}
		}
		
		allow = {
			NOT = { has_country_modifier = rahen_court_reformations }
			if = {
				limit = { ai = yes }
				stability = 0
			}
			else = { stability = 2 }
			if = {
				limit = { ai = yes }
				OR = { adm = 5 inquisitor = 1 }
			}
			else = { OR = { adm = 5 inquisitor = 2 } }
			# adm_power = 200
			NOT = {
				estate_influence = {
					estate = estate_raj_ministries
					influence = 60
				}
				has_estate_privilege = estate_raj_ministries_ceremonial_ruler_act
			}
		}
	
		effect = {
			if = {
				limit = { ai = no }
				add_stability = -2
			}
			# add_adm_power = -200
			add_country_modifier = {
				name = rahen_court_reformations
				duration = -1
			}
			country_event = {
				id = rahenraj.20
				days = 2
				random = 10
			}
		}
		ai_will_do = {
			factor = 1
		}
	}
	rahen_reform_foreign_office = {
		major = yes
	
		potential = {
			capital = 4411
			has_reform = raja_reform
			
			4411 = {
				has_province_modifier = rahen_arrogant_foreign_office
			}
		}
		
		allow = {
			NOT = { has_country_modifier = rahen_court_reformations }
			if = {
				limit = { ai = yes }
				stability = 0
			}
			else = { stability = 2 }
			if = {
				limit = { ai = yes }
				OR = { dip = 5 statesman = 1 }
			}
			else = { OR = { dip = 5 statesman = 2 } }
			# dip_power = 200
			estate_loyalty = {
				estate = estate_raj_ministries
				higher_than_influence = yes
			}
		}
	
		effect = {
			if = {
				limit = { ai = no }
				add_stability = -2
			}
			# add_dip_power = -200
			add_country_modifier = {
				name = rahen_court_reformations
				duration = -1
			}
			country_event = {
				id = rahenraj.40
				days = 2
				random = 10
			}
		}
		ai_will_do = {
			factor = 1
		}
	}
	rahen_reform_nobility = {
		major = yes
	
		potential = {
			capital = 4411
			has_reform = raja_reform
			
			4411 = {
				has_province_modifier = rahen_powerful_nobility
			}
		}
		
		allow = {
			NOT = { has_country_modifier = rahen_court_reformations }
			if = {
				limit = { ai = yes }
				stability = 0
			}
			else = { stability = 2 }
			if = {
				limit = { ai = yes }
				OR = { mil = 5 grand_captain = 1 }
			}
			else = { OR = { mil = 5 grand_captain = 2 } }
			estate_loyalty = {
				estate = estate_nobles
				higher_than_influence = yes
			}
			# dip_power = 100
			# mil_power = 100
		}
	
		effect = {
			if = {
				limit = { ai = no }
				add_stability = -2
			}
			# add_mil_power = -100
			# add_dip_power = -100
			add_country_modifier = {
				name = rahen_court_reformations
				duration = -1
			}
			country_event = {
				id = rahenraj.50
				days = 2
				random = 10
			}
		}
		ai_will_do = {
			factor = 1
		}
	}
	
	# Allow Non-Raja races to be Senapti
	rahen_open_up_senapti_ranks = {
		major = yes
	
		potential = {
			capital = 4411
			has_reform = raja_reform
			
			4411 = {
				NOT = { has_province_modifier = rahen_powerful_nobility }
			}
			NOT = { has_country_modifier = raj_opened_senapti_ranks }
		}
		
		allow = {
			dip_power = 100
			stability = 1
		}
	
		effect = {
			add_dip_power = -100
			add_stability = -1
			add_country_modifier = {
				name = raj_opened_senapti_ranks
				duration = -1
			}
			remove_country_modifier = raj_closed_senapti_ranks
			custom_tooltip = rahen_open_up_senapti_ranks_tt
			hidden_effect = {
				if = {
					limit = { culture_group = harimari }
					every_subject_country = {
						limit = { ruler_is_harimari = yes }
						add_opinion = {
							who = ROOT
							modifier = rahen_raja_opened_up_senapti_b
						}
					}
					every_subject_country = {
						limit = { NOT = { ruler_is_harimari = yes } }
						add_opinion = {
							who = ROOT
							modifier = rahen_raja_opened_up_senapti_a
						}
					}
				}
				if = {
					limit = { culture_is_human = yes }
					every_subject_country = {
						limit = { ruler_is_human = yes }
						add_opinion = {
							who = ROOT
							modifier = rahen_raja_opened_up_senapti_b
						}
					}
					every_subject_country = {
						limit = { NOT = { ruler_is_human = yes } }
						add_opinion = {
							who = ROOT
							modifier = rahen_raja_opened_up_senapti_a
						}
					}
				}
			}
		}
		ai_will_do = {
			factor = 0
		}
	}
	rahen_close_senapti_ranks = {
		major = yes
	
		potential = {
			capital = 4411
			has_reform = raja_reform
			
			4411 = {
				NOT = { has_province_modifier = rahen_powerful_nobility }
			}
			NOT = { has_country_modifier = raj_closed_senapti_ranks }
		}
		
		allow = {
			dip_power = 100
			stability = 1
		}
	
		effect = {
			add_dip_power = -100
			add_stability = -1
			add_country_modifier = {
				name = raj_closed_senapti_ranks
				duration = -1
			}
			remove_country_modifier = raj_opened_senapti_ranks
			custom_tooltip = rahen_close_senapti_ranks_tt
			hidden_effect = {
				if = {
					limit = { culture_group = harimari }
					every_subject_country = {
						limit = { ruler_is_harimari = yes }
						add_opinion = {
							who = ROOT
							modifier = rahen_raja_closed_senapti_a
						}
					}
					every_subject_country = {
						limit = { NOT = { ruler_is_harimari = yes } }
						add_opinion = {
							who = ROOT
							modifier = rahen_raja_closed_senapti_b
						}
					}
				}
				if = {
					limit = { culture_is_human = yes }
					every_subject_country = {
						limit = { ruler_is_human = yes }
						add_opinion = {
							who = ROOT
							modifier = rahen_raja_closed_senapti_a
						}
					}
					every_subject_country = {
						limit = { NOT = { ruler_is_human = yes } }
						add_opinion = {
							who = ROOT
							modifier = rahen_raja_closed_senapti_b
						}
					}
				}
			}
		}
		ai_will_do = {
			factor = 0
		}
	}
	
	#Request Senapti rank
	raj_request_senapti_rank = {
	
		potential = {
			is_subject_of_type = daimyo_vassal
			overlord = { has_reform = raja_reform }
		}
		
		allow = {
			hidden_trigger = { NOT = { has_country_flag = potential_senapti } }
			dip_power = 25
			if = {
				limit = { overlord = { has_country_modifier = raj_closed_senapti_ranks } }
				if = {
					limit = { overlord = { culture_group = harimari } }
					ruler_is_harimari = yes
				}
				else = {
					ruler_is_human = yes
				}
			}
			NOT = { has_country_modifier = prabhi_promotion_rejected }
			NOT = { has_country_modifier = senapti_recently_demoted }
			NOT = { has_country_modifier = raj_mandate_extended_prabhi_privileges }
			num_of_cities = 2
			raj_below_allowed_senaptia = yes
			# overlord = {
				# if = {
					# limit = { num_of_subjects = 100 }
					# NOT = { great_daimyo_vassal = 14 }
				# }
				# else_if = {
					# limit = { num_of_subjects = 70 }
					# NOT = { great_daimyo_vassal = 12 }
				# }
				# else_if = {
					# limit = { num_of_subjects = 50 }
					# NOT = { great_daimyo_vassal = 10 }
				# }
				# else_if = {
					# limit = { num_of_subjects = 35 }
					# NOT = { great_daimyo_vassal = 8 }
				# }
				# else_if = {
					# limit = { num_of_subjects = 25 }
					# NOT = { great_daimyo_vassal = 6 }
				# }
				# else_if = {
					# limit = { num_of_subjects = 15 }
					# NOT = { great_daimyo_vassal = 4 }
				# }
				# else = {
					# NOT = { great_daimyo_vassal = 2 }
				# }
			# }
			# NOT = { #Is the largest dev country that is allowed to request the title
				# overlord = {
					# any_subject_country = {
						# is_subject_of_type = daimyo_vassal
						# NOT = { has_country_modifier = prabhi_promotion_rejected }
						# NOT = { has_country_modifier = senapti_recently_demoted }
						# num_of_cities = 2
						# if = {
							# limit = { overlord = { has_country_modifier = raj_closed_senapti_ranks culture_group = harimari } }
							# ruler_is_harimari = yes
						# }
						# if = {
							# limit = { overlord = { has_country_modifier = raj_closed_senapti_ranks culture_is_human = yes } }
							# ruler_is_human = yes
						# }
						# NOT = { tag = ROOT }
						# variable_arithmetic_trigger = {
							# export_to_variable = {
								# which = our_total_development
								# value = trigger_value:total_development
							# }
							# export_to_variable = {
								# which = root_total_development
								# value = trigger_value:total_development
								# who = ROOT
							# }
							
							# check_variable = { #Check if A >= B
								# which = our_total_development #A
								# which = root_total_development #B
							# }
						# }
					# }
				# }
			# }
		}
	
		effect = {
			add_dip_power = -25
			overlord = {
				country_event = {
					id = rahenraj.4
				}
			}
			hidden_effect = {
				set_country_flag = potential_senapti
				save_global_event_target_as = potential_senapti_target
			}
		}
		ai_will_do = {
			factor = 1
		}
	}
	
	#Request Raj Mandate
	raj_request_mandate = {
		potential = {
			overlord = { has_reform = raja_reform }
		}
		
		allow = {
			if = {
				limit = { ai = yes }
				custom_trigger_tooltip = {
					tooltip = raj_administration_is_busy_tt
					overlord = { NOT = { has_country_modifier = raj_administration_is_busy } }
				}
			}
			dip_power = 50
			NOT = { has_raj_mandate = yes }
			NOT = { has_country_modifier = raj_mandate_denied }
			hidden_trigger = { NOT = { has_country_flag = raj_requested_mandate } }
		}
	
		effect = {
			add_dip_power = -50
			country_event = {
				id = rahenraj.1002
			}
			hidden_effect = {
				set_country_flag = raj_requested_mandate
				overlord = { add_country_modifier = { name = raj_administration_is_busy duration = 10 hidden = yes } }
			}
		}
		
		ai_will_do = {
			factor = 1
			modifier = {
				factor = 0
				liberty_desire = 60 #Doesn't want raj cohesion to go up
			}
		}
	}
	
	#Raja Nahana Bhoja
	raj_nahana_bhoja = {
		potential = {
			always = no
			has_reform = raja_reform
			NOT = {
				has_country_modifier = raj_nahana_bhoja_ongoing
				has_country_modifier = raj_nahana_bhoja_hosted
			}
		}
		
		allow = {
			adm_power = 50
			dip_power = 50
			years_of_income = 0.5
			estate_loyalty = {
				estate = estate_raj_ministries
				loyalty = 40
			}
		}
	
		effect = {
			add_adm_power = -50
			add_dip_power = -50
			add_years_of_income = -0.5
			
			country_event = {
				id = rahenraj.1200
			}
			add_country_modifier = {
				name = raj_nahana_bhoja_ongoing
				duration = 3650
			}
		}
		
		ai_will_do = {
			factor = 1
			modifier = {
				factor = 0
				4411 = {
					check_variable = {
						which = raj_cohesion
						value = 80
					}
				}
			}
		}
	}
	
	# Consolidation of the Raj
	rahen_consolidate_the_raj = {
		major = yes
	
		potential = {
			has_reform = raja_reform
			NOT = { has_reform = consolidated_raj_reform }
		}
		
		allow = {
			OR = {
				total_development = 400
				NOT = { num_of_subjects = 12 }
			}
			stability = 1
			custom_trigger_tooltip = {
				tooltip = rahen_consolidate_the_raj_tt
				4411 = {
					check_variable = {
						which = raj_cohesion
						value = 80
					}
				}
			}
			estate_loyalty = {
				estate = estate_raj_ministries
				loyalty = 60
			}
		}
	
		effect = {
			add_government_reform = consolidated_raj_reform
			custom_tooltip = rahen_consolidate_the_raj_effect_tt
		}
		ai_will_do = {
			factor = 1
		}
	}
	
	#Debug
	raj_cohesion_increase_debug = {
	
		potential = {
			always = no
			ai = no
			OR = {
				has_reform = raja_reform
				overlord = { has_reform = raja_reform }
			}
		}
		
		allow = {
			dip_power = 50
		}
	
		effect = {
			raj_cohesion_change = { amount = 1 }
			custom_tooltip = raj_total_dev_tt
		}
		ai_will_do = {
			factor = 1
		}
	}
	raj_cohesion_decrease_debug = {
	
		potential = {
			always = no
			ai = no
			OR = {
				has_reform = raja_reform
				overlord = { has_reform = raja_reform }
			}
		}
		
		allow = {
			dip_power = 50
		}
	
		effect = {
			raj_cohesion_change = { amount = -1 }
			custom_tooltip = raj_total_dev_tt
		}
		ai_will_do = {
			factor = 1
		}
	}
}
