
# Do not change tags in here without changing every other reference to them.
# If adding new dieties, make sure they are uniquely named.

kazraiel = {
	land_morale = 0.20
	ae_impact = 0.25
	
    allow = { 
        OR = {
                religion = infernal_court
        }
    }
	
	sprite = 33
	
	ai_will_do = {
		factor = 1
		modifier = {
		factor = 3
			personality = ai_balanced
		}
		modifier = {
			factor = 2
			personality = ai_capitalist
		}
		modifier = {
			factor = 1.2
			government = monarchy
		}
		modifier = {
			factor = 1.5
			culture_group = escanni
		}
	}
}

mesner = {
	global_unrest = -4
	production_efficiency = -0.2
	
    allow = { 
        OR = {
                religion = infernal_court
        }
    }
	
	sprite = 34
	
	ai_will_do = {
		factor = 1
		modifier = {
		factor = 3
			personality = ai_balanced
		}
		modifier = {
			factor = 2
			personality = ai_capitalist
		}
		modifier = {
			factor = 1.2
			government = monarchy
		}
		modifier = {
			factor = 1.5
			culture_group = escanni
		}
	}
}

ildran = {
	build_cost = -0.3
	build_time = 0.25
	
    allow = { 
        OR = {
                religion = infernal_court
        }
    }
	
	sprite = 36
	
	ai_will_do = {
		factor = 1
		modifier = {
		factor = 3
			personality = ai_balanced
		}
		modifier = {
			factor = 2
			personality = ai_capitalist
		}
		modifier = {
			factor = 1.2
			government = monarchy
		}
		modifier = {
			factor = 1.5
			culture_group = escanni
		}
	}
}

hedine = {
	global_missionary_strength = 0.05
	diplomatic_reputation = -2
	
    allow = { 
        OR = {
                religion = infernal_court
        }
    }
	
	sprite = 35
	
	ai_will_do = {
		factor = 1
		modifier = {
		factor = 3
			personality = ai_balanced
		}
		modifier = {
			factor = 2
			personality = ai_capitalist
		}
		modifier = {
			factor = 1.2
			government = monarchy
		}
		modifier = {
			factor = 1.5
			culture_group = escanni
		}
	}
}

ibberal = {
	governing_capacity_modifier = 0.25
	global_trade_goods_size_modifier = -0.15
	
    allow = { 
        OR = {
                religion = infernal_court
        }
    }
	
	sprite = 37
	
	ai_will_do = {
		factor = 1
		modifier = {
		factor = 3
			personality = ai_balanced
		}
		modifier = {
			factor = 2
			personality = ai_capitalist
		}
		modifier = {
			factor = 1.2
			government = monarchy
		}
		modifier = {
			factor = 1.5
			culture_group = escanni
		}
	}
}

canturian = {
	spy_offence = 0.3
	global_spy_defence = -0.15
	
    allow = { 
        OR = {
                religion = infernal_court
        }
    }
	
	sprite = 39
	
	ai_will_do = {
		factor = 1
		modifier = {
		factor = 3
			personality = ai_balanced
		}
		modifier = {
			factor = 2
			personality = ai_capitalist
		}
		modifier = {
			factor = 1.2
			government = monarchy
		}
		modifier = {
			factor = 1.5
			culture_group = escanni
		}
	}
}

forsara = {
	global_tax_modifier = 0.2
	yearly_corruption = 0.15
	
    allow = { 
        OR = {
                religion = infernal_court
        }
    }
	
	sprite = 38
	
	ai_will_do = {
		factor = 1
		modifier = {
		factor = 3
			personality = ai_balanced
		}
		modifier = {
			factor = 2
			personality = ai_capitalist
		}
		modifier = {
			factor = 1.2
			government = monarchy
		}
		modifier = {
			factor = 1.5
			culture_group = escanni
		}
	}
}