namespace = aw_hags

#The Adventurers Wanted uses a strict ID system to make the system easier to author content for
#The IDs below 100 are core utility systems that are usually straight copies or modifications of how the AW system works, such as monsters being able to migrate and be defeated by adventurers.
#The IDs above 100 are more unique situations for the specific encounter, but they should correlate with the numbers from above: if ID 10s deal with migration, then ID 110s should be the unique events to do with migration - for example bribing a Thieves Guild to GTFO your country
#Crazy and more uniques ones that dont conform to the utilities should be ID 200

#USE THE anb_aw_hags TO SEE A SIMPLE COPY-PASTABLE FORMAT IN ADDITION TO STUFF LIKE MIGRATION STYLES ETC
#Search for CHANGEABLE for the criteria you should change in that file and this one

#################################################################
# Welcome to the master file for the Adventurers Wanted System. In the comments below you'll see copy-pastable events for you to choose, different migration styles as well as prebuilt events to handle stuff like spawning rebellions
#################################################################

#0 - spawn in province
province_event = {
    id = aw_hags.0
    title = aw_hags.0.t
    desc = aw_hags.0.d
    picture = COMET_SIGHTED_eventPicture
    goto = ROOT
    
    is_triggered_only = yes
    #hidden = yes
    
    #yup thats happening
    option = {
        name = aw_basic.0.a
        ai_chance = { 
            factor = 1 
        }
        add_permanent_province_modifier  = {
            name = aw_hags_1
            duration = -1  
        }

        custom_tooltip = aw_how_to_get_more_adventurer_removal_chance_tooltip
    }
}


#1 - event manager, called by on_actions. This happens ONCE per pulse. If you have 7 of these, it still only fires the manager once
country_event = {
    id = aw_hags.1
    title = aw_hags.1.t
    desc = aw_hags.1.d
    picture = COMET_SIGHTED_eventPicture
    
    hidden = yes
    is_triggered_only = yes
    
    trigger = {
        any_owned_province = {
            OR = { 
                has_province_modifier = aw_hags_1
                has_province_modifier = aw_hags_2
                has_province_modifier = aw_hags_3
            }
        }
    }    

    mean_time_to_happen = {
        days = 1
        modifier = {
            factor = 2
            num_of_owned_provinces_with = {
                value = 3
                OR = { 
                    has_province_modifier = aw_hags_1
                    has_province_modifier = aw_hags_2
                    has_province_modifier = aw_hags_3
                }
            }
        }
    }

    immediate = {
        random_owned_province = {
            limit = {
                OR = { 
                    has_province_modifier = aw_hags_1
                    has_province_modifier = aw_hags_2
                    has_province_modifier = aw_hags_3
                }
            }
            save_event_target_as = aw_hags_target
        }
    }
    
	
	option = {
        event_target:aw_hags_target = {
            random_list = {
                #10 - Base migration
				5 = {
					
				}
                #13 - Base propagation
                5 = {
                    
                }

                #15 - Migrate to non monstrous if monstrous nation is owner
                75 = {
                   
                }

                #20 - natural removal
                7 = {
                    province_event = { id = aw_hags.20 }    #Natural removal
                }

                #21 - adventurer removal
                7 = {
                    #Base modifiers

                    #more likely if generous quest rewards/adverturer nation
                    modifier = {
                        factor = 2
                        OR = {
                            owner = { has_estate_privilege = estate_adventurers_generous_quest_rewards }
                            owner = { has_adventurer_reform = yes }
                        }
                    }

                    #more likely if loyal
                    modifier = {
                        factor = 2
                        owner = {
                            estate_loyalty = {
                                estate = estate_adventurers
                                loyalty = 60
                            }
                        }
                    }
                    #more likely if high influence
                    modifier = {
                        factor = 2
                        owner = {
                            estate_influence = {
                                estate = estate_adventurers
                                influence = 60
                            }
                        }
                    }
                    #small influence boost at 30
                    modifier = {
                        factor = 1.5
                        owner = {
                            estate_influence = {
                                estate = estate_adventurers
                                influence = 30
                            }
                        }
                    }
                    #adventurer type sponsorships
                    modifier = {
                        factor = 2
                        owner = {
                            has_estate_privilege = estate_adventurers_sponsor_monster_hunters
                        }
                    }
                    province_event = { id = aw_hags.21 }
                }

                #22 - natural tier down
                10 = {
                    province_event = { id = aw_hags.22 } 
                }

                #23 - adventurer tier down
                10 = {
                    #Base modifiers

                    #more likely if generous quest rewards/adverturer nation
                    modifier = {
                        factor = 2
                        OR = {
                            owner = { has_estate_privilege = estate_adventurers_generous_quest_rewards }
                            owner = { has_adventurer_reform = yes }
                        }
                    }

                    #more likely if loyal
                    modifier = {
                        factor = 2
                        owner = {
                            estate_loyalty = {
                                estate = estate_adventurers
                                loyalty = 60
                            }
                        }
                    }
                    #more likely if high influence
                    modifier = {
                        factor = 2
                        owner = {
                            estate_influence = {
                                estate = estate_adventurers
                                influence = 60
                            }
                        }
                    }
                    #small influence boost at 30
                    modifier = {
                        factor = 1.5
                        owner = {
                            estate_influence = {
                                estate = estate_adventurers
                                influence = 30
                            }
                        }
                    }
                    #adventurer type sponsorships
                    modifier = {
                        factor = 2
                        owner = {
                            has_estate_privilege = estate_adventurers_sponsor_monster_hunters
                        }
                    }
                    province_event = { id = aw_hags.23 }
                }

                #24 - monstrous nation removal
                50 = {
                    modifier = {
                        #only want this to ever be part of the equation if you are monstrous
                        factor = 0
                        NOT = { owner = { has_country_modifier = monstrous_nation } }
                    }
                    #Base modifiers
                    province_event = { id = aw_hags.24 }
                }

                #25 - monstrous natural tier down.
                50 = {
                    #Base modifiers
                    modifier = {
                        #only want this to ever be part of the equation if you are monstrous
                        factor = 0
                        NOT = { owner = { has_country_modifier = monstrous_nation } }
                    }
                    province_event = { id = aw_hags.25 }   
                }
                #120 - fey help remove hag
                7 = {
                    modifier = {
                        factor = 3
                        religious_unity = 0.9
                    }
                    modifier = {
                        factor = 2
                        NOT = { religious_unity = 0.9 }
                        religious_unity = 0.7
                    }
                    modifier = {
                        factor = 0.5
                        NOT = { religious_unity = 0.5 }
                        religious_unity = 0.3
                    }
                    modifier = {
                        factor = 0
                        NOT = { religious_unity = 0.3 }
                    }
                    owner = { country_event = { id = aw_hags.120 } }
                }
                #130 - hags tiers up with people moving to her province and some going missing
                10 = {
                    modifier = {
                        factor = 1.5
                        owner = {
                            has_country_modifier = aw_hags_mage_estate
                        }
                    }
                    modifier = {
                        factor = 1.5
                        owner = {
                            has_country_modifier = aw_hags_noble_estate
                        }
                    }
                    modifier = {
                        factor = 1.5
                        owner = {
                            has_country_modifier = aw_hags_clergy_estate
                        }
                    }
                    modifier = {
                        factor = 1.5
                        owner = {
                            has_country_modifier = aw_hags_burgher_estate
                        }
                    }
                    modifier = {
                        factor = 1.5
                        owner = {
                            has_country_modifier = aw_hags_adventurer_estate
                        }
                    }
                    province_event = { id = aw_hags.130 }
                }
                #200 - mages bargain
                5 = {
                    owner = { country_event = { id = aw_hags.200 } }
                }
                #201 - nobles bargain
                5 = {
                    owner = { country_event = { id = aw_hags.201 } }
                }
                #202 - clergy bargain
                5 = {
                    owner = { country_event = { id = aw_hags.202 } }
                }
                #203 - burghers bargain
                5 = {
					owner = { country_event = { id = aw_hags.203 } }
                }
                #204 - adventurers bargain
                5 = {
                    owner = { country_event = { id = aw_hags.204 } }
                }
                #205 - children going missing
                10 = {
                    province_event = { id = aw_hags.205 }
                }
                #206 - ruler suspected of bargaining
                10 = {
                    owner = { country_event = { id = aw_hags.206 } }
                }
            }
        }
	}
    
}


#2 - notification of advanturers wanted spawning

############## 10s - Migration and Propagation ###################

#10 - Base migration - nah


#11 - migration target notification if it goes to other country - nah


#13 - Base propagation - nah


#14 - propagation target notification - nah


#15 - Migrate to non monstrous if monstrous nation is owner (if its applicable to monsters, like hagss etc, then this is fine to remove, else keep) - nah


############## 20s - Removal/Tier Down ###################

#20 - natural removal - sppoky desc "where could they have gone and why?"
province_event = {
    id = aw_hags.20
    title = aw_hags.20.t
    desc = aw_hags.20.d
    picture = COMET_SIGHTED_eventPicture
    goto = ROOT
    
    hidden = no
    is_triggered_only = yes
    
    trigger = {
        OR = {
            has_province_modifier = aw_hags_1
            has_province_modifier = aw_hags_2
            has_province_modifier = aw_hags_3
        }
    }
    
    option = {
 
        name = aw_hags.20.a
        ai_chance = { factor = 100 }

        remove_province_modifier = aw_hags_1
        remove_province_modifier = aw_hags_2
        remove_province_modifier = aw_hags_3

    }
}

#21 - adventurer removal
province_event = {
    id = aw_hags.21
    title = aw_hags.21.t
    desc = aw_hags.21.d
    picture = COMET_SIGHTED_eventPicture
    goto = ROOT
    
    hidden = no
    is_triggered_only = yes
    
    trigger = {
        owner = { has_estate = estate_adventurers }
        OR = {
            has_province_modifier = aw_hags_1
            has_province_modifier = aw_hags_2
            has_province_modifier = aw_hags_3
        }
    }
    
    option = {
        # oh, thank goodness
        name = aw_hags.21.a
        ai_chance = { factor = 100 }

        remove_province_modifier = aw_hags_1
        remove_province_modifier = aw_hags_2
        remove_province_modifier = aw_hags_3

        owner = {
            add_estate_influence_modifier = {
                estate = estate_adventurers
                desc = EST_VAL_AW_RESOLVED_ADVENTURERS_WANTED_ENCOUNTER
                duration = 3650
                influence = 5
            }
        }

        owner = { add_prestige_excess_to_splendour_effect = { VAL=10} }   #10 for hard, 5 for medium, 3 for weak

    }
}

#22 - natural tier down - doesn't affect tier 3
province_event = {
    id = aw_hags.22
    title = aw_hags.22.t
    desc = aw_hags.22.d
    picture = COMET_SIGHTED_eventPicture
    goto = ROOT
    
    hidden = no
    is_triggered_only = yes
    
    trigger = {
        OR = { 
            has_province_modifier = aw_hags_1 
            has_province_modifier = aw_hags_2
        }
    }
    option = {
        name = aw_hags.22.a
        ai_chance = { factor = 100 }
        if = {
            limit = { 
                has_province_modifier = aw_hags_2
            }
            remove_province_modifier = aw_hags_2
            add_permanent_province_modifier  = {
                name = aw_hags_1
                duration = -1  
            }
        }
        else_if = {
            limit = { 
                has_province_modifier = aw_hags_1
            }
            remove_province_modifier = aw_hags_1
        }
    }
}

#23 - adventurer tier down
province_event = {
    id = aw_hags.23
    title = aw_hags.23.t
    desc = aw_hags.23.d
    picture = COMET_SIGHTED_eventPicture
    goto = ROOT
    
    hidden = no
    is_triggered_only = yes
    
    trigger = {
        owner = { has_estate = estate_adventurers }
        OR = { 
            has_province_modifier = aw_hags_1 
            has_province_modifier = aw_hags_2
            has_province_modifier = aw_hags_3
        }
    }
    option = {
        name = aw_hags.23.a
        ai_chance = { factor = 100 }
        if = {
            limit = { 
                has_province_modifier = aw_hags_3 
            }
            remove_province_modifier = aw_hags_3
            add_permanent_province_modifier  = {
                name = aw_hags_2
                duration = -1  
            }
        }
        else_if = {
            limit = { 
                has_province_modifier = aw_hags_2
            }
            remove_province_modifier = aw_hags_2
            add_permanent_province_modifier  = {
                name = aw_hags_1
                duration = -1  
            }
        }
        else_if = {
            limit = { 
                has_province_modifier = aw_hags_1
            }
            remove_province_modifier = aw_hags_1
            owner = { add_prestige_excess_to_splendour_effect = { VAL=10} }   #10 for hard, 5 for medium, 3 for weak
        }

        owner = {
            add_estate_influence_modifier = {
                estate = estate_adventurers
                desc = EST_VAL_AW_RESOLVED_ADVENTURERS_WANTED_ENCOUNTER
                duration = 3650
                influence = 5
            }
        }
    }
}

#24 - monstrous nation removal
province_event = {
    id = aw_hags.24
    title = aw_hags.24.t
    desc = aw_hags.24.d
    picture = COMET_SIGHTED_eventPicture
    goto = ROOT
    
    hidden = no
    is_triggered_only = yes
    
    trigger = {
        owner = { has_country_modifier = monstrous_nation }

        OR = {
            has_province_modifier = aw_hags_1
            has_province_modifier = aw_hags_2
            has_province_modifier = aw_hags_3
        }
    }
    
    option = {
 
        name = aw_hags.24.a
        ai_chance = { factor = 100 }

        remove_province_modifier = aw_hags_1
        remove_province_modifier = aw_hags_2
        remove_province_modifier = aw_hags_3

        owner = { add_prestige_excess_to_splendour_effect = { VAL=10} }   #10 for hard, 5 for medium, 3 for weak

    }
}

#25 - monstrous natural tier down. keep if you want, or just rely on removal - doesn't affect tier 3
province_event = {
    id = aw_hags.25
    title = aw_hags.25.t
    desc = aw_hags.25.d
    picture = COMET_SIGHTED_eventPicture
    goto = ROOT
    
    hidden = no
    is_triggered_only = yes
    
    trigger = {
        owner = { has_country_modifier = monstrous_nation }

        OR = { 
            has_province_modifier = aw_hags_1 
            has_province_modifier = aw_hags_2
        }
    }
    option = {
        name = aw_hags.25.a
        ai_chance = { factor = 100 }
        if = {
            limit = { 
                has_province_modifier = aw_hags_2
            }
            remove_province_modifier = aw_hags_2
            add_permanent_province_modifier  = {
                name = aw_hags_1
                duration = -1  
            }
        }
        else_if = {
            limit = { 
                has_province_modifier = aw_hags_1
            }
            remove_province_modifier = aw_hags_1
            owner = { add_prestige_excess_to_splendour_effect = { VAL=10} }   #10 for hard, 5 for medium, 3 for weak
        }
    }
}

############## 30s - Tier Up ###################

#30 - natural tier up - nah


############## 40s - Other Utility ###################

#40 - convert to pop if tolerating


#41 - convert to pop, monstrous subjugation



############## 110s - Special Migration & Propagation ###################



############## 120s - Special Removal/Tier Down ###################
#120 - fey help remove hag
province_event = {
    id = aw_hags.120
    title = aw_hags.120.t
    desc = aw_hags.120.d
    picture = COMET_SIGHTED_eventPicture
    goto = ROOT
    
    hidden = no
    is_triggered_only = yes
    
    trigger = {
        OR = {
            has_province_modifier = aw_hags_1
            has_province_modifier = aw_hags_2
            has_province_modifier = aw_hags_3
        }
        owner = {
            OR = {
                religion = fey_court
                religion = eordellon
                religion = spring_court
                religion = summer_court
                religion = autumn_court
                religion = winter_court
                religion = ashentree_pact
            }
        }
    }
    
    option = {
 
        name = aw_hags.120.a
        ai_chance = { factor = 100 }

        remove_province_modifier = aw_hags_1
        remove_province_modifier = aw_hags_2
        remove_province_modifier = aw_hags_3

    }
}

############## 130s - Special Tier Up ###################
#130 - hags tiers up with people moving to her province and some going missing
province_event = {
    id = aw_hags.130
    title = aw_hags.130.t
    desc = aw_hags.130.d
    picture = COMET_SIGHTED_eventPicture
    goto = ROOT
    
    hidden = no
    is_triggered_only = yes
    
    trigger = {
        owner = {
            any_province = {
                region = ROOT
                OR = {
                    has_province_modifier = aw_hags_1 #your region has a hag
                    has_province_modifier = aw_hags_2
                }
            }
        }
        NOT = {
            OR = {
                has_province_modifier = aw_hags_1
                has_province_modifier = aw_hags_2
                has_province_modifier = aw_hags_3
            }
        }
#        region_for_scope_province = {
#            OR = {
#                has_province_modifier = aw_hags_1 #your region has a hag
#                has_province_modifier = aw_hags_2
#            }
#        }
    }
    immediate = {
        hidden_effect = {
            owner = {
                random_province = {
                    limit = {
                        region = ROOT
                        OR = {
                            has_province_modifier = aw_hags_1 #your region has a hag
                            has_province_modifier = aw_hags_2
                        }
                    }
                    save_event_target_as = nested_hags_origin_province
                }
            }
        }
    }
    option = {
        name = aw_hags.130.a
        ai_chance = { factor = 100 }

        add_local_autonomy = 10
        random_list = {
            33 = {
                add_base_tax = -1
                add_base_production = -1
            }
            33 = {
                add_base_production = -1
                add_base_manpower = -1
            }
            33 = {
                add_base_tax = -1
                add_base_manpower = -1
            }
        }
        event_target:nested_hags_origin_country = {
            random_list = {
                33 = {
                    add_base_tax = 1
                }
                33 = {
                    add_base_production = 1
                }
                33 = {
                    add_base_manpower = 1
                }
            }
            if = {
                limit = { 
                    has_province_modifier = aw_hags_1
                }
                remove_province_modifier = aw_hags_1
                add_permanent_province_modifier  = {
                    name = aw_hags_2
                    duration = -1  
                }
            }
            else_if = {
                limit = { 
                    has_province_modifier = aw_hags_2
                }
                remove_province_modifier = aw_hags_2
                add_permanent_province_modifier  = {
                    name = aw_hags_3
                    duration = -1  
                }
            }
        }
    }
}

############## 140s - Other Special Utility ###################


############## 200s - Special Flavour ###################
#200 - mages bargain
country_event = {
    id = aw_hags.200
    title = aw_hags.200.t
    desc = aw_hags.200.d
    picture = COMET_SIGHTED_eventPicture
    
    hidden = no
    is_triggered_only = yes
    
    trigger = {
        any_owned_province = {
            OR = {
                has_province_modifier = aw_hags_1
                has_province_modifier = aw_hags_2
                has_province_modifier = aw_hags_3
            }
        }
        NOT = { has_country_modifier = aw_hags_mage_estate }
    }
    
    option = {
 
        name = aw_hags.200.a
        ai_chance = { factor = 100 }

        if = {
            limit = {
                any_owned_province = { has_province_modifier = aw_hags_3 }
            }
            add_country_modifier = {
                name = aw_hags_mage_estate
                duration = 3650
            }
        }
        else_if = {
            limit = {
                any_owned_province = { has_province_modifier = aw_hags_2 }
            }
            add_country_modifier = {
                name = aw_hags_mage_estate
                duration = 1825
            }
        }
        else_if = {
            limit = {
                any_owned_province = { has_province_modifier = aw_hags_1 }
            }
            add_country_modifier = {
                name = aw_hags_mage_estate
                duration = 730
            }
        }
    }
}

#201 - nobles bargain
country_event = {
    id = aw_hags.201
    title = aw_hags.201.t
    desc = aw_hags.201.d
    picture = COMET_SIGHTED_eventPicture
    
    hidden = no
    is_triggered_only = yes
    
    trigger = {
        any_owned_province = {
            OR = {
                has_province_modifier = aw_hags_1
                has_province_modifier = aw_hags_2
                has_province_modifier = aw_hags_3
            }
        }
        NOT = { has_country_modifier = aw_hags_noble_estate }
    }
    
    option = {
 
        name = aw_hags.201.a
        ai_chance = { factor = 100 }

        if = {
            limit = {
                any_owned_province = { has_province_modifier = aw_hags_3 }
            }
            add_country_modifier = {
                name = aw_hags_noble_estate
                duration = 3650
            }
        }
        else_if = {
            limit = {
                any_owned_province = { has_province_modifier = aw_hags_2 }
            }
            add_country_modifier = {
                name = aw_hags_noble_estate
                duration = 1825
            }
        }
        else_if = {
            limit = {
                any_owned_province = { has_province_modifier = aw_hags_1 }
            }
            add_country_modifier = {
                name = aw_hags_noble_estate
                duration = 730
            }
        }
    }
}

#202 - clergy bargain
country_event = {
    id = aw_hags.202
    title = aw_hags.202.t
    desc = aw_hags.202.d
    picture = COMET_SIGHTED_eventPicture
    
    hidden = no
    is_triggered_only = yes
    
    trigger = {
        any_owned_province = {
            OR = {
                has_province_modifier = aw_hags_1
                has_province_modifier = aw_hags_2
                has_province_modifier = aw_hags_3
            }
        }
        NOT = { has_country_modifier = aw_hags_clergy_estate }
    }
    
    option = {
 
        name = aw_hags.202.a
        ai_chance = { factor = 100 }

        if = {
            limit = {
                any_owned_province = { has_province_modifier = aw_hags_3 }
            }
            add_country_modifier = {
                name = aw_hags_clergy_estate
                duration = 3650
            }
        }
        else_if = {
            limit = {
                any_owned_province = { has_province_modifier = aw_hags_2 }
            }
            add_country_modifier = {
                name = aw_hags_clergy_estate
                duration = 1825
            }
        }
        else_if = {
            limit = {
                any_owned_province = { has_province_modifier = aw_hags_1 }
            }
            add_country_modifier = {
                name = aw_hags_clergy_estate
                duration = 730
            }
        }
    }
}

#203 - burghers bargain
country_event = {
    id = aw_hags.203
    title = aw_hags.203.t
    desc = aw_hags.203.d
    picture = COMET_SIGHTED_eventPicture
    
    hidden = no
    is_triggered_only = yes
    
    trigger = {
        any_owned_province = {
            OR = {
                has_province_modifier = aw_hags_1
                has_province_modifier = aw_hags_2
                has_province_modifier = aw_hags_3
            }
        }
        NOT = { has_country_modifier = aw_hags_burgher_estate }
    }
    
    option = {
 
        name = aw_hags.203.a
        ai_chance = { factor = 100 }

        if = {
            limit = {
                any_owned_province = { has_province_modifier = aw_hags_3 }
            }
            add_country_modifier = {
                name = aw_hags_burgher_estate
                duration = 3650
            }
        }
        else_if = {
            limit = {
                any_owned_province = { has_province_modifier = aw_hags_2 }
            }
            add_country_modifier = {
                name = aw_hags_burgher_estate
                duration = 1825
            }
        }
        else_if = {
            limit = {
                any_owned_province = { has_province_modifier = aw_hags_1 }
            }
            add_country_modifier = {
                name = aw_hags_burgher_estate
                duration = 730
            }
        }
    }
}

#204 - adventurers bargain
country_event = {
    id = aw_hags.204
    title = aw_hags.204.t
    desc = aw_hags.204.d
    picture = COMET_SIGHTED_eventPicture
    
    hidden = no
    is_triggered_only = yes
    
    trigger = {
        any_owned_province = {
            OR = {
                has_province_modifier = aw_hags_1
                has_province_modifier = aw_hags_2
                has_province_modifier = aw_hags_3
            }
        }
        NOT = { has_country_modifier = aw_hags_adventurer_estate }
    }
    
    option = {
 
        name = aw_hags.204.a
        ai_chance = { factor = 100 }

        if = {
            limit = {
                any_owned_province = { has_province_modifier = aw_hags_3 }
            }
            add_country_modifier = {
                name = aw_hags_adventurer_estate
                duration = 3650
            }
        }
        else_if = {
            limit = {
                any_owned_province = { has_province_modifier = aw_hags_2 }
            }
            add_country_modifier = {
                name = aw_hags_adventurer_estate
                duration = 1825
            }
        }
        else_if = {
            limit = {
                any_owned_province = { has_province_modifier = aw_hags_1 }
            }
            add_country_modifier = {
                name = aw_hags_adventurer_estate
                duration = 730
            }
        }
    }
}

#205 - children going missing
province_event = {
    id = aw_hags.205
    title = aw_hags.205.t
    desc = aw_hags.205.d
    picture = COMET_SIGHTED_eventPicture
    
    hidden = no
    is_triggered_only = yes
    
    trigger = {
        OR = {
            has_province_modifier = aw_hags_1
            has_province_modifier = aw_hags_2
            has_province_modifier = aw_hags_3
        }
        NOT = { has_province_modifier = aw_hags_children_missing }
    }
    
    option = {
 
        name = aw_hags.205.a
        ai_chance = { factor = 100 }

        add_permanent_province_modifier = {
            name = aw_hags_children_missing
            duration = 1825
        }
    }
}

#206 - ruler suspected of bargaining
country_event = {
    id = aw_hags.206
    title = aw_hags.206.t
    desc = aw_hags.206.d
    picture = COMET_SIGHTED_eventPicture
    
    hidden = no
    is_triggered_only = yes
    
    trigger = {
        any_owned_province = {
            OR = {
                has_province_modifier = aw_hags_1
                has_province_modifier = aw_hags_2
                has_province_modifier = aw_hags_3
            }
        }
        NOT = { has_country_modifier = aw_hags_no_legit_king }
    }
    
    option = {
 
        name = aw_hags.206.a
        ai_chance = { factor = 100 }

        add_country_modifier = {
            name = aw_hags_no_legit_king
            duration = 1825
        }
    }
}