# Added a list of all the races for use in scripting, please add new races (in alphabetical order)
# races = ["centaur", "dwarven", "elven", "gnollish", "gnomish", "goblin", "halfling", "half_elven", "half_orcish", "harimari", "harpy", "hobgoblin", "human", "kobold", "ogre", "orcish", "ruinborn", "troll"]

namespace = racial_pop_misc

#################################
### dont copy this bro its outdated!
################################


#Pop Control Menu
country_event = {
	id = racial_pop_misc.1
	title = racial_pop_misc.1.t
	desc = racial_pop_misc.1.d
	picture = DEBATE_REPUBLICAN_eventPicture
	
	trigger = {
		always = yes
	}
	
	is_triggered_only = yes
	
	option = {		#Back
		name = racial_pop_misc.1.b
		highlight = yes
		ai_chance = {
			factor = 15
		}
		
		hidden_effect = { clr_country_flag = racial_pop_menu_opened }
		
		#Prevents AI spamming and revoking too soon
		hidden_effect = {
			if = {
				limit = {
					ai = yes
				}
				add_country_modifier = { 
					name = racial_pop_menu_cooldown
					duration = 3650
					hidden = yes
				}
			}
		}	
	}

	option = {		#Centaur
		name = racial_pop_misc.1.p
		trigger = {
			if = {
				limit = {
					ai = yes
				}
				OR = {
					any_owned_province = {
						has_centaur_minority_trigger = yes
					}
					any_owned_province = {
						has_centaur_majority_trigger = yes
					}
					has_country_modifier = racial_pop_centaur_purge
					has_country_modifier = racial_pop_centaur_expulsion
				}
			}
		}
		ai_chance = {
			factor = 10
			#AI only ever takes if they have a centaur province
			#modifier = {
			#	factor = 2
			#	OR = {
			#		any_owned_province = {
			#			has_centaur_minority_trigger = yes
			#		}
			#		any_owned_province = {
			#			has_centaur_majority_trigger = yes
			#		}
			#	}
			#}
			modifier = {
				factor = 1.5
				calc_true_if = {
					all_owned_province = {
						OR = {
							has_centaur_minority_trigger = yes
							has_centaur_majority_trigger = yes
						}
					}
					amount = 10
				}
			}
		}
		
		country_event = { 
			id = racial_pop_events_centaur.12
		}
		
		#Prevents AI spamming and revoking too soon
		hidden_effect = {
			if = {
				limit = {
					ai = yes
				}
				add_country_modifier = { 
					name = racial_pop_menu_cooldown
					duration = 3650
					hidden = yes
				}
			}
		}
		
	}
	option = {		#Dwarves
		name = racial_pop_misc.1.a
		trigger = {
			if = {
				limit = {
					ai = yes
				}
				OR = {
					any_owned_province = {
						has_dwarven_minority_trigger = yes
					}
					any_owned_province = {
						has_dwarven_majority_trigger = yes
					}
					has_country_modifier = racial_pop_dwarven_purge
					has_country_modifier = racial_pop_dwarven_expulsion
				}
			}
		}
		ai_chance = {
			factor = 10
			
			#AI only ever takes if they have a dwarven province
			#modifier = {
			#	factor = 2
			#	OR = {
			#		any_owned_province = {
			#			has_dwarven_minority_trigger = yes
			#		}
			#		any_owned_province = {
			#			has_dwarven_majority_trigger = yes
			#		}
			#	}
			#}
			modifier = {
				factor = 1.5
				calc_true_if = {
					all_owned_province = {
						OR = {
							has_dwarven_minority_trigger = yes
							has_dwarven_majority_trigger = yes
						}
					}
					amount = 10
				}
			}
			
		}
		
		country_event = { 
			id = racial_pop_events_dwarven.12
		}
		
		#Prevents AI spamming and revoking too soon
		hidden_effect = {
			if = {
				limit = {
					ai = yes
				}
				add_country_modifier = { 
					name = racial_pop_menu_cooldown
					duration = 3650
					hidden = yes
				}
			}
		}
		
	}
	option = {		#Elven
		name = racial_pop_misc.1.c
		trigger = {
			if = {
				limit = {
					ai = yes
				}
				OR = {
					any_owned_province = {
						has_elven_minority_trigger = yes
					}
					any_owned_province = {
						has_elven_majority_trigger = yes
					}
					has_country_modifier = racial_pop_elven_purge
					has_country_modifier = racial_pop_elven_expulsion
				}
			}
		}
		ai_chance = {
			factor = 10
			#AI only ever takes if they have a dwarven province
			#modifier = {
			#	factor = 2
			#	OR = {
			#		any_owned_province = {
			#			has_elven_minority_trigger = yes
			#		}
			#		any_owned_province = {
			#			has_elven_majority_trigger = yes
			#		}
			#	}
			#}
			modifier = {
				factor = 1.5
				calc_true_if = {
					all_owned_province = {
						OR = {
							has_elven_minority_trigger = yes
							has_elven_majority_trigger = yes
						}
					}
					amount = 10
				}
			}
		}
		
		country_event = { 
			id = racial_pop_events_elven.12
		}
		
		#Prevents AI spamming and revoking too soon
		hidden_effect = {
			if = {
				limit = {
					ai = yes
				}
				add_country_modifier = { 
					name = racial_pop_menu_cooldown
					duration = 3650
					hidden = yes
				}
			}
		}
		
		
	}
	option = {		#Gnolls
		name = racial_pop_misc.1.dd
		trigger = {
			if = {
				limit = {
					ai = yes
				}
				OR = {
					any_owned_province = {
						has_gnollish_minority_trigger = yes
					}
					any_owned_province = {
						has_gnollish_majority_trigger = yes
					}
					has_country_modifier = racial_pop_gnollish_purge
					has_country_modifier = racial_pop_gnollish_expulsion
				}
			}
		}
		ai_chance = {
			factor = 10
			#AI only ever takes if they have a gnollish province
			#modifier = {
			#	factor = 2
			#	OR = {
			#		any_owned_province = {
			#			has_gnollish_minority_trigger = yes
			#		}
			#		any_owned_province = {
			#			has_gnollish_majority_trigger = yes
			#		}
			#	}
			#}
			modifier = {
				factor = 1.5
				calc_true_if = {
					all_owned_province = {
						OR = {
							has_gnollish_minority_trigger = yes
							has_gnollish_majority_trigger = yes
						}
					}
					amount = 10
				}
			}
		}
		
		country_event = { 
			id = racial_pop_events_gnollish.12
		}
		
		#Prevents AI spamming and revoking too soon
		hidden_effect = {
			if = {
				limit = {
					ai = yes
				}
				add_country_modifier = { 
					name = racial_pop_menu_cooldown
					duration = 3650
					hidden = yes
				}
			}
		}
	}
	option = {		#Gnomish
		name = racial_pop_misc.1.e
		trigger = {
			if = {
				limit = {
					ai = yes
				}
				OR = {
					any_owned_province = {
						has_gnomish_minority_trigger = yes
					}
					any_owned_province = {
						has_gnomish_majority_trigger = yes
					}
					has_country_modifier = racial_pop_gnomish_purge
					has_country_modifier = racial_pop_gnomish_expulsion
				}
			}
		}
		ai_chance = {
			factor = 10
			#AI only ever takes if they have a gnomish province
			#modifier = {
			#	factor = 2
			#	OR = {
			#		any_owned_province = {
			#			has_gnomish_minority_trigger = yes
			#		}
			#		any_owned_province = {
			#			has_gnomish_majority_trigger = yes
			#		}
			#	}
			#}
			modifier = {
				factor = 1.5
				calc_true_if = {
					all_owned_province = {
						OR = {
							has_gnomish_minority_trigger = yes
							has_gnomish_majority_trigger = yes
						}
					}
					amount = 10
				}
			}
		}
		
		country_event = { 
			id = racial_pop_events_gnomish.12
		}
		
		#Prevents AI spamming and revoking too soon
		hidden_effect = {
			if = {
				limit = {
					ai = yes
				}
				add_country_modifier = { 
					name = racial_pop_menu_cooldown
					duration = 3650
					hidden = yes
				}
			}
		}
		
	}
	option = {		#Goblin
		name = racial_pop_misc.1.f
		trigger = {
			if = {
				limit = {
					ai = yes
				}
				OR = {
					any_owned_province = {
						has_goblin_minority_trigger = yes
					}
					any_owned_province = {
						has_goblin_majority_trigger = yes
					}
					has_country_modifier = racial_pop_goblin_purge
					has_country_modifier = racial_pop_goblin_expulsion
				}
			}
		}
		ai_chance = {
			factor = 10
			#AI only ever takes if they have a goblin province
			#modifier = {
			#	factor = 2
			#	OR = {
			#		any_owned_province = {
			#			has_goblin_minority_trigger = yes
			#		}
			#		any_owned_province = {
			#			has_goblin_majority_trigger = yes
			#		}
			#	}
			#}
			modifier = {
				factor = 1.5
				calc_true_if = {
					all_owned_province = {
						OR = {
							has_goblin_minority_trigger = yes
							has_goblin_majority_trigger = yes
						}
					}
					amount = 10
				}
			}
			modifier = {
				factor = 10
				culture_group = dwarven
				any_owned_province = {
					OR = {
						has_terrain = dwarven_hold
						has_terrain = dwarven_hold_surface
					}
					has_goblin_majority_trigger = yes
				}
			}
		}
		
		country_event = { 
			id = racial_pop_events_goblin.12
		}
		
		#Prevents AI spamming and revoking too soon
		hidden_effect = {
			if = {
				limit = {
					ai = yes
				}
				add_country_modifier = { 
					name = racial_pop_menu_cooldown
					duration = 3650
					hidden = yes
				}
			}
		}
		
	}
	option = {		#Half-elven
		name = racial_pop_misc.1.g
		trigger = {
			if = {
				limit = {
					ai = yes
				}
				OR = {
					any_owned_province = {
						has_half_elven_minority_trigger = yes
					}
					any_owned_province = {
						has_half_elven_majority_trigger = yes
					}
					has_country_modifier = racial_pop_half_elven_purge
					has_country_modifier = racial_pop_half_elven_expulsion
				}
			}
		}
		ai_chance = {
			factor = 10
			#AI only ever takes if they have a half_elven province
			#modifier = {
			#	factor = 2
			#	OR = {
			#		any_owned_province = {
			#			has_half_elven_minority_trigger = yes
			#		}
			#		any_owned_province = {
			#			has_half_elven_majority_trigger = yes
			#		}
			#	}
			#}
			modifier = {
				factor = 1.5
				calc_true_if = {
					all_owned_province = {
						OR = {
							has_half_elven_minority_trigger = yes
							has_half_elven_majority_trigger = yes
						}
					}
					amount = 10
				}
			}
		}
		
		country_event = { 
			id = racial_pop_events_half_elven.12
		}
		
		#Prevents AI spamming and revoking too soon
		hidden_effect = {
			if = {
				limit = {
					ai = yes
				}
				add_country_modifier = { 
					name = racial_pop_menu_cooldown
					duration = 3650
					hidden = yes
				}
			}
		}
		
	}
	option = {		#Half-orcish
		name = racial_pop_misc.1.h
		trigger = {
			if = {
				limit = {
					ai = yes
				}
				OR = {
					any_owned_province = {
						has_half_orcish_minority_trigger = yes
					}
					any_owned_province = {
						has_half_orcish_majority_trigger = yes
					}
					has_country_modifier = racial_pop_half_orcish_purge
					has_country_modifier = racial_pop_half_orcish_expulsion
				}
			}
		}
		ai_chance = {
			factor = 10
			#AI only ever takes if they have a half_orcish province
			#modifier = {
			#	factor = 2
			#	OR = {
			#		any_owned_province = {
			#			has_half_orcish_minority_trigger = yes
			#		}
			#		any_owned_province = {
			#			has_half_orcish_majority_trigger = yes
			#		}
			#	}
			#}
			modifier = {
				factor = 1.5
				calc_true_if = {
					all_owned_province = {
						OR = {
							has_half_orcish_minority_trigger = yes
							has_half_orcish_majority_trigger = yes
						}
					}
					amount = 10
				}
			}
		}
		
		country_event = { 
			id = racial_pop_events_half_orcish.12
		}
		
		#Prevents AI spamming and revoking too soon
		hidden_effect = {
			if = {
				limit = {
					ai = yes
				}
				add_country_modifier = { 
					name = racial_pop_menu_cooldown
					duration = 3650
					hidden = yes
				}
			}
		}
		
	}
	option = {		#Halfling
		name = racial_pop_misc.1.i
		trigger = {
			if = {
				limit = {
					ai = yes
				}
				OR = {
					any_owned_province = {
						has_halfling_minority_trigger = yes
					}
					any_owned_province = {
						has_halfling_majority_trigger = yes
					}
					has_country_modifier = racial_pop_halfling_purge
					has_country_modifier = racial_pop_halfling_expulsion
				}
			}
		}
		ai_chance = {
			factor = 10
			#AI only ever takes if they have a halfling province
			#modifier = {
			#	factor = 2
			#	OR = {
			#		any_owned_province = {
			#			has_halfling_minority_trigger = yes
			#		}
			#		any_owned_province = {
			#			has_halfling_majority_trigger = yes
			#		}
			#	}
			#}
			modifier = {
				factor = 1.5
				calc_true_if = {
					all_owned_province = {
						OR = {
							has_halfling_minority_trigger = yes
							has_halfling_majority_trigger = yes
						}
					}
					amount = 10
				}
			}
		}
		
		country_event = { 
			id = racial_pop_events_halfling.12
		}
		
		#Prevents AI spamming and revoking too soon
		hidden_effect = {
			if = {
				limit = {
					ai = yes
				}
				add_country_modifier = { 
					name = racial_pop_menu_cooldown
					duration = 3650
					hidden = yes
				}
			}
		}
		
	}
	option = {		#Harimari
		name = racial_pop_misc.1.r
		trigger = {
			if = {
				limit = {
					ai = yes
				}
				OR = {
					any_owned_province = {
						has_harimari_minority_trigger = yes
					}
					any_owned_province = {
						has_harimari_majority_trigger = yes
					}
					has_country_modifier = racial_pop_harimari_purge
					has_country_modifier = racial_pop_harimari_expulsion
				}
			}
		}
		ai_chance = {
			factor = 10
			#AI only ever takes if they have a harimari province
			#modifier = {
			#	factor = 2
			#	OR = {
			#		any_owned_province = {
			#			has_harimari_minority_trigger = yes
			#		}
			#		any_owned_province = {
			#			has_harimari_majority_trigger = yes
			#		}
			#	}
			#}
			modifier = {
				factor = 1.5
				calc_true_if = {
					all_owned_province = {
						OR = {
							has_harimari_minority_trigger = yes
							has_harimari_majority_trigger = yes
						}
					}
					amount = 10
				}
			}
		}
		
		country_event = { 
			id = racial_pop_events_harimari.12
		}
		
		#Prevents AI spamming and revoking too soon
		hidden_effect = {
			if = {
				limit = {
					ai = yes
				}
				add_country_modifier = { 
					name = racial_pop_menu_cooldown
					duration = 3650
					hidden = yes
				}
			}
		}
		
	}
	
	option = {		#Harpies
		name = racial_pop_misc.1.j
		trigger = {
			if = {
				limit = {
					ai = yes
				}
				OR = {
					any_owned_province = {
						has_harpy_minority_trigger = yes
					}
					any_owned_province = {
						has_harpy_majority_trigger = yes
					}
					has_country_modifier = racial_pop_harpy_purge
					has_country_modifier = racial_pop_harpy_expulsion
				}
			}
		}
		ai_chance = {
			factor = 10
			#AI only ever takes if they have a harpy province
			#modifier = {
			#	factor = 2
			#	OR = {
			#		any_owned_province = {
			#			has_harpy_minority_trigger = yes
			#		}
			#		any_owned_province = {
			#			has_harpy_majority_trigger = yes
			#		}
			#	}
			#}
			modifier = {
				factor = 1.5
				calc_true_if = {
					all_owned_province = {
						OR = {
							has_harpy_minority_trigger = yes
							has_harpy_majority_trigger = yes
						}
					}
					amount = 10
				}
			}
		}
		
		country_event = { 
			id = racial_pop_events_harpy.12
		}
		
		#Prevents AI spamming and revoking too soon
		hidden_effect = {
			if = {
				limit = {
					ai = yes
				}
				add_country_modifier = { 
					name = racial_pop_menu_cooldown
					duration = 3650
					hidden = yes
				}
			}
		}
		
	}
	
	option = {		#Hobgoblin
		name = racial_pop_misc.1.s
		trigger = {
			if = {
				limit = {
					ai = yes
				}
				OR = {
					any_owned_province = {
						has_hobgoblin_minority_trigger = yes
					}
					any_owned_province = {
						has_hobgoblin_majority_trigger = yes
					}
					has_country_modifier = racial_pop_hobgoblin_purge
					has_country_modifier = racial_pop_hobgoblin_expulsion
				}
			}
		}
		ai_chance = {
			factor = 10
			#AI only ever takes if they have a hobgoblin province
			#modifier = {
			#	factor = 2
			#	OR = {
			#		any_owned_province = {
			#			has_hobgoblin_minority_trigger = yes
			#		}
			#		any_owned_province = {
			#			has_hobgoblin_majority_trigger = yes
			#		}
			#	}
			#}
			modifier = {
				factor = 1.5
				calc_true_if = {
					all_owned_province = {
						OR = {
							has_hobgoblin_minority_trigger = yes
							has_hobgoblin_majority_trigger = yes
						}
					}
					amount = 10
				}
			}
		}
		
		country_event = { 
			id = racial_pop_events_hobgoblin.12
		}
		
		#Prevents AI spamming and revoking too soon
		hidden_effect = {
			if = {
				limit = {
					ai = yes
				}
				add_country_modifier = { 
					name = racial_pop_menu_cooldown
					duration = 3650
					hidden = yes
				}
			}
		}
		
	}
	
	option = {		#Human
		name = racial_pop_misc.1.k
		trigger = {
			if = {
				limit = {
					ai = yes
				}
				OR = {
					any_owned_province = {
						has_human_minority_trigger = yes
					}
					any_owned_province = {
						has_human_majority_trigger = yes
					}
					has_country_modifier = racial_pop_human_purge
					has_country_modifier = racial_pop_human_expulsion
				}
			}
		}
		ai_chance = {
			factor = 10
			#AI only ever takes if they have a human province
			#modifier = {
			#	factor = 2
			#	OR = {
			#		any_owned_province = {
			#			has_human_minority_trigger = yes
			#		}
			#		any_owned_province = {
			#			has_human_majority_trigger = yes
			#		}
			#	}
			#}
			modifier = {
				factor = 1.5
				calc_true_if = {
					all_owned_province = {
						OR = {
							has_human_minority_trigger = yes
							has_human_majority_trigger = yes
						}
					}
					amount = 10
				}
			}
		}
		
		country_event = { 
			id = racial_pop_events_human.12
		}
		
		#Prevents AI spamming and revoking too soon
		hidden_effect = {
			if = {
				limit = {
					ai = yes
				}
				add_country_modifier = { 
					name = racial_pop_menu_cooldown
					duration = 3650
					hidden = yes
				}
			}
		}
		
	}
	option = {		#Kobold
		name = racial_pop_misc.1.l
		trigger = {
			if = {
				limit = {
					ai = yes
				}
				OR = {
					any_owned_province = {
						has_kobold_minority_trigger = yes
					}
					any_owned_province = {
						has_kobold_majority_trigger = yes
					}
					has_country_modifier = racial_pop_kobold_purge
					has_country_modifier = racial_pop_kobold_expulsion
				}
			}
		}
		ai_chance = {
			factor = 10
			#AI only ever takes if they have a kobold province
			#modifier = {
			#	factor = 2
			#	OR = {
			#		any_owned_province = {
			#			has_kobold_minority_trigger = yes
			#		}
			#		any_owned_province = {
			#			has_kobold_majority_trigger = yes
			#		}
			#	}
			#}
			modifier = {
				factor = 1.5
				calc_true_if = {
					all_owned_province = {
						OR = {
							has_kobold_minority_trigger = yes
							has_kobold_majority_trigger = yes
						}
					}
					amount = 10
				}
			}
		}
		
		country_event = { 
			id = racial_pop_events_kobold.12
		}
		
		#Prevents AI spamming and revoking too soon
		hidden_effect = {
			if = {
				limit = {
					ai = yes
				}
				add_country_modifier = { 
					name = racial_pop_menu_cooldown
					duration = 3650
					hidden = yes
				}
			}
		}
		
	}
	option = {		#Orcish
		name = racial_pop_misc.1.m
		trigger = {
			if = {
				limit = {
					ai = yes
				}
				OR = {
					any_owned_province = {
						has_orcish_minority_trigger = yes
					}
					any_owned_province = {
						has_orcish_majority_trigger = yes
					}
					has_country_modifier = racial_pop_orcish_purge
					has_country_modifier = racial_pop_orcish_expulsion
				}
			}
		}
		ai_chance = {
			factor = 10
			#AI only ever takes if they have a orcish province
			#modifier = {
			#	factor = 2
			#	OR = {
			#		any_owned_province = {
			#			has_orcish_minority_trigger = yes
			#		}
			#		any_owned_province = {
			#			has_orcish_majority_trigger = yes
			#		}
			#	}
			#}
			modifier = {
				factor = 1.5
				calc_true_if = {
					all_owned_province = {
						OR = {
							has_orcish_minority_trigger = yes
							has_orcish_majority_trigger = yes
						}
					}
					amount = 10
				}
			}
			modifier = {
				factor = 10
				culture_group = dwarven
				any_owned_province = {
					OR = {
						has_terrain = dwarven_hold
						has_terrain = dwarven_hold_surface
					}
					has_orcish_majority_trigger = yes
				}
			}
			modifier = {
				factor = 0
				tag = A73
			}
		}
		
		country_event = { 
			id = racial_pop_events_orcish.12
		}
		
		#Prevents AI spamming and revoking too soon
		hidden_effect = {
			if = {
				limit = {
					ai = yes
				}
				add_country_modifier = { 
					name = racial_pop_menu_cooldown
					duration = 3650
					hidden = yes
				}
			}
		}
		
	}
	
	option = {		#Ogre
		name = racial_pop_misc.1.q
		trigger = {
			if = {
				limit = {
					ai = yes
				}
				OR = {
					any_owned_province = {
						has_ogre_minority_trigger = yes
					}
					any_owned_province = {
						has_ogre_majority_trigger = yes
					}
					has_country_modifier = racial_pop_ogre_purge
					has_country_modifier = racial_pop_ogre_expulsion
				}
			}
		}
		ai_chance = {
			factor = 10
			#AI only ever takes if they have a ogre province
			#modifier = {
			#	factor = 2
			#	OR = {
			#		any_owned_province = {
			#			has_ogre_minority_trigger = yes
			#		}
			#		any_owned_province = {
			#			has_ogre_majority_trigger = yes
			#		}
			#	}
			#}
			modifier = {
				factor = 1.5
				calc_true_if = {
					all_owned_province = {
						OR = {
							has_ogre_minority_trigger = yes
							has_ogre_majority_trigger = yes
						}
					}
					amount = 10
				}
			}
		}
		
		country_event = { 
			id = racial_pop_events_ogre.12
		}
		
		#Prevents AI spamming and revoking too soon
		hidden_effect = {
			if = {
				limit = {
					ai = yes
				}
				add_country_modifier = { 
					name = racial_pop_menu_cooldown
					duration = 3650
					hidden = yes
				}
			}
		}
		
	}
	option = {		#Ruinborn
		name = racial_pop_misc.1.n
		trigger = {
			if = {
				limit = {
					ai = yes
				}
				OR = {
					any_owned_province = {
						has_ruinborn_minority_trigger = yes
					}
					any_owned_province = {
						has_ruinborn_majority_trigger = yes
					}
					has_country_modifier = racial_pop_ruinborn_purge
					has_country_modifier = racial_pop_ruinborn_expulsion
				}
			}
		}
		ai_chance = {
			factor = 10
			#AI only ever takes if they have a ruinborn province
			#modifier = {
			#	factor = 2
			#	OR = {
			#		any_owned_province = {
			#			has_ruinborn_minority_trigger = yes
			#		}
			#		any_owned_province = {
			#			has_ruinborn_majority_trigger = yes
			#		}
			#	}
			#}
			modifier = {
				factor = 1.5
				calc_true_if = {
					all_owned_province = {
						OR = {
							has_ruinborn_minority_trigger = yes
							has_ruinborn_majority_trigger = yes
						}
					}
					amount = 10
				}
			}
		}
		
		country_event = { 
			id = racial_pop_events_ruinborn.12
		}
		
		#Prevents AI spamming and revoking too soon
		hidden_effect = {
			if = {
				limit = {
					ai = yes
				}
				add_country_modifier = { 
					name = racial_pop_menu_cooldown
					duration = 3650
					hidden = yes
				}
			}
		}
		
	}
	option = {		#Troll
		name = racial_pop_misc.1.o
		trigger = {
			if = {
				limit = {
					ai = yes
				}
				OR = {
					any_owned_province = {
						has_troll_minority_trigger = yes
					}
					any_owned_province = {
						has_troll_majority_trigger = yes
					}
					has_country_modifier = racial_pop_troll_purge
					has_country_modifier = racial_pop_troll_expulsion
				}
			}
		}
		ai_chance = {
			factor = 10
			#AI only ever takes if they have a troll province
			#modifier = {
			#	factor = 2
			#	OR = {
			#		any_owned_province = {
			#			has_troll_minority_trigger = yes
			#		}
			#		any_owned_province = {
			#			has_troll_majority_trigger = yes
			#		}
			#	}
			#}
			modifier = {
				factor = 1.5
				calc_true_if = {
					all_owned_province = {
						OR = {
							has_troll_minority_trigger = yes
							has_troll_majority_trigger = yes
						}
					}
					amount = 10
				}
			}
		}
		
		country_event = { 
			id = racial_pop_events_troll.12
		}
		
		#Prevents AI spamming and revoking too soon
		hidden_effect = {
			if = {
				limit = {
					ai = yes
				}
				add_country_modifier = { 
					name = racial_pop_menu_cooldown
					duration = 3650
					hidden = yes
				}
			}
		}
		
	}
	
	#AddNewRaceHere
	
	

	
	
	

	
}

#Half-orc Creation
country_event = {
	id = racial_pop_misc.2
	title = racial_pop_misc.2.t
	desc = racial_pop_misc.2.d
	picture = REFUGEES_ESCAPING_eventPicture
	goto = racial_pop_province_target
	
	trigger = {
		#Not available in Silverforge while Orcs slaves are oppressed
		NOT = {
			tag = A73
			NOT = {
				check_variable = {
					which = orcish_race_tolerance
					value = 31
				}
			}
		}
		NOT = { tag = Z57 }
		any_core_province = {
			OR = {
				AND = { #Orc primary culture, human minority
					has_human_minority_trigger = yes
					culture_group = orcish
				}
				AND = { #Human primary culture, orc minority
					has_orcish_minority_trigger = yes
					culture_is_human = yes
				}
			}
			NOT = { has_half_orcish_minority_trigger = yes }
			# is_core = ROOT
		}
		
	}
	
	mean_time_to_happen = {
		days = 7300
		modifier = {
			factor = 0.25
			calc_true_if = {
				all_owned_province = {
					has_orcish_minority_trigger = yes
					culture_is_human = yes
					is_core = ROOT
				}
				amount = 20
			}
		}
		modifier = {
			factor = 0.25
			calc_true_if = {
				all_owned_province = {
					has_human_minority_trigger = yes
					culture_group = orcish
					is_core = ROOT
				}
				amount = 20
			}
		}
		modifier = {
			factor = 0.9
			any_owned_province = {
				has_coexisting_orcish_minority_trigger = yes
			}
		}
		modifier = {
			factor = 0.9
			any_owned_province = {
				has_coexisting_human_minority_trigger = yes
			}
		}
		modifier = {
			factor = 0.9
			any_owned_province = {
				has_integrated_orcish_minority_trigger = yes
			}
		}
		modifier = {
			factor = 0.9
			any_owned_province = {
				has_integrated_human_minority_trigger = yes
			}
		}
		modifier = {
			factor = 0.9
			any_owned_province = {
				has_half_orcish_minority_trigger = yes
			}
		}
	}
	
	immediate = {
	
		#Origin Province Setter
		
		#Make this the monstrous purge thing
		hidden_effect = {
			random_owned_province = {
				limit = {
					has_human_minority_trigger = yes
					culture_group = orcish
					NOT = { has_half_orcish_minority_trigger = yes }
					is_core = ROOT
				}
				save_event_target_as = racial_pop_province_target
			}
			random_owned_province = {
				limit = {
					has_human_minority_trigger = yes
					culture_group = orcish
					NOT = { has_half_orcish_minority_trigger = yes }
					development = 10
					is_core = ROOT
				}
				save_event_target_as = racial_pop_province_target
			}
			random_owned_province = {
				limit = {
					has_human_minority_trigger = yes
					culture_group = orcish
					NOT = { has_half_orcish_minority_trigger = yes }
					development = 20
					is_core = ROOT
				}
				save_event_target_as = racial_pop_province_target
			}
			
			random_owned_province = {
				limit = {
					has_orcish_minority_trigger = yes
					culture_is_human = yes
					NOT = { has_half_orcish_minority_trigger = yes }
					is_core = ROOT
				}
				save_event_target_as = racial_pop_province_target
			}
			random_owned_province = {
				limit = {
					has_orcish_minority_trigger = yes
					culture_is_human = yes
					NOT = { has_half_orcish_minority_trigger = yes }
					development = 10
					is_core = ROOT
				}
				save_event_target_as = racial_pop_province_target
			}
			random_owned_province = {
				limit = {
					has_orcish_minority_trigger = yes
					culture_is_human = yes
					NOT = { has_half_orcish_minority_trigger = yes }
					development = 20
					is_core = ROOT
				}
				save_event_target_as = racial_pop_province_target
			}
			if = {
				limit = {
					event_target:racial_pop_province_target = {
						has_orcish_minority_trigger = yes
						culture_is_human = yes
					}
				}
				event_target:racial_pop_province_target = {
					remove_orcish_minority_size_effect = yes
					add_half_orcish_minority_size_effect = yes
				}
			}
			
			if = {
				limit = {
					event_target:racial_pop_province_target = {
						has_human_minority_trigger = yes
						culture_group = orcish
					}
				}
				event_target:racial_pop_province_target = {
					remove_human_minority_size_effect = yes
					add_half_orcish_minority_size_effect = yes
				}
			}

		}
	}
	
	#Make em
	option = {		
		name = racial_pop_misc.2.a
		
		tooltip = {
			if = {
				limit = {
					event_target:racial_pop_province_target = {
						has_orcish_minority_trigger = yes
						culture_is_human = yes
					}
				}
				event_target:racial_pop_province_target = {
					remove_orcish_minority_size_effect = yes
					add_half_orcish_minority_size_effect = yes
				}
			}
			
			if = {
				limit = {
					event_target:racial_pop_province_target = {
						has_human_minority_trigger = yes
						culture_group = orcish
					}
				}
				event_target:racial_pop_province_target = {
					remove_human_minority_size_effect = yes
					add_half_orcish_minority_size_effect = yes
				}
			}
		}
		
	}
	
}