namespace = aw_haunted_house

#The Adventurers Wanted uses a strict ID system to make the system easier to author content for
#The IDs below 100 are core utility systems that are usually straight copies or modifications of how the AW system works, such as monsters being able to migrate and be defeated by adventurers.
#The IDs above 100 are more unique situations for the specific encounter, but they should correlate with the numbers from above: if ID 10s deal with migration, then ID 110s should be the unique events to do with migration - for example bribing a Thieves Guild to GTFO your country
#Crazy and more uniques ones that dont conform to the utilities should be ID 200

#USE THE anb_aw_haunted_house TO SEE A SIMPLE COPY-PASTABLE FORMAT IN ADDITION TO STUFF LIKE MIGRATION STYLES ETC
#Search for CHANGEABLE for the criteria you should change in that file and this one

#################################################################
# Welcome to the master file for the Adventurers Wanted System. In the comments below you'll see copy-pastable events for you to choose, different migration styles as well as prebuilt events to handle stuff like spawning rebellions
#################################################################

#0 - spawn in province
province_event = {
    id = aw_haunted_house.0
    title = aw_haunted_house.0.t
    desc = aw_haunted_house.0.d
    picture = COMET_SIGHTED_eventPicture
    goto = ROOT
    
    is_triggered_only = yes
    #hidden = yes
    
    #yup thats happening
    option = {
        name = aw_basic.0.a
        ai_chance = { 
            factor = 1 
        }
        add_permanent_province_modifier  = {
            name = aw_haunted_house_1
            duration = -1  
        }

        custom_tooltip = aw_how_to_get_more_adventurer_removal_chance_tooltip
    }
}


#1 - event manager, called by on_actions. This happens ONCE per pulse. If you have 7 of these, it still only fires the manager once
country_event = {
    id = aw_haunted_house.1
    title = aw_haunted_house.1.t
    desc = aw_haunted_house.1.d
    picture = COMET_SIGHTED_eventPicture
    
    hidden = yes
    is_triggered_only = yes

    trigger = {
        any_owned_province = {
            OR = { 
                has_province_modifier = aw_haunted_house_1
                has_province_modifier = aw_haunted_house_2
                has_province_modifier = aw_haunted_house_3
            }
        }
    }
    

    mean_time_to_happen = {
        days = 1
        modifier = {
            factor = 2
            num_of_owned_provinces_with = {
                value = 3
                OR = { 
                    has_province_modifier = aw_haunted_house_1
                    has_province_modifier = aw_haunted_house_2
                    has_province_modifier = aw_haunted_house_3
                }
            }
        }
    }

    immediate = {
        random_owned_province = {
            limit = {
                OR = { 
                    has_province_modifier = aw_haunted_house_1
                    has_province_modifier = aw_haunted_house_2
                    has_province_modifier = aw_haunted_house_3
                }
            }
            save_event_target_as = aw_haunted_house_target
        }
    }
    
	
	option = {
        event_target:aw_haunted_house_target = {
            random_list = {
                #10 - Base migration
				5 = {
					province_event = { id = aw_haunted_house.10 }
				}

                #20 - natural removal
                5 = {   #was 7, made 5
                    province_event = { id = aw_haunted_house.20 }    #Natural removal
                }

                #21 - adventurer removal
                10 = {  
                    #Base modifiers

                    #more likely if generous quest rewards/adverturer nation
                    modifier = {
                        factor = 2
                        OR = {
                            owner = { has_estate_privilege = estate_adventurers_generous_quest_rewards }
                            owner = { has_adventurer_reform = yes }
                        }
                    }

                    #more likely if loyal
                    modifier = {
                        factor = 2
                        owner = {
                            estate_loyalty = {
                                estate = estate_adventurers
                                loyalty = 60
                            }
                        }
                    }

                    #more likely if high influence
                    modifier = {
                        factor = 2
                        owner = {
                            estate_influence = {
                                estate = estate_adventurers
                                influence = 60
                            }
                        }
                    }
                    #small influence boost at 30
                    modifier = {
                        factor = 1.5
                        owner = {
                            estate_influence = {
                                estate = estate_adventurers
                                influence = 30
                            }
                        }
                    }
                    #adventurer type sponsorships
                    modifier = {
                        factor = 2
                        owner = {
                            has_estate_privilege = estate_adventurers_sponsor_monster_hunters
                        }
                    }
                    modifier = {
                        factor = 2
                        owner = {
                            has_estate_privilege = estate_adventurers_sponsor_holy_paladins
                        }
                    }        
                    province_event = { id = aw_haunted_house.21 }
                }


                #24 - monstrous nation removal
                50 = {
                    modifier = {
                        #only want this to ever be part of the equation if you are monstrous
                        factor = 0
                        NOT = { owner = { has_country_modifier = monstrous_nation } }
                    }
                    #Base modifiers
                    province_event = { id = aw_haunted_house.24 }
                }

                #30 - natural tier up
                10 = {
                    province_event = { id = aw_haunted_house.30 }    #Natural tier up
                }

                #120 - Family dies 1, downgrades to Dormant
                10 = {
                    province_event = { id = aw_haunted_house.120 }
                }
                #121 - Family dies 2, downgrades to Dormant
                10 = {
                    province_event = { id = aw_haunted_house.121 }
                }
                #122 - Family dies 3, downgrades to Dormant
                10 = {
                    province_event = { id = aw_haunted_house.122 }
                }
                #123 - Family dies 4, downgrades to Dormant
                10 = {
                    province_event = { id = aw_haunted_house.123 }
                }

                #124 - sike its actually a scooby doo villain
                5 = {
                    province_event = { id = aw_haunted_house.124 }
                }
                #125 - house burns down, removal but devastates
                6 = {
                    province_event = { id = aw_haunted_house.125 }
                }
                #126 - Priest tries to exorcise, success in removal
                3 = {
                    province_event = { id = aw_haunted_house.126 }
                }


                #130 - New Family Moves in 1 Upgrades it to House of Evil, Active
                10 = {
                    province_event = { id = aw_haunted_house.130 }
                }
                #131 - New Family Moves in 2 Upgrades it to House of Evil, Active
                10 = {
                    province_event = { id = aw_haunted_house.131 }
                }
                #132 - New Family Moves in 3 Upgrades it to House of Evil, Active
                10 = {
                    province_event = { id = aw_haunted_house.132 }
                }
                #133 - New Family Moves in 4 Upgrades it to House of Evil, Active
                10 = {
                    province_event = { id = aw_haunted_house.133 }
                }

                #134 - Priest exorcise success, fail. tier 1 to 2
                10 = {
                    province_event = { id = aw_haunted_house.134 }
                }
                #135 - level 1. ghost tourism pisses off ghosts or not
                10 = {
                    province_event = { id = aw_haunted_house.135 }
                }

                #200 - Horrible Little Crops - crop miasma poisons land
                10 = {
                    province_event = { id = aw_haunted_house.200 }
                }
                #201 - Adventurers lost, have to spend resources to rescue
                10 = {
                    province_event = { id = aw_haunted_house.201 }
                }
                #202 - spooky song wail makes people move out
                10 = {
                    province_event = { id = aw_haunted_house.202 }
                }
                #203 - spooky time makes people not go outside
                10 = {
                    province_event = { id = aw_haunted_house.203 }
                }
                #204 - family, possession says spooky shit about country
                10 = {
                    province_event = { id = aw_haunted_house.204 }
                }
                #205 - dormant, kids go to house of evil and disappear
                10 = {
                    province_event = { id = aw_haunted_house.205 }
                }
                #206 - dormant, ghost hunters sell trinkets etc of ghost house
                10 = {
                    province_event = { id = aw_haunted_house.206 }
                }
            }
        }
	}
    
}


#2 - notification of advanturers wanted spawning

############## 10s - Migration and Propagation ###################

#10 - Base migration - MODIFIED: this only happens for House of Evil Dormant, it does a spooky teleport to a new province in your country
province_event = {
    id = aw_haunted_house.10
    title = aw_haunted_house.10.t
    desc = aw_haunted_house.10.d
    picture = COMET_SIGHTED_eventPicture
    goto = ROOT
    
    hidden = no
    is_triggered_only = yes
    
    trigger = {
        OR = {
            has_province_modifier = aw_haunted_house_2
        }

        #MAKE SURE TO ADD A any_neighbor_province or relevant check - aka make sure that the immediate = { } effects can even occur before doing the event!
        any_neighbor_province = {
            is_city = yes
            owner = { NOT = { has_country_modifier = monstrous_nation } }

            NOT = { has_province_modifier = aw_haunted_house_1 }
            NOT = { has_province_modifier = aw_haunted_house_2 }
            NOT = { has_province_modifier = aw_haunted_house_3 }
        }
    }
    
    immediate = {
        hidden_effect = {

            ######################################################################
            #Here's a list of all migration types for you to copy and paste
            #Note: you may need to add something in the trigger = { } above, for example for random_neighbour_province, as you might want to check if this valid province even has a neighbour you can migrate to!
            ######################################################################

            #CHANGEABLE - MIGRATION TYPE - Any province within my country
            owner = {
                random_owned_province = {
                    limit = {
                        #Base Conditions
                        NOT = { province_id = ROOT }
                        is_city = yes

                        NOT = { has_province_modifier = aw_haunted_house_1 }
                        NOT = { has_province_modifier = aw_haunted_house_2 }
                        NOT = { has_province_modifier = aw_haunted_house_3 }


                        #Specific Conditions
                        NOT = { has_terrain = glacier }
                        NOT = { has_terrain = jungle }
                        NOT = { has_terrain = dwarven_road }
                        NOT = { has_terrain = cavern }
                        NOT = { has_terrain = mushroom_forest_terrain }
                       
                    }
                    save_event_target_as = aw_haunted_house_migration_target
                }
            }
        }
    }

    #If migration is within country
    option = {  
        name = aw_haunted_house.10.a
        ai_chance = { factor = 100 }
        goto = aw_haunted_house_migration_target
        trigger = {
            event_target:aw_haunted_house_migration_target = {
                 owned_by = ROOT
            }
        }

        #It's migration, so remove modifier from previous province
        tooltip = { #this is fake. the real one happens below
            remove_province_modifier = aw_haunted_house_1
            remove_province_modifier = aw_haunted_house_2
            remove_province_modifier = aw_haunted_house_3
        }

        event_target:aw_haunted_house_migration_target = {
            if = {
                limit = {
                    owned_by = ROOT #you need this as this is only for provinces you own. option 10.b is for others
                }

                


                #CHANGEABLE - SPREAD TYPE: Tier makes Tier of the same at target
                if = {
                    limit = {
                        FROM = { has_province_modifier = aw_haunted_house_1 }
                    }
                    add_permanent_province_modifier = { 
                        name = aw_haunted_house_1
                        duration = -1
                    }
                }
                else_if = {
                    limit = {
                        FROM = { has_province_modifier = aw_haunted_house_2 }
                    }
                    add_permanent_province_modifier = { 
                        name = aw_haunted_house_2
                        duration = -1
                    }
                }
                else_if = {
                    limit = {
                        FROM = { has_province_modifier = aw_haunted_house_3 }
                    }
                    add_permanent_province_modifier = { 
                        name = aw_haunted_house_3
                        duration = -1
                    }
                }
                FROM = {
                #real removal. the other real one is in the called event in the else
                    remove_province_modifier = aw_haunted_house_1
                    remove_province_modifier = aw_haunted_house_2
                    remove_province_modifier = aw_haunted_house_3
                }
            }
        }
    }

}


#11 - migration target notification if it goes to other country - nah


#13 - Base propagation - nah

#14 - propagation target notification

#15 - Migrate to non monstrous if monstrous nation is owner (if its applicable to monsters, like wyverns etc, then this is fine to remove, else keep)

############## 20s - Removal/Tier Down ###################

#20 - natural removal
province_event = {
    id = aw_haunted_house.20
    title = aw_haunted_house.20.t
    desc = aw_haunted_house.20.d
    picture = COMET_SIGHTED_eventPicture
    goto = ROOT
    
    hidden = no
    is_triggered_only = yes
    
    trigger = {
        OR = {
            has_province_modifier = aw_haunted_house_1
            has_province_modifier = aw_haunted_house_2
            has_province_modifier = aw_haunted_house_3
        }
    }
    
    option = {
 
        name = aw_haunted_house.20.a
        ai_chance = { factor = 100 }

        remove_province_modifier = aw_haunted_house_1
        remove_province_modifier = aw_haunted_house_2
        remove_province_modifier = aw_haunted_house_3

    }
}

#21 - adventurer removal
province_event = {
    id = aw_haunted_house.21
    title = aw_haunted_house.21.t
    desc = aw_haunted_house.21.d
    picture = COMET_SIGHTED_eventPicture
    goto = ROOT
    
    hidden = no
    is_triggered_only = yes
    
    trigger = {
        owner = { has_estate = estate_adventurers }
        OR = {
            has_province_modifier = aw_haunted_house_1
            has_province_modifier = aw_haunted_house_2
            has_province_modifier = aw_haunted_house_3
        }
    }
    
    option = {
        # oh, thank goodness
        name = aw_haunted_house.21.a
        ai_chance = { factor = 100 }

        remove_province_modifier = aw_haunted_house_1
        remove_province_modifier = aw_haunted_house_2
        remove_province_modifier = aw_haunted_house_3

        owner = {
            add_estate_influence_modifier = {
                estate = estate_adventurers
                desc = EST_VAL_AW_RESOLVED_ADVENTURERS_WANTED_ENCOUNTER
                duration = 3650
                influence = 5
            }
        }

        owner = { add_prestige_excess_to_splendour_effect = { VAL=10} }

    }
}

#22 - natural tier down - nah

#23 - adventurer tier down

#24 - monstrous nation removal - ransack house but bad juju
province_event = {
    id = aw_haunted_house.24
    title = aw_haunted_house.24.t
    desc = aw_haunted_house.24.d
    picture = COMET_SIGHTED_eventPicture
    goto = ROOT
    
    hidden = no
    is_triggered_only = yes
    
    trigger = {
        owner = { has_country_modifier = monstrous_nation }

        OR = {
            has_province_modifier = aw_haunted_house_1
            has_province_modifier = aw_haunted_house_2
            has_province_modifier = aw_haunted_house_3
        }

        owner = { stability = 2 }
    }
    
    option = {
 
        name = aw_haunted_house.20.a
        ai_chance = { factor = 100 }

        remove_province_modifier = aw_haunted_house_1
        remove_province_modifier = aw_haunted_house_2
        remove_province_modifier = aw_haunted_house_3

        owner = { add_stability = -1 }

        owner = { add_prestige_excess_to_splendour_effect = { VAL=10} }

    }
}

#25 - monstrous natural tier down. keep if you want, or just rely on removal

############## 30s - Tier Up ###################

#30 - natural tier up - MODIFIED: only for 1 to 2
province_event = {
    id = aw_haunted_house.30
    title = aw_haunted_house.30.t
    desc = aw_haunted_house.30.d
    picture = COMET_SIGHTED_eventPicture
    goto = ROOT
    
    hidden = no
    is_triggered_only = yes
    
    trigger = {
        OR = { 
            has_province_modifier = aw_haunted_house_1 
        }
    }
    option = {
        name = aw_haunted_house.30.a
        ai_chance = { factor = 100 }
        if = {
            limit = { 
                has_province_modifier = aw_haunted_house_1
            }
            remove_province_modifier = aw_haunted_house_1
            add_permanent_province_modifier  = {
                name = aw_haunted_house_2
                duration = -1  
            }
        }
        else_if = {
            limit = { 
                has_province_modifier = aw_haunted_house_2
            }
            remove_province_modifier = aw_haunted_house_2
            add_permanent_province_modifier  = {
                name = aw_haunted_house_3
                duration = -1  
            }
        }

        custom_tooltip = aw_how_to_get_more_adventurer_removal_chance_tooltip   #should be added for each increase of level
    }
}

############## 110s - Special Migration & Propagation ###################



############## 120s - Special Removal/Tier Down ###################

#120 - Family dies 1, downgrades to Dormant
province_event = {
    id = aw_haunted_house.120
    title = aw_haunted_house.120.t
	desc = aw_haunted_house.120.d
	picture = PRINCELY_PALACE_TRANSYLVANIA_eventPicture
    goto = ROOT
    
    hidden = no
    is_triggered_only = yes
    
    trigger = {
        OR = {
            has_province_modifier = aw_haunted_house_3
        }
    }
    
    option = {
        name = aw_haunted_house.120.a
        ai_chance = { factor = 100 }

        remove_province_modifier = aw_haunted_house_3
        add_permanent_province_modifier  = {
            name = aw_haunted_house_2
            duration = -1  
        }

    }
}

#121 - Family dies 2, downgrades to Dormant
province_event = {
    id = aw_haunted_house.121
    title = aw_haunted_house.121.t
    desc = aw_haunted_house.121.d
    picture = GREAT_BUILDING_eventPicture
    goto = ROOT
    
    hidden = no
    is_triggered_only = yes
    
    trigger = {
        OR = {
            has_province_modifier = aw_haunted_house_3
        }
    }
    
    option = {
        name = aw_haunted_house.121.a
        ai_chance = { factor = 100 }

        remove_province_modifier = aw_haunted_house_3
        add_permanent_province_modifier  = {
            name = aw_haunted_house_2
            duration = -1  
        }

    }
}

#122 - Family dies 3, downgrades to Dormant
province_event = {
    id = aw_haunted_house.122
    title = aw_haunted_house.122.t
    desc = aw_haunted_house.122.d
    picture = PRINCELY_PALACE_TRANSYLVANIA_eventPicture
    goto = ROOT
    
    hidden = no
    is_triggered_only = yes
    
    trigger = {
        OR = {
            has_province_modifier = aw_haunted_house_3
        }
    }
    
    option = {
        name = aw_haunted_house.122.a
        ai_chance = { factor = 100 }

        remove_province_modifier = aw_haunted_house_3
        add_permanent_province_modifier  = {
            name = aw_haunted_house_2
            duration = -1  
        }

    }
}

#123 - Family dies 4, downgrades to Dormant
province_event = {
    id = aw_haunted_house.123
    title = aw_haunted_house.123.t
    desc = aw_haunted_house.123.d
    picture = PRINCELY_PALACE_TRANSYLVANIA_eventPicture
    goto = ROOT
    
    hidden = no
    is_triggered_only = yes
    
    trigger = {
        OR = {
            has_province_modifier = aw_haunted_house_3
        }
    }
    
    option = {
        name = aw_haunted_house.123.a
        ai_chance = { factor = 100 }

        remove_province_modifier = aw_haunted_house_3
        add_permanent_province_modifier  = {
            name = aw_haunted_house_2
            duration = -1
        }

    }
}


#124 - sike its actually a scooby doo villain
province_event = {
    id = aw_haunted_house.124
    title = aw_haunted_house.124.t
    desc = aw_haunted_house.124.d
    picture = PRINCELY_PALACE_TRANSYLVANIA_eventPicture
    goto = ROOT
    
    hidden = no
    is_triggered_only = yes
    
    trigger = {
        OR = {
            has_province_modifier = aw_haunted_house_1
            has_province_modifier = aw_haunted_house_2
            has_province_modifier = aw_haunted_house_3
        }

        owner = { has_estate = estate_adventurers }
    }
    
    option = {
 
        name = aw_haunted_house.124.a
        ai_chance = { factor = 100 }

        remove_province_modifier = aw_haunted_house_1
        remove_province_modifier = aw_haunted_house_2
        remove_province_modifier = aw_haunted_house_3

        owner = {
            add_estate_influence_modifier = {
                estate = estate_adventurers
                desc = EST_VAL_AW_RESOLVED_ADVENTURERS_WANTED_ENCOUNTER
                duration = 3650
                influence = 5
            }
        }

        owner = { add_prestige_excess_to_splendour_effect = { VAL=10} }

    }
}

#125 - house burns down, removal but devastates
province_event = {
    id = aw_haunted_house.125
    title = aw_haunted_house.125.t
    desc = aw_haunted_house.125.d
    picture = PRINCELY_PALACE_TRANSYLVANIA_eventPicture
    goto = ROOT
    
    hidden = no
    is_triggered_only = yes
    
    trigger = {
        OR = {
            has_province_modifier = aw_haunted_house_3
        }
    }
    
    option = {
 
        name = aw_haunted_house.125.a
        ai_chance = { factor = 100 }

        remove_province_modifier = aw_haunted_house_1
        remove_province_modifier = aw_haunted_house_2
        remove_province_modifier = aw_haunted_house_3

        add_devastation = 33

    }
}

#126 - Priest tries to exorcise, success in removal
province_event = {
    id = aw_haunted_house.126
    title = aw_haunted_house.126.t
    desc = aw_haunted_house.126.d
	picture = PRINCELY_PALACE_TRANSYLVANIA_eventPicture
    goto = ROOT
    
    hidden = no
    is_triggered_only = yes
    
    trigger = {
        OR = {
            has_province_modifier = aw_haunted_house_1
            has_province_modifier = aw_haunted_house_2
            has_province_modifier = aw_haunted_house_3
        }

        NOT = { owner = { religion_group = faithless } }

        owner = { has_estate = estate_church }

        NOT = {
            has_estate_influence_modifier = {
                estate = estate_church
                modifier = EST_VAL_AW_SUCCESSFUL_EXORCISM
            }
        }
    }
    
    option = {
 
        name = aw_haunted_house.126.a
        ai_chance = { factor = 100 }

        remove_province_modifier = aw_haunted_house_1
        remove_province_modifier = aw_haunted_house_2
        remove_province_modifier = aw_haunted_house_3

        owner = {
            add_estate_influence_modifier = {
                estate = estate_church
                desc = EST_VAL_AW_SUCCESSFUL_EXORCISM
                duration = 3650
                influence = 5
            }
        }

        owner = { add_prestige_excess_to_splendour_effect = { VAL=10} }

    }
}



############## 130s - Special Tier Up ###################

#130 - New Family Moves in 1 Upgrades it to House of Evil, Active
province_event = {
    id = aw_haunted_house.130
    title = aw_haunted_house.130.t
    desc = aw_haunted_house.130.d
    picture = PRINCELY_PALACE_TRANSYLVANIA_eventPicture
    goto = ROOT
    
    hidden = no
    is_triggered_only = yes
    
    trigger = {
        OR = { 
            has_province_modifier = aw_haunted_house_2 
        }
    }
    option = {
        name = aw_haunted_house.130.a
        ai_chance = { factor = 100 }

        remove_province_modifier = aw_haunted_house_2
        add_permanent_province_modifier  = {
            name = aw_haunted_house_3
            duration = -1  
        }

        custom_tooltip = aw_how_to_get_more_adventurer_removal_chance_tooltip   #should be added for each increase of level
    }
}

#131 - New Family Moves in 2 Upgrades it to House of Evil, Active
province_event = {
    id = aw_haunted_house.131
    title = aw_haunted_house.131.t
    desc = aw_haunted_house.131.d
    picture = PRINCELY_PALACE_TRANSYLVANIA_eventPicture
    goto = ROOT
    
    hidden = no
    is_triggered_only = yes
    
    trigger = {
        OR = { 
            has_province_modifier = aw_haunted_house_2 
        }
    }
    option = {
        name = aw_haunted_house.131.a
        ai_chance = { factor = 100 }

        remove_province_modifier = aw_haunted_house_2
        add_permanent_province_modifier  = {
            name = aw_haunted_house_3
            duration = -1  
        }

        custom_tooltip = aw_how_to_get_more_adventurer_removal_chance_tooltip   #should be added for each increase of level
    }
}

#132 - New Family Moves in 3 Upgrades it to House of Evil, Active
province_event = {
    id = aw_haunted_house.132
    title = aw_haunted_house.132.t
    desc = aw_haunted_house.132.d
    picture = PRINCELY_PALACE_TRANSYLVANIA_eventPicture
    goto = ROOT
    
    hidden = no
    is_triggered_only = yes
    
    trigger = {
        OR = { 
            has_province_modifier = aw_haunted_house_2 
        }
    }
    option = {
        name = aw_haunted_house.132.a
        ai_chance = { factor = 100 }

        remove_province_modifier = aw_haunted_house_2
        add_permanent_province_modifier  = {
            name = aw_haunted_house_3
            duration = -1  
        }

        custom_tooltip = aw_how_to_get_more_adventurer_removal_chance_tooltip   #should be added for each increase of level
    }
}

#133 - New Family Moves in 4 Upgrades it to House of Evil, Active
province_event = {
    id = aw_haunted_house.133
    title = aw_haunted_house.133.t
    desc = aw_haunted_house.133.d
    picture = PRINCELY_PALACE_TRANSYLVANIA_eventPicture
    goto = ROOT
    
    hidden = no
    is_triggered_only = yes
    
    trigger = {
        OR = { 
            has_province_modifier = aw_haunted_house_2 
        }
    }
    option = {
        name = aw_haunted_house.133.a
        ai_chance = { factor = 100 }

        remove_province_modifier = aw_haunted_house_2
        add_permanent_province_modifier  = {
            name = aw_haunted_house_3
            duration = -1  
        }

        custom_tooltip = aw_how_to_get_more_adventurer_removal_chance_tooltip   #should be added for each increase of level
    }
}

#134 - Priest exorcise success, fail. tier 1 to 2
province_event = {
    id = aw_haunted_house.134
    title = aw_haunted_house.134.t
    desc = aw_haunted_house.134.d
    picture = PRINCELY_PALACE_TRANSYLVANIA_eventPicture
    goto = ROOT
    
    hidden = no
    is_triggered_only = yes
    
    trigger = {
        OR = {
            has_province_modifier = aw_haunted_house_1
        }

        NOT = { owner = { religion_group = faithless } }

        owner = { has_estate = estate_church }
    }
    
    option = {
 
        name = aw_haunted_house.134.a
        ai_chance = { factor = 50 }

        remove_province_modifier = aw_haunted_house_1
        add_permanent_province_modifier  = {
            name = aw_haunted_house_2
            duration = -1  
        }

    }

    option = {
        name = aw_haunted_house.134.b
        ai_chance = { factor = 100 }
		trigger = {
			owner = { ruler_has_personality = zealot_personality }
		}
        highlight = yes

        owner = { add_adm_power = -50 }

    }
}

#135 - level 1. ghost tourism pisses off ghosts or not
province_event = {
    id = aw_haunted_house.135
    title = aw_haunted_house.135.t
    desc = aw_haunted_house.135.d
    picture = PRINCELY_PALACE_TRANSYLVANIA_eventPicture
    goto = ROOT
    
    hidden = no
    is_triggered_only = yes
    
    trigger = {
        OR = {
            has_province_modifier = aw_haunted_house_1
        }

        development = 20

        owner = { stability = -2 }

        NOT = { has_province_modifier = aw_haunted_house_ghost_tours }

    }

    option = {
        name = aw_haunted_house.135.a
        ai_chance = { factor = 100 }

        add_permanent_province_modifier = {
            name = aw_haunted_house_ghost_tours
            duration = 3650
        }

        random = {
            chance = 66
            remove_province_modifier = aw_haunted_house_1
            add_permanent_province_modifier  = {
                name = aw_haunted_house_2
                duration = -1  
            }
        }
    }

    option = {
        name = aw_haunted_house.135.b
        ai_chance = { factor = 100 }

        owner = { add_stability_or_adm_power = yes }
    }
}



############## 200s - Special Flavour ###################

#200 - Horrible Little Crops - crop miasma poisons land
province_event = {
    id = aw_haunted_house.200
    title = aw_haunted_house.200.t
    desc = aw_haunted_house.200.d
    picture = PRINCELY_PALACE_TRANSYLVANIA_eventPicture
    goto = ROOT
    
    hidden = no
    is_triggered_only = yes
    
    trigger = {
        OR = {
            has_province_modifier = aw_haunted_house_1
            has_province_modifier = aw_haunted_house_2
            has_province_modifier = aw_haunted_house_3
        }

        owner = { has_estate = estate_mages }

        owner = {
            NOT = {
                has_estate_influence_modifier = {
                    estate = estate_mages
                    modifier = EST_VAL_AW_STATE_OWES_FAVOURS
                }
            }
        }

        NOT = { has_province_modifier = aw_haunted_house_wilting_crops }
    }
    
    option = {
 
        name = aw_haunted_house.200.a
        ai_chance = { factor = 100 }

        add_permanent_province_modifier  = {
            name = aw_haunted_house_wilting_crops
            duration = 1825
        }

    }

    option = {
        name = aw_haunted_house.200.b
        ai_chance = { factor = 100 }

        owner = { add_prestige = -5 }

        owner = {
            add_estate_influence_modifier = {
                estate = estate_adventurers
                desc = EST_VAL_AW_STATE_OWES_FAVOURS
                duration = 3650
                influence = 10
            }
        }

    }
}

#201 - Adventurers lost, have to spend resources to rescue
province_event = {
    id = aw_haunted_house.201
    title = aw_haunted_house.201.t
    desc = aw_haunted_house.201.d
    picture = PRINCELY_PALACE_TRANSYLVANIA_eventPicture
    goto = ROOT
    
    hidden = no
    is_triggered_only = yes
    
    trigger = {
        OR = {
            has_province_modifier = aw_haunted_house_1
            has_province_modifier = aw_haunted_house_2
            has_province_modifier = aw_haunted_house_3
        }

        owner = {
            NOT = {
                has_estate_influence_modifier = {
                    estate = estate_adventurers
                    modifier = EST_VAL_AW_FAILED_ADVENTURERS_WANTED_ENCOUNTER
                }
            }
        }
    }
    
    #Help
    option = {
 
        name = aw_haunted_house.201.a
        ai_chance = { factor = 100 }

        owner = { add_mil_power = -30 }
    }

    #Dont help
    option = {
        name = aw_haunted_house.201.b
        ai_chance = { factor = 100 }

        owner = {
            add_estate_influence_modifier = {
                estate = estate_adventurers
                desc = EST_VAL_AW_FAILED_ADVENTURERS_WANTED_ENCOUNTER
                duration = 3650
                influence = -10
            }
        }

    }
}

#202 - spooky song wail makes people move out
province_event = {
    id = aw_haunted_house.202
    title = aw_haunted_house.202.t
    desc = aw_haunted_house.202.d
    picture = PRINCELY_PALACE_TRANSYLVANIA_eventPicture
    goto = ROOT
    
    hidden = no
    is_triggered_only = yes
    
    trigger = {
        OR = {
            has_province_modifier = aw_haunted_house_3
        }

        base_tax = 3

    }

    option = {
        name = aw_haunted_house.202.a
        ai_chance = { factor = 100 }

        random = {
            chance = 66
            add_base_tax = -1
        }
    }

    option = {
        name = aw_haunted_house.202.b
        ai_chance = { factor = 100 }

        add_named_unrest = {
            name = aw_haunted_house_forced_to_tolerate_ghostly_wails
            value = 5
        }
    }
}

#203 - spooky time makes people not go outside
province_event = {
    id = aw_haunted_house.203
    title = aw_haunted_house.203.t
    desc = aw_haunted_house.203.d
    picture = PRINCELY_PALACE_TRANSYLVANIA_eventPicture
    goto = ROOT
    
    hidden = no
    is_triggered_only = yes
    
    trigger = {
        OR = {
            has_province_modifier = aw_haunted_house_2
            has_province_modifier = aw_haunted_house_3
        }

        NOT = { has_province_modifier = aw_haunted_house_too_scared_to_work }

    }

    option = {
        name = aw_haunted_house.203.a
        ai_chance = { factor = 100 }

        add_permanent_province_modifier = { 
            name = aw_haunted_house_too_scared_to_work
            duration = 1825
        }
    }
}

#204 - family, possession says spooky shit about country
province_event = {
    id = aw_haunted_house.204
    title = aw_haunted_house.204.t
    desc = aw_haunted_house.204.d
    picture = PRINCELY_PALACE_TRANSYLVANIA_eventPicture
    goto = ROOT
    
    hidden = no
    is_triggered_only = yes
    
    trigger = {
        OR = {
            has_province_modifier = aw_haunted_house_3
        }

        owner = { stability = -2 }

    }

    option = {
 
        name = aw_haunted_house.204.a
        ai_chance = { factor = 100 }

        owner = { add_stability = -1 }
    }
}

#205 - dormant, kids go to house of evil and disappear
province_event = {
    id = aw_haunted_house.205
    title = aw_haunted_house.205.t
    desc = aw_haunted_house.205.d
    picture = PRINCELY_PALACE_TRANSYLVANIA_eventPicture
    goto = ROOT
    
    hidden = no
    is_triggered_only = yes
    
    trigger = {
        OR = {
            has_province_modifier = aw_haunted_house_2
        }

        owner = { stability = -2 }

    }

    option = {
        name = aw_haunted_house.205.a
        ai_chance = { factor = 100 }

        owner = { add_stability = -1 }
    }
}

#206 - dormant, ghost hunters sell trinkets etc of ghost house
province_event = {
    id = aw_haunted_house.206
    title = aw_haunted_house.206.t
    desc = aw_haunted_house.206.d
    picture = PRINCELY_PALACE_TRANSYLVANIA_eventPicture
    goto = ROOT
    
    hidden = no
    is_triggered_only = yes
    
    trigger = {
        OR = {
            has_province_modifier = aw_haunted_house_2
        }

        owner = { stability = -2 }

    }

    option = {
        name = aw_haunted_house.206.a
        ai_chance = { factor = 100 }

        owner = { add_stability = -1 }

        owner = { add_years_of_income = 0.3 }
    }

    option = {
        name = aw_haunted_house.206.b
        ai_chance = { factor = 100 }

        owner = { add_stability_or_adm_power = yes }
    }
}