###########################################################
# Events for the Burghers Estate
#
# written by Henrik Lohmander
###########################################################

namespace = burghers_estate_events

#Advancement of the Merchant classes
#Random +10/+20
country_event = {
	id = burghers_estate_events.1
	title = burghers_estate_events.1.t
	desc = burghers_estate_events.1.d
	picture = BURGHER_ESTATE_eventPicture
	
	trigger = {
		has_estate = estate_burghers
		NOT = {
			has_estate_influence_modifier = {
				estate = estate_burghers
				modifier = EST_VAL_BURGHERS_ADVANCE
			}
		}
		NOT = {
			has_estate_influence_modifier = {
				estate = estate_burghers
				modifier = EST_VAL_BURGHERS_ADVANCE_20
			}
		}
		NOT = {
			has_estate_influence_modifier = {
				estate = estate_burghers
				modifier = EST_VAL_BURGHERS_DECLINE
			}
		}
	}

	is_triggered_only = yes
	
	mean_time_to_happen = {
		days = 1
	}

	option = {
		name = burghers_estate_events.1.a #Ok
		add_estate_influence_modifier = {
			estate = estate_burghers
			desc = EST_VAL_BURGHERS_ADVANCE
			influence = 10
			duration = 5475
		}
	}
}

#Robber Barons
#Burghers vs Nobles
country_event = {
	id = burghers_estate_events.2
	title = burghers_estate_events.2.t
	desc = burghers_estate_events.2.d
	picture = BURGHER_ESTATE_eventPicture
	
	trigger = {
		has_estate = estate_burghers
		has_estate = estate_nobles
		estate_influence = {
			estate = estate_nobles
			influence = 25
		}
		estate_territory = { 
			estate = estate_burghers
			territory = 1
		}
		NOT = {
			has_estate_influence_modifier = {
				estate = estate_burghers
				modifier = EST_VAL_BURGHERS_ROBBER_BARONS
			}
		}
		NOT = {
			has_estate_influence_modifier = {
				estate = estate_burghers
				modifier = EST_VAL_BURGHERS_DEFEATED_ROBBER_BARONS
			}
		}
		any_owned_province = {
			is_territory = no
			is_capital = no
			is_city = yes
		}
	}
	
	is_triggered_only = yes
	
	mean_time_to_happen = {
		days = 1
	}

	option = {
		name = burghers_estate_events.2.a #They only take what is their right.
		ai_chance = {
			factor = 50
			modifier = {
				factor = 0.5
				NOT = {
					estate_loyalty = {
						estate = estate_burghers
						loyalty = 40
					}
				}
			}
			modifier = {
				factor = 1.5
				estate_influence = {
					estate = estate_burghers
					influence = 65
				}
			}
			modifier = {
				factor = 1.5
				NOT = {
					estate_loyalty = {
						estate = estate_nobles
						loyalty = 40
					}
				}
			}
			modifier = {
				factor = 0.5
				estate_influence = {
					estate = estate_nobles
					influence = 65
				}
			}
		}
		random_owned_province = {
			limit = {
				is_territory = no
				is_capital = no
				is_city = yes
			}
			add_base_tax = 1
		}
		add_estate_loyalty = {
			estate = estate_nobles
			loyalty = 15
		}
		add_estate_loyalty = {
			estate = estate_burghers
			loyalty = -15
		}
		add_estate_influence_modifier = {
			estate = estate_burghers
			desc = EST_VAL_BURGHERS_ROBBER_BARONS
			influence = -10
			duration = 5475
		}
		add_estate_influence_modifier = {
			estate = estate_nobles
			desc = EST_VAL_NOBLES_ROBBER_BARONS
			influence = 10
			duration = 5475
		}
	}
	option = {
		name = burghers_estate_events.2.b #We must curb such excesses!
		ai_chance = {
			factor = 50
			modifier = {
				factor = 1.5
				NOT = {
					estate_loyalty = {
						estate = estate_burghers
						loyalty = 40
					}
				}
			}
			modifier = {
				factor = 0.5
				estate_influence = {
					estate = estate_burghers
					influence = 65
				}
			}
			modifier = {
				factor = 0.5
				NOT = {
					estate_loyalty = {
						estate = estate_nobles
						loyalty = 40
					}
				}
			}
			modifier = {
				factor = 1.5
				estate_influence = {
					estate = estate_nobles
					influence = 65
				}
			}
		}
		random_owned_province = {
			limit = {
				is_territory = no
				is_capital = no
				is_city = yes
			}
			add_base_production = 1
		}
		add_estate_loyalty = {
			estate = estate_nobles
			loyalty = -15
		}
		add_estate_loyalty = {
			estate = estate_burghers
			loyalty = 15
		}
		add_estate_influence_modifier = {
			estate = estate_nobles
			desc = EST_VAL_NOBLES_DEFEATED_ROBBER_BARONS
			influence = -10
			duration = 5475
		}
		add_estate_influence_modifier = {
			estate = estate_burghers
			desc = EST_VAL_BURGHERS_DEFEATED_ROBBER_BARONS
			influence = 10
			duration = 5475
		}
	}
}

#Decline of the Merchant Classes
country_event = {
	id = burghers_estate_events.3
	title = burghers_estate_events.3.t
	desc = burghers_estate_events.3.d
	picture = BURGHER_ESTATE_eventPicture
	
	trigger = {
		has_estate = estate_burghers
		NOT = {
			has_estate_influence_modifier = {
				estate = estate_burghers
				modifier = EST_VAL_BURGHERS_ADVANCE
			}
		}
		NOT = {
			has_estate_influence_modifier = {
				estate = estate_burghers
				modifier = EST_VAL_BURGHERS_ADVANCE_20
			}
		}
		NOT = {
			has_estate_influence_modifier = {
				estate = estate_burghers
				modifier = EST_VAL_BURGHERS_DECLINE
			}
		}
	}
	
	is_triggered_only = yes
	
	mean_time_to_happen = {
		days = 1
	} 
	
	option = {
		name = burghers_estate_events.3.a #Ok
		add_estate_influence_modifier = {
			estate = estate_burghers
			desc = EST_VAL_BURGHERS_DECLINE
			influence = -10
			duration = 5475
		}
	}
}

#AnbennarDependencyNote = refers to a lot of estuaries here boys, i've added the ones we have right now - afaik the old estuaries should be fine as we never replaced the vanilla event_modifiers
#Demands for city Privileges
country_event = {
	id = burghers_estate_events.4
	title = burghers_estate_events.4.t
	desc = burghers_estate_events.4.d
	picture = BURGHER_ESTATE_eventPicture
	
	is_triggered_only = yes
	
	trigger = {
		has_estate = estate_burghers
		any_owned_province = {
			is_overseas = no
			has_seat_in_parliament = no
			OR = {
				development = 10
				province_has_center_of_trade_of_level = 1
			}
			is_capital = no
			is_territory = no
			is_city = yes
		}
		NOT = {
			has_estate_influence_modifier = {
				estate = estate_burghers
				modifier = EST_VAL_BURGHERS_ADVANCE
			}
		}
	}
	
	mean_time_to_happen = {
		days = 1
		modifier = {
			factor = 0.5
			NOT = { religion_group = christian }
		}
		modifier = {
			factor = 1.2
			any_owned_province = {
				is_overseas = no
				is_capital = no
				has_seat_in_parliament = no
				OR = {
					development = 10
					province_has_center_of_trade_of_level = 1
				}
				has_river_estuary_trigger = yes
				is_city = yes
			}
		}
	}
	
	immediate = {
		hidden_effect = {
			random_owned_province = {
				limit = {
					is_overseas = no
					has_seat_in_parliament = no
					OR = {
						development = 10
						province_has_center_of_trade_of_level = 1
					}
					is_capital = no
					is_territory = no
					is_city = yes
				}
				save_event_target_as = growing_city
			}
		}
	}
	
	option = {
		name = burghers_estate_events.4.a #Ok
		give_estate_land_share_medium = { estate = estate_burghers }
		add_estate_loyalty = {
			estate = estate_burghers
			loyalty = 15
		}
		event_target:growing_city = {
			add_base_tax = 2
		}
	}
	option = {
		name = burghers_estate_events.4.b #Ok
		add_estate_loyalty = {
			estate = estate_burghers
			loyalty = -15
		}
		add_estate_influence_modifier = {
			estate = estate_burghers
			desc = EST_VAL_CITY_PRIVILEGES_DENIED
			influence = -10
			duration = 5475
		}
	}
}

#Immoral Prices
#Force the Burghers to lose influence or face revolt in Burgher controlled provinces.
country_event = {
	id = burghers_estate_events.5
	title = burghers_estate_events.5.t
	desc = burghers_estate_events.5.d
	picture = BURGHER_ESTATE_eventPicture
	
	trigger = {
		has_estate = estate_burghers
		estate_territory = {
			estate = estate_burghers
			territory = 1
		}
		any_owned_province = {
			OR = {
				owner = { government = republic }
				development = 10
				province_trade_power = 5
			}
			is_capital = no
			is_city = yes
		}
		NOT = {
			has_estate_influence_modifier = {
				estate = estate_burghers
				modifier = EST_VAL_FREE_OF_MEDDLING
			}
		}
		NOT = {
			has_estate_influence_modifier = {
				estate = estate_burghers
				modifier = EST_VAL_PRICE_MEDDLING
			}
		}
	}
	
	is_triggered_only = yes
	
	mean_time_to_happen = {
		days = 1
		modifier = {
			factor = 2.0
			inflation = 5 #Rising Prices
		}
	} 
	
	immediate = {
		hidden_effect = {
			while = {
				limit = {
					NOT = { 
						development_in_provinces = {
							has_province_flag = bread_revolt_vs_burghers
							value = estate
							estate = estate_burghers
						}
					}
					any_owned_province = {
						OR = {
							owner = { government = republic }
							development = 10
							province_trade_power = 5
						}
						is_capital = no
						is_city = yes
						NOT = { has_province_flag = bread_revolt_vs_burghers }
					}
					check_reducing_estate_revolt_size_more_trigger = {
						FLAG = bread_revolt_vs_burghers
					}
				}
				random_owned_province = {
					limit = {
						OR = {
							owner = { government = republic }
							development = 10
							province_trade_power = 5
						}
						is_capital = no
						is_city = yes
						NOT = { has_province_flag = bread_revolt_vs_burghers }
					}
					set_province_flag = bread_revolt_vs_burghers
				}
			}
		}
	}

	option = {
		name = burghers_estate_events.5.a #Force them to sell at a just price.
		ai_chance = {
			factor = 75
			modifier = {
				factor = 0.2
				NOT = {
					estate_loyalty = {
						estate = estate_burghers
						loyalty = 45
					}
				}
			}
			modifier = {
				factor = 1.5
				estate_influence = {
					estate = estate_burghers
					influence = 65
				}
			}
		}
		hidden_effect = {
			every_owned_province = {
				limit = { has_province_flag = bread_revolt_vs_burghers }
				clr_province_flag = bread_revolt_vs_burghers
			}
		}
		add_estate_loyalty = {
			estate = estate_burghers
			loyalty = -20
		}
		add_estate_influence_modifier = {
			estate = estate_burghers
			desc = EST_VAL_PRICE_MEDDLING
			influence = -10
			duration = 5475
		}
	}
	option = {
		name = burghers_estate_events.5.b #We should not meddle with the Burghers.
		ai_chance = {
			factor = 25
			modifier = {
				factor = 2.0
				NOT = {
					estate_loyalty = {
						estate = estate_burghers
						loyalty = 45
					}
				}
			}
			modifier = {
				factor = 0.5
				estate_influence = {
					estate = estate_burghers
					influence = 65
				}
			}
		}
		add_estate_influence_modifier = {
			estate = estate_burghers
			desc = EST_VAL_FREE_OF_MEDDLING
			influence = 10
			duration = 5475
		}
		every_owned_province = {
			limit = { has_province_flag = bread_revolt_vs_burghers }
			clr_province_flag = bread_revolt_vs_burghers
			spawn_rebels = {
				type = anti_tax_rebels
				size = 1
			}
		}
		add_estate_loyalty = {
			estate = estate_burghers
			loyalty = 15
		}
	}
	option = {
		name = burghers_estate_events.5.c #Pay for the bread.
		ai_chance = {
			factor = 50
			modifier = {
				factor = 0.5
				NOT = { years_of_income = 0.2 }
			}
			modifier = {
				factor = 2.0
				NOT = {
					estate_loyalty = {
						estate = estate_burghers
						loyalty = 45
					}
				}
			}
			modifier = {
				factor = 0.5
				estate_influence = {
					estate = estate_burghers
					influence = 65
				}
			}
		}
		add_years_of_income = -0.15
		add_estate_influence_modifier = {
			estate = estate_burghers
			desc = EST_VAL_FREE_OF_MEDDLING
			influence = 10
			duration = 5475
		}
		add_estate_loyalty = {
			estate = estate_burghers
			loyalty = 15
		}
		hidden_effect = {
			every_owned_province = {
				limit = { has_province_flag = bread_revolt_vs_burghers }
				clr_province_flag = bread_revolt_vs_burghers
			}
		}
	}
}

#Parallel Authority
#Burghers vs Clergy
country_event = {
	id = burghers_estate_events.6
	title = burghers_estate_events.6.t
	desc = burghers_estate_events.6.d
	picture = BURGHER_ESTATE_UPSET_eventPicture
	
	trigger = {
		has_estate = estate_burghers
		estate_influence = {
			estate = estate_burghers
			influence = 25
		}
		estate_influence = {
			estate = estate_church
			influence = 25
		}
		NOT = {
			has_estate_influence_modifier = {
				estate = estate_burghers
				modifier = EST_VAL_BURGHER_AUTHORITY_ASSERTED
			}
		}
		NOT = {
			has_estate_influence_modifier = {
				estate = estate_burghers
				modifier = EST_VAL_BURGHER_AUTHORITY_QUESTIONED
			}
		}
	}
	
	is_triggered_only = yes
	
	mean_time_to_happen = {
		days = 1
	} 
	
	option = {
		name = burghers_estate_events.6.a #The Clergy cannot do whatever they please!
		ai_chance = {
			factor = 50
			modifier = {
				factor = 1.5
				NOT = {
					estate_loyalty = {
						estate = estate_burghers
						loyalty = 45
					}
				}
			}
			modifier = {
				factor = 0.5
				estate_influence = {
					estate = estate_burghers
					influence = 65
				}
			}
			modifier = {
				factor = 0.5
				NOT = {
					estate_loyalty = {
						estate = estate_church
						loyalty = 45
					}
				}
			}
			modifier = {
				factor = 1.5
				estate_influence = {
					estate = estate_church
					influence = 65
				}
			}
		}
		add_estate_loyalty = {
			estate = estate_burghers
			loyalty = 15
		}
		add_estate_loyalty = {
			estate = estate_church
			loyalty = -15
		}
		add_estate_influence_modifier = {
			estate = estate_burghers
			desc = EST_VAL_BURGHER_AUTHORITY_ASSERTED
			influence = 10
			duration = 5475
		}
		add_estate_influence_modifier = {
			estate = estate_church
			desc = EST_VAL_BURGHER_AUTHORITY_ASSERTED
			influence = -10
			duration = 5475
		}
	}
	option = {
		name = burghers_estate_events.6.b #These men stand above us all and should be afforded respect.
		ai_chance = {
			factor = 50
			modifier = {
				factor = 0.5
				NOT = {
					estate_loyalty = {
						estate = estate_burghers
						loyalty = 45
					}
				}
			}
			modifier = {
				factor = 1.5
				estate_influence = {
					estate = estate_burghers
					influence = 65
				}
			}
			modifier = {
				factor = 1.5
				NOT = {
					estate_loyalty = {
						estate = estate_church
						loyalty = 45
					}
				}
			}
			modifier = {
				factor = 0.5
				estate_influence = {
					estate = estate_church
					influence = 65
				}
			}
		}
		add_estate_loyalty = {
			estate = estate_burghers
			loyalty = -15
		}
		add_estate_loyalty = {
			estate = estate_church
			loyalty = 15
		}
		add_estate_influence_modifier = {
			estate = estate_burghers
			desc = EST_VAL_BURGHER_AUTHORITY_QUESTIONED
			influence = -10
			duration = 5475
		}
		add_estate_influence_modifier = {
			estate = estate_church
			desc = EST_VAL_BURGHER_AUTHORITY_QUESTIONED
			influence = 10
			duration = 5475
		}
	}
}

#Extension of Privileges
country_event = {
	id = burghers_estate_events.7
	title = burghers_estate_events.7.t
	desc = burghers_estate_events.7.d
	picture = BURGHER_ESTATE_UPSET_eventPicture
	
	trigger = {
		has_estate = estate_burghers
		estate_influence = {
			estate = estate_burghers
			influence = 70
		}
		any_owned_province = {
			OR = {
				development = 15
				province_trade_power = 8
			}
			is_city = yes
			is_capital = no
		}
		NOT = {
			has_estate_influence_modifier = {
				estate = estate_burghers
				modifier = EST_VAL_BURGHER_RIGHTS_EXTENDED
			}
		}
		NOT = {
			has_estate_influence_modifier = {
				estate = estate_burghers
				modifier = EST_VAL_BURGHER_RIGHTS_REFUSED
			}
		}
	}
	
	is_triggered_only = yes
	
	mean_time_to_happen = {
		days = 1
	}

	immediate = {
		hidden_effect = {
			while = {
				limit = {
					NOT = { 
						development_in_provinces = {
							has_province_flag = extended_burgher_privileges
							value = estate
							estate = estate_burghers
						}
					}
					any_owned_province = {
						OR = {
							development = 15
							province_trade_power = 8
						}
						is_capital = no
						is_city = yes
						NOT = { has_province_flag = extended_burgher_privileges }
					}
				}
				random_owned_province = {
					limit = {
						OR = {
							development = 15
							province_trade_power = 8
						}
						is_capital = no
						is_city = yes
						NOT = { has_province_flag = extended_burgher_privileges }
					}
					set_province_flag = extended_burgher_privileges
				}
			}
		}
	}
	
	option = {
		name = burghers_estate_events.7.a #
		ai_chance = {
			factor = 25
			modifier = {
				factor = 0.5
				estate_influence = {
					estate = estate_burghers
					influence = 65
				}
			}
		}
		add_estate_influence_modifier = {
			estate = estate_burghers
			desc = EST_VAL_BURGHER_RIGHTS_EXTENDED
			influence = 10
			duration = 5475
		}
		every_owned_province = {
			limit = {
				has_province_flag = extended_burgher_privileges
			}
			add_local_autonomy = 33
			clr_province_flag = extended_burgher_privileges
		}
	}
	option = {
		name = burghers_estate_events.7.b #
		ai_chance = {
			factor = 75
			modifier = {
				factor = 0.5
				NOT = {
					estate_loyalty = {
						estate = estate_burghers
						loyalty = 45
					}
				}
			}
			modifier = {
				factor = 1.5
				estate_influence = {
					estate = estate_burghers
					influence = 85
				}
			}
		}
		add_estate_loyalty = {
			estate = estate_burghers
			loyalty = -20
		}
		add_estate_influence_modifier = {
			estate = estate_burghers
			desc = EST_VAL_BURGHER_RIGHTS_REFUSED
			influence = -10
			duration = 5475
		}
	}
}

#Hurtful Trade Policies
#Strengthen Burghers for better trade efficiency.
country_event = {
	id = burghers_estate_events.8
	title = burghers_estate_events.8.t
	desc = burghers_estate_events.8.d
	picture = BURGHER_ESTATE_UPSET_eventPicture
	
	trigger = {
		has_estate = estate_burghers
		num_of_trade_embargos = 1
		NOT = {
			has_estate_influence_modifier = {
				estate = estate_burghers
				modifier = EST_VAL_BURGHER_BYPASSING_EMBARGO
			}
		}
		NOT = {
			has_estate_influence_modifier = {
				estate = estate_burghers
				modifier = EST_VAL_BURGHER_DENIED_BYPASS_OF_EMBARGO
			}
		}
	}
	
	is_triggered_only = yes
	
	mean_time_to_happen = {
		days = 1
	} 
	
	option = {
		name = burghers_estate_events.8.a #We must support the $ESTATE_BURGHERS$
		ai_chance = {
			factor = 50
			modifier = {
				factor = 1.5
				NOT = {
					estate_loyalty = {
						estate = estate_burghers
						loyalty = 40
					}
				}
			}
			modifier = {
				factor = 0.5
				estate_influence = {
					estate = estate_burghers
					influence = 60
				}
			}
		}
		add_country_modifier = {
			name = "burgher_favorable_trade_laws"
			duration = 3650
		}
		add_estate_loyalty = {
			estate = estate_burghers
			loyalty = 15
		}
		add_estate_influence_modifier = {
			estate = estate_burghers
			desc = EST_VAL_BURGHER_BYPASSING_EMBARGO
			influence = 10
			duration = 3650
		}
	}
	option = {
		name = burghers_estate_events.8.b #We cannot let our trade policy be decided by these peddlers.
		ai_chance = {
			factor = 50
			modifier = {
				factor = 0.5
				NOT = {
					estate_loyalty = {
						estate = estate_burghers
						loyalty = 40
					}
				}
			}
			modifier = {
				factor = 1.5
				estate_influence = {
					estate = estate_burghers
					influence = 60
				}
			}
		}
		add_country_modifier = {
			name = "burgher_unfavorable_trade_laws"
			duration = 3650
		}
		add_estate_loyalty = {
			estate = estate_burghers
			loyalty = -15
		}
		add_estate_influence_modifier = {
			estate = estate_burghers
			desc = EST_VAL_BURGHER_DENIED_BYPASS_OF_EMBARGO
			influence = -10
			duration = 3650
		}
	}
}

#Putting out system
#Permanent but unpopular province boost vs popular but temporary tex income boost.
country_event = {
	id = burghers_estate_events.9
	title = burghers_estate_events.9.t
	desc = burghers_estate_events.9.d
	picture = BURGHER_ESTATE_eventPicture
	
	trigger = {
		has_estate = estate_burghers
		dip_tech = 5
		num_of_cities = 8
		estate_territory = { 
			estate = estate_burghers
			territory = 1
		}
		NOT = {
			has_estate_influence_modifier = {
				estate = estate_burghers
				modifier = EST_VAL_BURGHER_PROTO_CAPITALISTS
			}
		}
		NOT = {
			any_owned_province = {
				has_province_modifier = thankful_guilds
			}
		}
		NOT = {
			any_owned_province = {
				has_province_modifier = conflict_within_city
			}
		}
		any_owned_province = {
			OR = {
				owner = { government = republic }
				development = 10
				province_trade_power = 5
			}
			is_capital = no
		}
	}
	
	is_triggered_only = yes
	
	mean_time_to_happen = {
		days = 1
	}
	
	immediate = {
		hidden_effect = {
			random_owned_province = {
				limit = {
					OR = {
						owner = { government = republic }
						development = 10
						province_trade_power = 5
					}
					is_capital = no
				}
				set_province_flag = putting_out_system
			}
			random_owned_province = {
				limit = {
					OR = {
						owner = { government = republic }
						development = 10
						province_trade_power = 5
					}
					is_capital = no
					NOT = { has_province_flag = putting_out_system }
					owner = { num_of_cities = 12 }
				}
				set_province_flag = putting_out_system
			}
			random_owned_province = {
				limit = {
					OR = {
						owner = { government = republic }
						development = 10
						province_trade_power = 5
					}
					is_capital = no
					NOT = { has_province_flag = putting_out_system }
					owner = { num_of_cities = 18 }
				}
				random = {
					chance = 75
					set_province_flag = putting_out_system
				}
			}
			random_owned_province = {
				limit = {
					OR = {
						owner = { government = republic }
						development = 10
						province_trade_power = 5
					}
					is_capital = no
					NOT = { has_province_flag = putting_out_system }
					owner = { num_of_cities = 24 }
				}
				random = {
					chance = 55
					set_province_flag = putting_out_system
				}
			}
		}
	}
	
	option = {
		name = burghers_estate_events.9.a #Support the Capitalists
		ai_chance = {
			factor = 50
			modifier = {
				factor = 0.5
				NOT = {
					estate_loyalty = {
						estate = estate_burghers
						loyalty = 40
					}
				}
			}
			modifier = {
				factor = 0.5
				estate_influence = {
					estate = estate_burghers
					influence = 60
				}
			}
		}
		add_estate_loyalty = {
			estate = estate_burghers
			loyalty = -15
		}
		every_owned_province = {
			limit = { has_province_flag = putting_out_system }
			add_base_production = 1
			add_province_modifier = {
				name = "conflict_within_city"
				duration = 3650
			}
			clr_province_flag = putting_out_system
		}
	}
	option = {
		name = burghers_estate_events.9.b #Support the Guilds
		ai_chance = {
			factor = 50
			modifier = {
				factor = 1.5
				NOT = {
					estate_loyalty = {
						estate = estate_burghers
						loyalty = 40
					}
				}
			}
		}
		add_estate_loyalty = {
			estate = estate_burghers
			loyalty = 15
		}
		add_estate_influence_modifier = {
			estate = estate_burghers
			desc = EST_VAL_BURGHER_PROTO_CAPITALISTS
			influence = 10
			duration = 3650
		}
		every_owned_province = {
			limit = { has_province_flag = putting_out_system }
			add_province_modifier = {
				name = "thankful_guilds"
				duration = 3650
			}
			clr_province_flag = putting_out_system
		}
	}
}

#Demands for greater Social Mobility
#Demands from Strong Burgher faction to anger the clergy and nobles.
country_event = {
	id = burghers_estate_events.10
	title = burghers_estate_events.10.t
	desc = burghers_estate_events.10.d
	picture = BURGHER_ESTATE_UPSET_eventPicture
	
	trigger = {
		has_estate = estate_burghers
		estate_influence = {
			estate = estate_burghers
			influence = 70
		}
		NOT = {
			has_estate_influence_modifier = {
				estate = estate_burghers
				modifier = EST_VAL_NEW_MEN
			}
		}
		NOT = {
			has_estate_influence_modifier = {
				estate = estate_burghers
				modifier = EST_VAL_BARRED_FROM_CAREERS
			}
		}
	}
	
	is_triggered_only = yes
	
	mean_time_to_happen = {
		days = 1
	}
	
	option = {
		name = burghers_estate_events.10.a # "We must not stand in the way of these new men."
		ai_chance = {
			factor = 50
			modifier = {
				factor = 0.5
				NOT = {
					estate_loyalty = {
						estate = estate_nobles
						loyalty = 45
					}
				}
			}
			modifier = {
				factor = 0.5
				NOT = {
					estate_loyalty = {
						estate = estate_church
						loyalty = 45
					}
				}
			}
			modifier = {
				factor = 0.5
				estate_influence = {
					estate = estate_burghers
					influence = 60
				}
			}
		}
		add_estate_influence_modifier = {
			estate = estate_burghers
			desc = EST_VAL_NEW_MEN
			influence = 10
			duration = 7300
		}
		add_country_modifier = {
			name = "new_men"
			duration = 3650
		}
		if = {
			limit = { has_estate = estate_nobles }
			add_estate_loyalty = {
				estate = estate_nobles
				loyalty = -20
			}
		}
		if = {
			limit = { has_estate = estate_church }
			add_estate_loyalty = {
				estate = estate_church
				loyalty = -20
			}
		}
		add_meritocracy_effect = yes
	}
	option = {
		name = burghers_estate_events.10.b #"We must protect the ancient rights of the other Estates."
		ai_chance = {
			factor = 50
			modifier = {
				factor = 0.5
				NOT = {
					estate_loyalty = {
						estate = estate_burghers
						loyalty = 45
					}
				}
			}
			modifier = {
				factor = 1.5
				estate_influence = {
					estate = estate_burghers
					influence = 85
				}
			}
		}
		add_estate_influence_modifier = {
			estate = estate_burghers
			desc = EST_VAL_BARRED_FROM_CAREERS
			influence = -10
			duration = 7300
		}
		add_country_modifier = {
			name = "held_back_commoners"
			duration = 5475
		}
		add_estate_loyalty = {
			estate = estate_burghers	
			loyalty = -20
		}
		if = {
			limit = { has_estate = estate_nobles }
			add_estate_loyalty = {
				estate = estate_nobles
				loyalty = 15
			}
			add_army_tradition = -15
			add_navy_tradition = -15
		}
		if = {
			limit = { has_estate = estate_church }
			add_estate_loyalty = {
				estate = estate_church
				loyalty = 15
			}
			add_adm_power = -75
		}
		reduce_meritocracy_effect = yes
	}
}

#Nice things can also come from strong and loyal Burghers.
#Bonus for high influence + high loyalty
country_event = {
	id = burghers_estate_events.11
	title = burghers_estate_events.11.t
	desc = burghers_estate_events.11.d
	picture = BURGHER_ESTATE_eventPicture
	
	trigger = {
		has_estate = estate_burghers
		estate_territory = { 
			estate = estate_burghers
			territory = 1
		}
		estate_influence = {
			estate = estate_burghers
			influence = 60
		}
		estate_loyalty = {
			estate = estate_burghers
			loyalty = 60
		}
		NOT = {
			any_active_trade_node = {
				has_merchant = prev
				has_trade_modifier = {
					who = ROOT
					key = STRONG_MERCHANTS
				}
			}
		}
		any_owned_province = {
			OR = {
				owner = { government = republic }
				development = 10
				province_trade_power = 5
			}
			is_capital = no
			is_city = yes
		}
	}
	
	is_triggered_only = yes
	
	immediate = {
		hidden_effect = {
			random_list = {
				65 = { set_country_flag = growing_trade_influence }
				35 = { set_country_flag = growing_cities }
			}
		}
	}
	
	mean_time_to_happen = {
		days = 1
	}
	
	option = {
		name = burghers_estate_events.11.a #
		trigger_switch = {
			on_trigger = has_country_flag
			growing_trade_influence = {
				random_owned_province = {
					limit = {
						OR = {
							owner = { government = republic }
							development = 10
							province_trade_power = 5
						}
						is_capital = no
						is_city = yes
					}
					add_trade_modifier = {
						who = root
						duration = 5475
						power = 15
						key = STRONG_MERCHANTS
					}
				}
				clr_country_flag = growing_trade_influence
			}
			growing_cities = {
				random_owned_province = {
					limit = {
						OR = {
							owner = { government = republic }
							development = 10
							province_trade_power = 5
						}
						is_city = yes
					}
					add_base_production = 1
				}
				clr_country_flag = growing_cities
			}
		}
	}
}

#The risks of Trade
#Money for Mercantilism + Stronger Burghers
country_event = {
	id = burghers_estate_events.12
	title = burghers_estate_events.12.t
	desc = burghers_estate_events.12.d
	picture = BURGHER_ESTATE_eventPicture
	
	trigger = {
		has_estate = estate_burghers
		NOT = {
			has_estate_influence_modifier = {
				estate = estate_burghers
				modifier = EST_VAL_COMPENSATING_LOSSES
			}
		}
		NOT = {
			has_estate_influence_modifier = {
				estate = estate_burghers
				modifier = EST_VAL_BAD_FORTUNES
			}
		}
	}
	
	is_triggered_only = yes
	
	
	mean_time_to_happen = {
		days = 1
	}
	
	option = {
		name = burghers_estate_events.12.a #Compensate the Traders.
		ai_chance = {
			factor = 50
			modifier = {
				factor = 1.5
				NOT = {
					estate_loyalty = {
						estate = estate_burghers
						loyalty = 45
					}
				}
			}
			modifier = {
				factor = 0.5
				estate_influence = {
					estate = estate_burghers
					influence = 60
				}
			}
		}
		add_years_of_income = -0.5
		add_mercantilism = 1
		add_estate_loyalty = {
			estate = estate_burghers
			loyalty = 15
		}
		add_estate_influence_modifier = {
			estate = estate_burghers
			influence = 10
			desc = EST_VAL_COMPENSATING_LOSSES
			duration = 5475
		}
	}
	option = {
		name = burghers_estate_events.12.b #They knew what they were getting into.
		ai_chance = {
			factor = 50
			modifier = {
				factor = 0.5
				NOT = {
					estate_loyalty = {
						estate = estate_burghers
						loyalty = 45
					}
				}
			}
			modifier = {
				factor = 1.5
				estate_influence = {
					estate = estate_burghers
					influence = 60
				}
			}
		}
		add_estate_loyalty = {
			estate = estate_burghers
			loyalty = -15
		}
		add_estate_influence_modifier = {
			estate = estate_burghers
			influence = -10
			desc = EST_VAL_BAD_FORTUNES
			duration = 5475
		}
	}
}

#Urbanisation
#Support for Richer Cities or don't for weaker Burghers.
country_event = {
	id = burghers_estate_events.13
	title = burghers_estate_events.13.t
	desc = burghers_estate_events.13.d
	picture = BURGHER_ESTATE_eventPicture
	
	trigger = {
		has_estate = estate_burghers
		estate_territory = { 
			estate = estate_burghers
			territory = 1
		}
		NOT = {
			has_estate_influence_modifier = {
				estate = estate_burghers
				modifier = EST_VAL_NOT_SUPPORTING_CITY_GROWTH
			}
		}
		NOT = {
			has_estate_influence_modifier = {
				estate = estate_burghers
				modifier = EST_VAL_SUPPORTED_CITY_GROWTH
			}
		}
		any_owned_province = {
			OR = {
				owner = { government = republic }
				development = 10
				province_trade_power = 5
			}
			is_city = yes
		}
	}
	
	is_triggered_only = yes
	
	immediate = {
		hidden_effect = {
			random_owned_province = {
				limit = {
					OR = {
						owner = { government = republic }
						development = 10
						province_trade_power = 5
					}
					is_city = yes
				}
				set_province_flag = urbanisation
			}
			random_owned_province = {
				limit = {
					OR = {
						owner = { government = republic }
						development = 10
						province_trade_power = 5
					}
					NOT = { has_province_flag = urbanisation }
					owner = { num_of_cities = 8 }
					is_city = yes
				}
				set_province_flag = urbanisation
			}
			random_owned_province = {
				limit = {
					OR = {
						owner = { government = republic }
						development = 10
						province_trade_power = 5
					}
					NOT = { has_province_flag = urbanisation }
					owner = { num_of_cities = 14 }
					is_city = yes
				}
				set_province_flag = urbanisation
			}
			random_owned_province = {
				limit = {
					OR = {
						owner = { government = republic }
						development = 10
						province_trade_power = 5
					}
					NOT = { has_province_flag = urbanisation }
					owner = { num_of_cities = 18 }
					is_city = yes
				}
				set_province_flag = urbanisation
			}
			random_owned_province = {
				limit = {
					OR = {
						owner = { government = republic }
						development = 10
						province_trade_power = 5
					}
					NOT = { has_province_flag = urbanisation }
					owner = { num_of_cities = 22 }
					is_city = yes
				}
				random = {
					chance = 75
					set_province_flag = urbanisation
				}
			}
			random_owned_province = {
				limit = {
					OR = {
						owner = { government = republic }
						development = 10
						province_trade_power = 5
					}
					NOT = { has_province_flag = urbanisation }
					owner = { num_of_cities = 28 }
					is_city = yes
				}
				random = {
					chance = 75
					set_province_flag = urbanisation
				}
			}
		}
	}
	
	mean_time_to_happen = {
		days = 1
	}
	
	option = {
		name = burghers_estate_events.13.a #
		ai_chance = {
			factor = 50
			modifier = {
				factor = 0.5
				estate_influence = {
					estate = estate_burghers
					influence = 60
				}
			}
		}
		add_years_of_income = -0.25
		every_owned_province = {
			limit = { has_province_flag = urbanisation }
			add_base_tax = 1
			clr_province_flag = urbanisation
		}
		add_estate_influence_modifier = {
			estate = estate_burghers
			influence = 10
			desc = EST_VAL_SUPPORTED_CITY_GROWTH
			duration = 7300
		}
	}
	option = {
		name = burghers_estate_events.13.b #
		ai_chance = {
			factor = 50
			modifier = {
				factor = 0.5
				NOT = {
					estate_loyalty = {
						estate = estate_burghers
						loyalty = 45
					}
				}
			}
			modifier = {
				factor = 1.5
				estate_influence = {
					estate = estate_burghers
					influence = 60
				}
			}
		}
		every_owned_province = {
			limit = { has_province_flag = urbanisation }
			add_province_modifier = {
				name = "unsanitary_suburbs"
				duration = 7300
			}
			clr_province_flag = urbanisation
		}
		add_estate_loyalty = {
			estate = estate_burghers
			loyalty = -15
		}
		add_estate_influence_modifier = {
			estate = estate_burghers
			influence = -10
			desc = EST_VAL_NOT_SUPPORTING_CITY_GROWTH
			duration = 7300
		}
	}
}

#Demands for greater Economic Freedom
#Demands from Estates at High Influence
country_event = {
	id = burghers_estate_events.14
	title = burghers_estate_events.14.t
	desc = burghers_estate_events.14.d
	picture = BURGHER_ESTATE_UPSET_eventPicture
	
	trigger = {
		has_estate = estate_burghers
		estate_influence = {
			estate = estate_burghers
			influence = 70
		}
		NOT = {
			has_estate_influence_modifier = {
				estate = estate_burghers
				modifier = EST_VAL_REFUSED_CHANGE_IN_TRADE_POLICY
			}
		}
		NOT = {
			has_estate_influence_modifier = {
				estate = estate_burghers
				modifier = EST_VAL_CHANGE_IN_TRADE_POLICY
			}
		}
		mercantilism = 15
	}
	
	is_triggered_only = yes
	
	mean_time_to_happen = {
		days = 1
		modifier = {
			factor = 2.0
			dip_tech = 20
		}
	}
	
	option = {
		name = burghers_estate_events.14.a #
		ai_chance = {
			factor = 25
		}
		add_mercantilism = -3
		add_estate_influence_modifier = {
			estate = estate_burghers
			desc = EST_VAL_CHANGE_IN_TRADE_POLICY
			influence = 10
			duration = 5475
		}
	}
	option = {
		name = burghers_estate_events.14.b #
		ai_chance = {
			factor = 75
			modifier = {
				factor = 0.25
				NOT = {
					estate_loyalty = {
						estate = estate_burghers
						loyalty = 45
					}
				}
			}
		}
		add_estate_loyalty = {
			estate = estate_burghers
			loyalty = -20
		}
		add_estate_influence_modifier = {
			estate = estate_burghers
			desc = EST_VAL_REFUSED_CHANGE_IN_TRADE_POLICY
			influence = -5
			duration = 5475
		}
	}
}

#City Protests
#Consequence for Angry Burgher Estate
country_event = {
	id = burghers_estate_events.15
	title = burghers_estate_events.15.t
	desc = burghers_estate_events.15.d
	picture = BURGHER_ESTATE_UPSET_eventPicture
	
	trigger = {
		has_estate = estate_burghers
		NOT = {
			estate_loyalty = {
				estate = estate_burghers
				loyalty = 30
			}
		}
		estate_territory = { 
			estate = estate_burghers
			territory = 10
		}
		any_owned_province = {
			OR = {
				owner = { government = republic }
				development = 10
				province_trade_power = 5
			}
			is_capital = no
			is_city = yes
		}
	}
	
	is_triggered_only = yes
	
	immediate = {
		hidden_effect = {
			while = {
				limit = {
					NOT = { 
						development_in_provinces = {
							has_province_flag = city_protests
							value = estate
							estate = estate_burghers
						}
					}
					any_owned_province = {
						OR = {
							owner = { government = republic }
							development = 10
							province_trade_power = 5
						}
						is_capital = no
						is_city = yes
						NOT = { has_province_flag = city_protests }
					}
					check_reducing_estate_revolt_size_trigger = {
						FLAG = city_protests
					}
				}
				random_owned_province = {
					limit = {
						OR = {
							owner = { government = republic }
							development = 10
							province_trade_power = 5
						}
						is_capital = no
						is_city = yes
						NOT = { has_province_flag = city_protests }
					}
					set_province_flag = city_protests
				}
			}
		}
	}
	
	mean_time_to_happen = {
		days = 1
		modifier = {
			factor = 2.0
			NOT = {
				estate_loyalty = {
					estate = estate_burghers
					loyalty = 15
				}
			}
		}
	}
	
	option = {
		name = burghers_estate_events.15.a #
		ai_chance = {
			factor = 0
		}
		every_owned_province = {
			limit = {
				has_province_flag = city_protests
			}
			clr_province_flag = city_protests
			spawn_rebels = {
				type = particularist_rebels
				size = 1
			}
		}
	}
	option = {
		name = burghers_estate_events.15.b #
		ai_chance = {
			factor = 1
		}
		every_owned_province = {
			limit = {
				has_province_flag = city_protests
			}
			clr_province_flag = city_protests
			add_local_autonomy = 33
		}
		add_estate_loyalty = {
			estate = estate_burghers
			loyalty = 15
		}
	}
}

#Province revolt
province_event = {
	id = burghers_estate_events.16
	title = burghers_estate_events.16.t
	desc = burghers_estate_events.16.d
	picture = BURGHER_ESTATE_UPSET_eventPicture
	
	is_triggered_only = yes
	
	option = {
		name = burghers_estate_events.16.a #Ok.
	}
}

#Tropical City Planning
country_event = {
	id = burghers_estate_events.17
	title = burghers_estate_events.17.t
	desc = burghers_estate_events.17.d
	picture = BURGHER_ESTATE_UPSET_eventPicture
	
	trigger = {
		has_estate = estate_burghers
		has_estate_privilege = estate_burghers_tropical_nation
		any_owned_province = {
			has_climate = tropical
			NOT = {
				has_province_modifier = estate_burghers_tropical_mod
			}
		}
	}
	
	is_triggered_only = yes
	
	option = {
		name = burghers_estate_events.17.a #Ok.
		every_owned_province = {
			limit = {
				has_climate = tropical
				NOT = {
					has_province_modifier = estate_burghers_tropical_mod
				}
			}
			add_province_modifier = {
				name = estate_burghers_tropical_mod
				duration = -1
			}
		}
	}
}